0.18987 0.5 0.0145757
0.18987 -0.5 0.0145757
0.160511 -0.5 0.0325677
0.160511 0.5 0.0325677
0.128697 -0.5 0.0457447
0.128697 0.5 0.0457447
0.0952137 -0.5 0.0537838
0.0952137 0.5 0.0537838
0.0608858 -0.5 0.0564848
0.0608858 0.5 0.0564848
0.0265575 -0.5 0.0537838
0.0265575 0.5 0.0537838
-0.0069256 -0.5 0.0457447
-0.0069256 0.5 0.0457447
-0.038739 -0.5 0.0325677
-0.038739 0.5 0.0325677
-0.0680987 -0.5 0.0145757
-0.0680987 0.5 0.0145757
-0.0942827 -0.5 -0.00778743
-0.0942827 0.5 -0.00778743
-0.116646 -0.5 -0.0339725
-0.116646 0.5 -0.0339725
-0.134639 -0.5 -0.0633324
-0.134639 0.5 -0.0633324
-0.147815 -0.5 -0.0951457
-0.147815 0.5 -0.0951457
-0.155855 -0.5 -0.128628
-0.155855 0.5 -0.128628
-0.158556 -0.5 -0.162956
-0.158556 0.5 -0.162956
-0.155855 -0.5 -0.197285
-0.155855 0.5 -0.197285
-0.147815 -0.5 -0.230768
-0.147815 0.5 -0.230768
-0.134639 -0.5 -0.262581
-0.134639 0.5 -0.262581
-0.116646 -0.5 -0.291941
-0.116646 0.5 -0.291941
-0.0942827 -0.5 -0.318125
-0.0942827 0.5 -0.318125
-0.0680987 -0.5 -0.340488
-0.0680987 0.5 -0.340488
-0.038739 -0.5 -0.358481
-0.038739 0.5 -0.358481
-0.0069256 -0.5 -0.371658
-0.0069256 0.5 -0.371658
0.0265574 -0.5 -0.379697
0.0265574 0.5 -0.379697
0.0608857 -0.5 -0.382398
0.0608857 0.5 -0.382398
0.0952137 -0.5 -0.379697
0.0952137 0.5 -0.379697
0.128696 -0.5 -0.371658
0.128696 0.5 -0.371658
0.16051 -0.5 -0.358481
0.16051 0.5 -0.358481
0.18987 -0.5 -0.340488
0.18987 0.5 -0.340488
0.216054 -0.5 -0.318125
0.216054 0.5 -0.318125
0.238418 -0.5 -0.291941
0.238418 0.5 -0.291941
0.25641 -0.5 -0.262581
0.25641 0.5 -0.262581
0.269587 -0.5 -0.230768
0.269587 0.5 -0.230768
0.277626 -0.5 -0.197285
0.277626 0.5 -0.197285
0.280327 -0.5 -0.162956
0.280327 0.5 -0.162956
0.277626 -0.5 -0.128628
0.277626 0.5 -0.128628
0.269587 -0.5 -0.0951457
0.269587 0.5 -0.0951457
0.25641 -0.5 -0.0633324
0.25641 0.5 -0.0633324
0.238418 -0.5 -0.0339725
0.238418 0.5 -0.0339725
0.216054 -0.5 -0.00778851
0.216054 0.5 -0.00778851
0.157965 -0.5 -0.461734
0.203507 -0.5 -0.442869
0.24554 -0.5 -0.417111
0.283026 -0.5 -0.385097
0.315041 -0.5 -0.347611
0.340798 -0.5 -0.305579
0.359662 -0.5 -0.260035
0.371171 -0.5 -0.212101
0.375039 -0.5 -0.162956
0.371171 -0.5 -0.113812
0.359662 -0.5 -0.0658783
0.340799 -0.5 -0.0203345
0.315041 -0.5 0.0216976
0.283026 -0.5 0.0591838
0.245541 -0.5 0.0911989
0.203508 -0.5 0.116956
0.157965 -0.5 0.13582
0.11003 -0.5 0.147329
0.0608858 -0.5 0.151196
-0.375039 -0.5 -0.162956
0.0608858 -0.5 -0.47711
0.11003 -0.5 -0.473241
0.203508 0.5 0.116956
0.245541 0.5 0.0911989
0.283026 0.5 0.0591838
0.315041 0.5 0.0216986
0.340799 0.5 -0.0203345
0.359662 0.5 -0.0658783
0.371171 0.5 -0.113812
0.375039 0.5 -0.162956
0.371171 0.5 -0.212101
0.359662 0.5 -0.260035
0.340798 0.5 -0.305579
0.315041 0.5 -0.347611
0.283026 0.5 -0.385097
0.24554 0.5 -0.417111
0.203507 0.5 -0.442869
0.157965 0.5 -0.461734
0.11003 0.5 -0.473241
0.0608858 0.5 -0.47711
-0.375039 0.5 -0.162956
0.0608858 0.5 0.151196
0.11003 0.5 0.147329
0.157965 0.5 0.13582
-0.375039 -0.5 -0.47711
-0.157078 -0.5 0.151196
-0.375039 -0.5 0.151196
-0.375039 0.5 -0.47711
-0.375039 -0.185847 0.47711
-0.157078 -0.185847 0.47711
-0.157078 0.5 0.47711
-0.375039 0.5 0.47711
-0.375039 0.5 0.151196
-0.157078 0.5 0.151196
-0.375039 -0.185847 0.151196
-0.375039 -0.5 0.47711
-0.157078 -0.5 0.47711
0.0608859 -0.5 0.47711
0.0608859 -0.185847 0.47711
-0.157078 -0.185847 0.151196
0.0608858 -0.185847 0.151196
-0.375039 -0.315312 0.400904
-0.375039 -0.329311 0.404264
-0.375039 -0.343663 0.405393
-0.375039 -0.358016 0.404264
-0.375039 -0.372015 0.400904
-0.375039 -0.385316 0.395395
-0.375039 -0.397591 0.387872
-0.375039 -0.408538 0.378521
-0.375039 -0.417888 0.367575
-0.375039 -0.42541 0.355299
-0.375039 -0.43092 0.341999
-0.375039 -0.434281 0.328
-0.375039 -0.43541 0.313648
-0.375039 -0.434281 0.299295
-0.375039 -0.43092 0.285296
-0.375039 -0.42541 0.271996
-0.375039 -0.417888 0.25972
-0.375039 -0.408538 0.248773
-0.375039 -0.397591 0.239422
-0.375039 -0.385316 0.2319
-0.375039 -0.372015 0.22639
-0.375039 -0.358016 0.223031
-0.375039 -0.343663 0.221901
-0.375039 -0.329311 0.223031
-0.375039 -0.315312 0.22639
-0.375039 -0.302011 0.2319
-0.375039 -0.289736 0.239422
-0.375039 -0.278789 0.248773
-0.375039 -0.269439 0.25972
-0.375039 -0.261916 0.271996
-0.375039 -0.256407 0.285296
-0.375039 -0.253046 0.299295
-0.375039 -0.251917 0.313648
-0.375039 -0.253046 0.328
-0.375039 -0.256407 0.341999
-0.375039 -0.261916 0.355299
-0.375039 -0.269439 0.367575
-0.375039 -0.278789 0.378521
-0.375039 -0.289736 0.387872
-0.375039 -0.302011 0.395395
0.0608859 -0.302011 0.395395
0.0608859 -0.289736 0.387872
0.0608859 -0.278789 0.378521
0.0608859 -0.269439 0.367575
0.0608859 -0.261916 0.355299
0.0608859 -0.256407 0.341999
0.0608859 -0.253046 0.328
0.0608859 -0.251917 0.313648
0.0608859 -0.253046 0.299295
0.0608859 -0.256407 0.285296
0.0608859 -0.261916 0.271996
0.0608859 -0.269439 0.25972
0.0608859 -0.278789 0.248773
0.0608859 -0.289736 0.239422
0.0608859 -0.302011 0.2319
0.0608859 -0.315312 0.22639
0.0608859 -0.329311 0.223031
0.0608859 -0.343663 0.221901
0.0608859 -0.358016 0.223031
0.0608859 -0.372015 0.22639
0.0608859 -0.385316 0.2319
0.0608859 -0.397591 0.239422
0.0608859 -0.408538 0.248773
0.0608859 -0.417888 0.25972
0.0608859 -0.42541 0.271996
0.0608859 -0.43092 0.285296
0.0608859 -0.434281 0.299295
0.0608859 -0.43541 0.313648
0.0608859 -0.434281 0.328
0.0608859 -0.43092 0.341999
0.0608859 -0.42541 0.355299
0.0608859 -0.417888 0.367575
0.0608859 -0.408538 0.378521
0.0608859 -0.397591 0.387872
0.0608859 -0.385316 0.395395
0.0608859 -0.372015 0.400904
0.0608859 -0.358016 0.404264
0.0608859 -0.343663 0.405393
0.0608859 -0.329311 0.404264
0.0608859 -0.315312 0.400904