3.660927 0.002173 -0.738231
3.719482 0.346536 -0.832918
3.977333 0.310855 -0.725284
4.076667 0.138582 -0.653713
4.140376 0.040489 -0.561284
4.085365 -0.066639 -0.413757
3.709545 -0.118633 -0.465149
4.548638 -0.090769 -0.414935
4.724719 -0.114980 -0.451816
4.881753 -0.237846 -0.359778
4.858512 -0.304825 -0.230003
4.493628 -0.197897 -0.267408
5.221519 -0.397388 -0.356507
5.365458 -0.384968 -0.385097
5.562807 -0.529375 -0.302554
5.474594 -0.570163 -0.213063
5.198277 -0.464367 -0.226732
5.741493 -0.632485 -0.251149
5.890629 -0.762438 -0.196924
5.810540 -0.773411 -0.130526
5.653280 -0.673274 -0.161657
5.953120 -0.557928 -0.327075
6.067602 -0.691137 -0.292003
5.996697 -0.724501 -0.250924
5.847560 -0.594548 -0.305149
5.613541 -0.256794 -0.416450
5.808066 -0.418419 -0.357686
5.702507 -0.455038 -0.335760
5.505158 -0.310631 -0.418302
4.989776 -0.231429 -0.503387
4.832741 -0.108562 -0.595426
4.964575 -0.046972 -0.668758
5.133715 -0.219008 -0.531978
5.233178 0.038491 -0.591839
5.379629 -0.087744 -0.517724
5.271246 -0.141581 -0.519576
5.102107 0.030456 -0.656356
4.728901 0.009053 -0.704017
4.665351 0.145232 -0.817226
4.860735 0.070643 -0.777349
4.769483 0.441130 -0.990235
4.976626 0.339930 -0.918071
4.901503 0.203468 -0.844311
4.706119 0.278057 -0.884189
5.243104 0.192553 -0.695023
5.205224 0.150571 -0.675200
5.074152 0.142536 -0.739717
5.149275 0.278997 -0.813477
4.405345 0.066080 -0.574397
4.341636 0.164173 -0.666826
4.517875 0.178049 -0.724488
4.581425 0.041869 -0.611278
4.194468 0.473876 -0.856220
4.310337 0.602203 -0.946309
4.533404 0.478551 -0.948357
4.470041 0.315478 -0.842311
4.293801 0.301603 -0.784649
4.899528 0.601207 -1.090305
5.043164 0.765171 -1.112780
5.216632 0.617387 -1.019664
5.106671 0.500007 -1.018141
5.556890 0.078153 -0.606790
5.384698 0.206420 -0.671131
5.290869 0.292864 -0.789584
5.400831 0.410245 -0.791108
5.705170 0.209965 -0.642731
5.130258 0.877397 -1.030979
5.250915 0.983227 -0.980493
5.372806 0.881211 -0.914661
5.303726 0.729613 -0.937863
5.551024 0.745196 -0.779624
5.700895 0.664582 -0.703767
5.786283 0.393318 -0.654449
5.481945 0.593598 -0.802826
5.954019 0.826483 -0.665822
6.020350 0.893753 -0.665237
6.075834 0.899451 -0.610095
6.085891 0.889175 -0.481817
6.205941 0.678799 -0.422816
6.252708 0.496470 -0.538938
6.020084 0.464262 -0.601525
5.934696 0.735526 -0.650843
6.416557 0.152013 -0.482712
6.483556 -0.022386 -0.481238
6.388928 -0.032577 -0.510478
6.183933 0.119806 -0.545298
6.300010 -0.165654 -0.526933
6.300972 -0.270861 -0.524107
6.218511 -0.300323 -0.505849
6.095015 -0.013271 -0.561752
6.089780 -0.338230 -0.485007
6.012709 -0.363830 -0.447428
5.818004 -0.182990 -0.504969
5.966284 -0.051178 -0.540910
5.971472 -0.394839 -0.394378
5.907671 -0.415573 -0.363558
5.713146 -0.253949 -0.422322
5.776767 -0.213999 -0.451919
5.436323 -0.027009 -0.483640
5.289872 0.099226 -0.557756
5.327752 0.141209 -0.577579
5.499944 0.012942 -0.513238
6.231580 -0.629259 -0.384612
6.131279 -0.488112 -0.422256
6.208351 -0.462511 -0.459834
6.324903 -0.603784 -0.419516
6.391636 -0.417286 -0.484782
6.467093 -0.483923 -0.467558
6.425727 -0.588021 -0.426206
6.309175 -0.446748 -0.466524
6.559578 -0.504188 -0.443687
6.618505 -0.442602 -0.419868
6.658661 -0.589473 -0.308192
6.518213 -0.608286 -0.402335
6.656216 -0.753043 -0.272549
6.586968 -0.951982 -0.217906
6.513065 -0.942883 -0.280276
6.515768 -0.771855 -0.366691
6.358376 -0.948975 -0.272330
6.319861 -0.801022 -0.343683
6.413185 -0.775547 -0.378587
6.410482 -0.946575 -0.292172
6.739054 -0.269013 -0.345263
6.782848 -0.339043 -0.245982
6.718903 -0.490979 -0.276500
6.678747 -0.344108 -0.388176
6.559195 -0.430854 -0.502001
6.551692 -0.332555 -0.523093
6.618122 -0.369268 -0.478182
6.562235 -0.243701 -0.510794
6.587947 -0.159965 -0.480511
6.628666 -0.280414 -0.465883
6.675961 -0.123291 -0.393177
6.716988 -0.179166 -0.373648
6.656681 -0.254261 -0.416561
6.615962 -0.133812 -0.431189
6.493683 -0.186626 -0.521764
6.424767 -0.113081 -0.520722
6.519395 -0.102889 -0.491481
6.643956 0.025409 -0.380343
6.646670 -0.056590 -0.392519
6.586671 -0.067111 -0.430531
6.519672 0.107288 -0.432005
6.433016 -0.232695 -0.528794
6.365063 -0.264356 -0.524927
6.364100 -0.159150 -0.527752
6.495789 -0.327949 -0.533332
6.503292 -0.426248 -0.512240
6.427836 -0.359610 -0.529464
6.186127 -0.815914 -0.266799
6.215973 -0.911111 -0.186303
6.115222 -0.849279 -0.225720
6.194085 -0.646983 -0.314881
6.144466 -0.659778 -0.286632
6.029984 -0.526570 -0.321704
6.093784 -0.505835 -0.352524
6.304638 -0.952485 -0.200908
6.286436 -0.964617 -0.138538
6.246351 -0.912523 -0.163516
6.216505 -0.817327 -0.244012
6.266124 -0.804532 -0.272261
6.832478 -0.199019 -0.317050
6.937601 -0.097875 -0.248748
6.963887 -0.144345 -0.185556
6.876272 -0.269048 -0.217768
6.754511 -0.104566 -0.355674
6.713485 -0.048691 -0.375203
6.710771 0.033309 -0.363027
6.831454 0.058261 -0.295456
6.859634 -0.003422 -0.287373
6.704198 0.123903 -0.348650
6.689499 0.198692 -0.249532
6.812673 0.190336 -0.217886
6.824882 0.148855 -0.281078
6.634183 0.168611 -0.358435
6.509899 0.250490 -0.410097
6.463131 0.432819 -0.293974
6.619484 0.243400 -0.259318
5.646004 0.969041 -0.786890
5.749785 0.879885 -0.729610
5.730463 0.788928 -0.714631
5.580592 0.869541 -0.790488
5.470116 1.273921 -0.909215
5.516762 1.167174 -0.877473
5.451350 1.067674 -0.881072
5.329459 1.169691 -0.946904
5.323856 1.311998 -0.944858
4.904478 1.103106 -1.129365
4.931562 1.316984 -1.151518
5.149506 1.274206 -0.989933
5.155108 1.131899 -0.991979
5.034451 1.026068 -1.042464
4.880804 1.563348 -1.174473
4.764570 1.874047 -1.185062
5.091219 1.787269 -1.002161
5.224700 1.626358 -0.973080
5.098747 1.520570 -1.012888
5.599669 1.405951 -0.867508
5.509972 1.373363 -0.892814
5.363712 1.411440 -0.928457
5.489665 1.517228 -0.888649
5.654768 1.841137 -0.828723
5.736908 1.716924 -0.802927
5.565063 1.665914 -0.852369
5.431581 1.826825 -0.881449
5.835862 1.606030 -0.794132
5.896997 1.546190 -0.688816
5.913045 1.431920 -0.701450
5.868782 1.414387 -0.791740
5.774019 1.443743 -0.822434
5.664016 1.555020 -0.843574
5.942562 1.570311 -0.387226
5.900267 1.535738 -0.338406
5.963910 1.400242 -0.302986
5.972627 1.387263 -0.507653
5.956579 1.501533 -0.495018
6.040202 1.289379 -0.327349
6.102496 1.122423 -0.405278
6.092440 1.132699 -0.533556
6.048919 1.276400 -0.532015
5.989124 1.134735 -0.736244
5.956825 1.266602 -0.769852
6.001089 1.284134 -0.679562
6.044609 1.140434 -0.681102
5.833292 1.588776 -0.204143
5.798631 1.582296 -0.113796
5.896935 1.453280 -0.168723
5.802789 1.222465 -0.809465
5.760752 1.329108 -0.832698
5.855514 1.299752 -0.802004
5.932749 1.126849 -0.745796
5.847724 1.181429 -0.786864
5.900449 1.258716 -0.779403
5.831412 0.961919 -0.727447
5.812718 1.083769 -0.767931
5.897743 1.029189 -0.726862
5.670321 1.067239 -0.813220
5.755408 1.099931 -0.796424
5.774102 0.978082 -0.755940
5.689032 1.295503 -0.865909
5.731069 1.188861 -0.842677
5.645981 1.156168 -0.859472
5.599335 1.262915 -0.891214
4.470806 0.917909 -1.176513
4.677543 0.941513 -1.197065
4.807516 0.864476 -1.110164
4.663879 0.700512 -1.087689
4.440812 0.824164 -1.085641
3.686448 0.888946 -1.060746
3.694806 1.244581 -1.172932
3.885276 1.338271 -1.334481
4.080775 1.152780 -1.299547
4.090162 1.075338 -1.134074
4.060168 0.981593 -1.043201
3.944298 0.853266 -0.953112
6.058544 2.225796 -0.766358
6.084778 2.191514 -0.813879
5.689971 2.028632 -0.843184
5.687577 2.107853 -0.755869
5.558372 2.014300 -0.859580
5.335186 1.999987 -0.912307
5.276505 2.132236 -0.778354
5.491545 2.090000 -0.704306
5.555978 2.093521 -0.772265
5.588839 2.095470 -0.473463
5.661963 2.023250 -0.361757
5.721395 2.043555 -0.407835
5.653272 2.098991 -0.541422
6.103626 2.112875 -0.516277
6.116069 2.217651 -0.610917
5.745103 2.099707 -0.600428
5.813226 2.044271 -0.466840
5.587589 2.021238 -0.305258
5.514465 2.093458 -0.416965
5.299426 2.135694 -0.491012
5.234214 2.183783 -0.247302
5.510137 2.012629 -0.214260
4.690960 2.124503 -1.177302
4.593336 2.395830 -1.034507
4.958929 2.169973 -0.860447
5.017610 2.037724 -0.994401
4.505696 2.497747 -0.762938
4.432549 2.624436 -0.442668
4.806077 2.319979 -0.345169
4.871289 2.271890 -0.588879
5.794392 1.717329 -0.250210
5.713724 1.870658 -0.270955
5.636272 1.862049 -0.179956
5.759730 1.710849 -0.159863
4.707111 1.132743 -1.510626
4.716006 1.253832 -1.527449
4.783615 1.317883 -1.356966
4.756531 1.104004 -1.334814
4.670109 1.416657 -1.548585
4.585915 1.585868 -1.574068
4.737718 1.480708 -1.378102
4.393804 1.941839 -1.608961
4.540411 1.957327 -1.410548
4.656646 1.646628 -1.399960
4.504843 1.751788 -1.595925
4.430312 0.977183 -1.309800
4.420925 1.054625 -1.475273
4.587629 1.029526 -1.506164
4.637049 1.000787 -1.330351
4.536566 1.149015 -1.848900
4.603934 1.114725 -1.830488
4.620741 1.078373 -1.694862
4.454036 1.103472 -1.663971
4.647958 1.175026 -1.822067
4.635600 1.246013 -1.835624
4.673660 1.259764 -1.703264
4.664765 1.138675 -1.686441
4.442999 1.509517 -1.917983
4.442148 1.588413 -1.918735
4.507435 1.586990 -1.778862
4.591629 1.417778 -1.753379
4.553569 1.404027 -1.885739
4.486201 1.438317 -1.904151
4.193329 1.915165 -1.948991
4.189652 1.982514 -1.939914
4.268621 1.967128 -1.800721
4.379661 1.777076 -1.787686
4.314374 1.778500 -1.927559
4.232103 1.839117 -1.945078
3.952779 2.328326 -1.961219
3.951812 2.441631 -1.945856
4.044896 2.390602 -1.804536
4.132069 2.170598 -1.817858
4.053099 2.185984 -1.957051
3.989463 2.241347 -1.965305
4.207873 2.362571 -1.599961
4.441654 2.158055 -1.414871
4.295046 2.142567 -1.613283
3.817460 2.948365 -1.876039
3.844071 3.019816 -1.824394
3.931516 2.920066 -1.689148
3.982764 2.705863 -1.765535
3.889680 2.756891 -1.906855
3.830834 2.845620 -1.905598
4.292781 2.589938 -1.236329
4.390406 2.318611 -1.379124
4.156626 2.523127 -1.564214
4.105378 2.737331 -1.487827
3.767735 3.334718 -1.618943
3.786283 3.383507 -1.544396
3.861773 3.253031 -1.427530
3.894511 3.097433 -1.565450
3.807065 3.197182 -1.700696
3.769030 3.260119 -1.680521
4.018032 3.096563 -1.242804
4.238173 2.793571 -1.129227
4.050769 2.940964 -1.380725
3.715976 3.678074 -1.238228
3.742719 3.707006 -1.134356
3.808322 3.530743 -1.058686
3.838843 3.419275 -1.259915
3.763352 3.549751 -1.376782
3.726617 3.618483 -1.330328
4.148621 2.995412 -0.655689
4.221768 2.868723 -0.975959
4.001627 3.171715 -1.089536
3.971106 3.283184 -0.888307
3.692052 3.916963 -0.628700
3.709320 3.925586 -0.508029
3.774910 3.721102 -0.486425
3.800520 3.664865 -0.763979
3.734917 3.841127 -0.839649
3.707574 3.886543 -0.752124
3.870547 3.409779 -0.421429
4.073673 3.065770 -0.466365
3.896157 3.353541 -0.698983
6.159460 1.851118 -0.733177
6.282465 1.879413 -0.657347
5.966463 1.631781 -0.648541
5.905327 1.691620 -0.753858
6.152779 2.045119 -0.807712
6.094246 1.917521 -0.790540
5.840113 1.758024 -0.811221
5.757972 1.882238 -0.837017
5.828848 1.725670 -0.273947
5.871143 1.760244 -0.322768
5.807613 1.899304 -0.340769
5.748180 1.878999 -0.294692
5.908212 1.830392 -0.367837
6.135082 2.038057 -0.435275
5.844682 1.969453 -0.385839
6.303259 1.862008 -0.496035
6.200109 1.890818 -0.446876
5.973239 1.683153 -0.379438
5.987257 1.614376 -0.487230
7.234029 2.539298 -0.640496
6.882753 2.296089 -0.647971
6.759748 2.267793 -0.723801
6.818281 2.395391 -0.740973
7.243358 2.597286 -0.654548
7.120190 2.628064 -0.695022
7.188774 2.639230 -0.685076
6.763697 2.437335 -0.771500
6.737463 2.471617 -0.723980
7.134948 2.570739 -0.581088
7.080313 2.585002 -0.623686
6.697586 2.428556 -0.652644
6.685143 2.323781 -0.558003
6.866835 2.237431 -0.588697
7.218110 2.480640 -0.581222
7.213490 2.513199 -0.562622
6.763685 2.266241 -0.539537
7.402379 2.678082 -0.507369
7.406999 2.645523 -0.525969
7.416328 2.703511 -0.540021
7.303106 2.733328 -0.572968
7.357741 2.719065 -0.530370
7.371690 2.744495 -0.563022
3.543986 1.483648 -1.392824
3.297149 1.574616 -1.479638
3.333223 1.716510 -1.500077
3.633316 1.790255 -1.605339
3.734456 1.577338 -1.554374
4.004449 1.966867 -2.002298
4.068085 1.911505 -1.994045
4.106859 1.835457 -1.990131
4.107711 1.756561 -1.989379
3.967512 1.693706 -1.794477
3.866372 1.906623 -1.845443
4.235573 1.517579 -1.942012
4.317843 1.456962 -1.924493
4.361045 1.385762 -1.910661
4.373403 1.314776 -1.897104
4.290873 1.269233 -1.712175
4.095374 1.454724 -1.747110
3.277809 1.916206 -1.456350
3.251062 2.013541 -1.407570
3.509770 2.182955 -1.517082
3.577902 1.989950 -1.561612
3.834777 2.383849 -1.968210
3.893623 2.295120 -1.969466
3.930307 2.208142 -1.973552
3.933984 2.140792 -1.982629
3.795907 2.080548 -1.825773
3.727775 2.273553 -1.781243
3.660578 2.968923 -1.891001
3.698613 2.905986 -1.911175
3.711987 2.803241 -1.940734
3.712955 2.689936 -1.956097
3.605953 2.579639 -1.769131
3.564413 2.762226 -1.687979
3.226237 2.105852 -1.304958
3.138377 2.226557 -1.180990
3.443405 2.457853 -1.333317
3.484945 2.275266 -1.414470
3.116993 2.322568 -1.068287
3.193395 2.458946 -0.920993
3.406526 2.698419 -1.088306
3.422020 2.553864 -1.220613
3.651029 3.419644 -1.634140
3.687764 3.350911 -1.680594
3.689059 3.276313 -1.742172
3.662448 3.204862 -1.793818
3.566283 2.998165 -1.590796
3.550788 3.142720 -1.458488
3.183938 2.510024 -0.806170
3.180233 2.544370 -0.708485
3.387528 2.847687 -0.775609
3.397068 2.749496 -0.973483
3.598586 3.768631 -1.175449
3.625928 3.723215 -1.262973
3.636569 3.663624 -1.355073
3.618022 3.614835 -1.429620
3.517781 3.337911 -1.253968
3.508241 3.436102 -1.056094
3.178579 2.596330 -0.530254
3.121151 2.659146 -0.349205
3.367926 2.958568 -0.334977
3.385873 2.899647 -0.597378
3.578726 3.935610 -0.541860
3.615764 3.922518 -0.654230
3.631286 3.892097 -0.777654
3.604543 3.863165 -0.881526
3.514199 3.530636 -0.762171
3.496252 3.589557 -0.499770
2.748005 2.540604 -0.849642
2.671603 2.404226 -0.996936
2.130318 2.426834 -1.045988
2.202630 2.745744 -0.636243
2.686874 2.637767 -0.570908
2.744301 2.574950 -0.751958
1.545852 2.565482 -1.085623
0.873403 2.760574 -1.074653
0.866864 3.107196 -0.659884
1.618164 2.884391 -0.675878
0.002559 3.046719 -0.971043
-0.705424 3.226805 -0.919663
-0.803087 3.566989 -0.512986
-0.003980 3.393341 -0.556275
-1.392379 3.318200 -0.850116
-1.915192 3.433280 -0.733206
-2.074554 3.673489 -0.417693
-1.490042 3.658384 -0.443439
-2.369493 3.382870 -0.699770
-2.753314 3.170371 -0.785617
-3.069707 3.449347 -0.359007
-2.528855 3.623079 -0.384256
-3.821098 2.674013 -0.702995
-4.194363 2.637650 -0.428684
-4.275657 2.834354 -0.245144
-3.614703 3.211758 -0.291446
-3.298309 2.932781 -0.718057
-5.178337 1.819270 -0.331550
-5.665774 1.701263 -0.204515
-5.731768 1.922900 -0.096457
-5.017035 2.274157 -0.127496
-4.935741 2.077454 -0.311035
-6.398749 1.478944 -0.198010
-7.133054 1.358805 -0.182949
-7.184189 1.534509 -0.101521
-6.464743 1.700582 -0.089951
-7.869628 1.304788 -0.235734
-8.602828 1.265459 -0.214507
-8.651631 1.399252 -0.156190
-7.920763 1.480492 -0.154306
-9.341678 1.212504 -0.169257
-9.847773 1.152146 -0.115056
-9.887894 1.237731 -0.086812
-9.390481 1.346298 -0.110940
2.716786 1.847685 -1.491844
2.743533 1.750349 -1.540624
2.707459 1.608455 -1.520185
2.600560 1.500684 -1.531030
2.323764 1.299863 -1.675179
1.972074 1.512251 -1.683066
2.087641 1.990997 -1.416929
2.628926 1.968389 -1.367877
1.092066 1.628909 -1.728118
0.788445 1.817572 -1.708828
0.789361 2.314381 -1.446995
1.461810 2.119289 -1.457966
1.346243 1.640543 -1.724103
0.179790 2.044856 -1.687883
-0.439918 2.165063 -1.696744
-0.527277 2.721750 -1.374670
0.180705 2.541665 -1.426050
-1.105393 2.280582 -1.685325
-1.717536 2.151934 -1.713913
-2.099386 2.739850 -1.332188
-1.715565 2.952349 -1.246341
-1.192752 2.837269 -1.363250
-2.882526 1.500010 -1.885412
-3.425431 1.727298 -1.676497
-3.442681 2.222903 -1.408279
-2.919893 2.481672 -1.423341
-2.538043 1.893755 -1.805066
-4.504265 1.408825 -1.012753
-4.734056 1.462249 -0.820851
-4.791988 1.749432 -0.738960
-4.549393 2.007616 -0.718446
-4.176127 2.043978 -0.992757
-4.158877 1.548373 -1.260974
-5.106812 1.317734 -0.592633
-5.630420 1.212466 -0.462628
-5.652183 1.486910 -0.383708
-5.164745 1.604917 -0.510742
-6.341125 1.012541 -0.384749
-7.082268 0.971076 -0.335084
-7.097192 1.166846 -0.290769
-6.362887 1.286985 -0.305830
-7.839231 0.966781 -0.306440
-8.450590 1.006096 -0.262727
-8.587356 1.123222 -0.240898
-7.854156 1.162551 -0.262125
-9.151003 0.960048 -0.198924
-9.286789 0.862765 -0.177907
-9.782240 0.942826 -0.121975
-9.793863 1.016815 -0.122895
-9.287768 1.077173 -0.177095
3.380351 1.257661 -1.287779
3.371993 0.902025 -1.175593
3.149326 0.964217 -1.335476
3.026615 1.240858 -1.385437
3.133514 1.348629 -1.374592
2.804628 0.586997 -1.589007
2.592756 0.942709 -1.667166
2.869552 1.143530 -1.523017
2.992263 0.866890 -1.473056
1.173988 0.610158 -1.876001
1.013537 0.671016 -1.831591
1.113271 1.109791 -1.861298
1.367448 1.121425 -1.857282
1.967009 0.786025 -1.863265
1.640886 0.360093 -1.933981
1.421860 0.487145 -1.889870
1.615320 0.998412 -1.871151
0.585047 0.775810 -1.756150
0.691794 1.334632 -1.767090
0.995414 1.145969 -1.786380
0.895681 0.707194 -1.756673
0.872922 -0.306833 -1.695715
0.735503 -0.436799 -1.577352
0.608482 -0.260585 -1.540403
0.848503 0.102207 -1.686424
1.008954 0.041349 -1.730834
1.125227 -0.418581 -1.827746
1.012573 -0.304336 -1.753529
1.148605 0.043845 -1.788648
1.367631 -0.083207 -1.832759
0.472059 -0.173847 -1.509364
0.242262 -0.118622 -1.534626
0.401446 0.257560 -1.654861
0.712080 0.188944 -1.655384
-0.475950 0.991131 -1.860090
-0.441033 1.612013 -1.858464
0.178675 1.491805 -1.849602
0.071928 0.932983 -1.838663
-0.232877 -0.124247 -1.555978
-0.561813 -0.092726 -1.561944
-0.621570 0.310084 -1.697640
-0.073693 0.251935 -1.676213
-1.564396 0.968273 -1.882489
-1.744758 1.464222 -1.872349
-1.132615 1.592870 -1.843760
-1.167531 0.971989 -1.845387
-1.530105 0.406557 -1.731289
-1.133241 0.410272 -1.694187
-1.073484 0.007463 -1.558491
-1.202815 -0.152576 -1.379330
-1.631579 -0.063671 -1.524363
-1.674968 0.206166 -1.752460
0.003854 -0.405733 -1.357137
-0.189262 -0.566572 -1.173158
-0.684211 -0.479025 -1.209205
-0.554880 -0.318986 -1.388365
-0.225943 -0.350508 -1.382399
-0.320377 -0.870355 -0.624374
-0.852214 -0.844241 -0.617355
-0.749965 -0.609604 -0.982264
-0.255015 -0.697150 -0.946218
-1.887434 -0.772980 -0.750897
-1.746657 -0.489200 -1.152682
-1.317893 -0.578105 -1.007649
-1.420142 -0.812743 -0.642741
0.389330 -0.791209 -1.044582
0.465591 -1.007839 -0.888485
0.452445 -0.997465 -0.635602
0.111501 -0.875522 -0.677833
0.176862 -0.702317 -0.999677
0.592262 -0.569019 -1.391951
0.484594 -0.642536 -1.215929
0.272126 -0.553644 -1.171024
0.465242 -0.392805 -1.355003
3.314072 0.331930 -1.171303
3.255517 -0.012432 -1.076616
2.996793 -0.181598 -1.228986
2.903769 0.114229 -1.447137
3.091404 0.394122 -1.331186
1.904947 0.119002 -1.937613
2.231070 0.544933 -1.866897
2.442942 0.189220 -1.788738
2.117578 -0.117993 -1.899965
2.437490 -0.696653 -1.541946
2.332872 -0.469831 -1.733580
2.658236 -0.162618 -1.622353
2.751260 -0.458445 -1.404202
3.301221 -0.203836 -0.797451
3.349839 -0.324643 -0.524369
3.046814 -0.540429 -0.581473
3.042498 -0.373002 -0.949821
2.767530 -0.793169 -0.750667
2.483837 -0.998530 -0.826184
2.449444 -0.863951 -1.256759
2.763214 -0.625742 -1.119015
1.717182 -1.117186 -1.706485
1.617217 -0.930311 -1.858490
1.951430 -0.675253 -1.807271
2.056048 -0.902075 -1.615637
1.761820 -1.444722 -1.186506
1.761758 -1.296889 -1.480484
2.100624 -1.081778 -1.389635
2.135016 -1.216357 -0.959060
1.864048 -1.361054 -0.903195
1.470568 -0.721861 -1.947454
1.349747 -0.565182 -1.928871
1.592151 -0.229808 -1.933883
1.804781 -0.466803 -1.896235
1.353181 -1.597442 -0.631916
1.586622 -1.598005 -0.830172
1.688851 -1.514338 -0.546862
1.399828 -1.534969 -0.441086
0.706430 -1.311719 -0.666100
0.975318 -1.496674 -0.565145
1.021965 -1.434202 -0.374314
0.693284 -1.301346 -0.413217
-2.263146 -0.763033 -1.152663
-2.172154 -0.562543 -1.491276
-1.906302 -0.452071 -1.322590
-2.047079 -0.735851 -0.920805
-3.115278 -0.917698 -0.585681
-2.690597 -0.921445 -0.776887
-2.474530 -0.894263 -0.545029
-2.702695 -0.973277 -0.300730
-3.066480 -0.881339 -0.335965
-3.995286 -0.607087 -0.639228
-3.669019 -0.751305 -0.568403
-3.620220 -0.714945 -0.318688
-4.009810 -0.518731 -0.299344
-4.090998 -0.441857 -0.472878
-4.214105 -0.306584 -1.068558
-4.161931 -0.421008 -0.844773
-4.257643 -0.255778 -0.678422
-4.330462 -0.054670 -0.835243
-4.755271 0.202631 -0.358672
-4.483948 0.081087 -0.569603
-4.411129 -0.120022 -0.412782
-4.329942 -0.196895 -0.239248
-4.715213 -0.018177 -0.189966
-5.684469 0.082121 -0.042990
-5.648794 0.246453 -0.158216
-5.122747 0.245093 -0.221640
-5.082689 0.024285 -0.052934
-4.806239 0.911779 -0.763814
-4.576448 0.858356 -0.955716
-4.500161 0.571262 -1.024503
-4.541107 0.401525 -0.835882
-4.812431 0.523069 -0.624952
-5.601764 0.521580 -0.383878
-5.593133 0.803663 -0.456159
-5.069526 0.908930 -0.586164
-5.075717 0.520221 -0.447302
-3.934898 -0.146211 -1.633116
-4.123704 -0.161199 -1.332595
-4.240061 0.090715 -1.099280
-4.199115 0.260453 -1.287901
-3.919268 0.188478 -1.571882
-3.982631 1.002345 -1.503763
-3.971884 0.503730 -1.608309
-4.251731 0.575704 -1.324329
-4.328019 0.862797 -1.255542
-2.366311 -0.213599 -1.907762
-2.660157 0.045705 -2.092199
-2.523830 0.469305 -2.016208
-2.143848 0.166710 -1.967173
-2.100459 -0.103127 -1.739076
-2.360248 0.717689 -2.002018
-2.015765 1.111434 -1.921672
-1.835403 0.615485 -1.931812
-1.980266 0.415094 -1.952983
-3.141689 0.360782 -2.128121
-3.537520 0.513054 -1.947761
-3.548266 1.011669 -1.843215
-3.005361 0.784382 -2.052130
-3.204730 -0.056770 -2.173228
-3.263610 -0.330477 -2.214916
-3.386690 -0.351364 -2.231550
-3.616191 -0.239188 -2.054103
-3.600561 0.095502 -1.992869
-3.729981 -1.102252 -2.243644
-3.636707 -0.512210 -2.100926
-3.407205 -0.624387 -2.278373
-3.480370 -1.154800 -2.340746
-2.887816 -0.887202 -2.130172
-2.968837 -1.031546 -2.139759
-3.123267 -1.376337 -2.232709
-3.267964 -1.260288 -2.325155
-3.194800 -0.729874 -2.262781
-3.071721 -0.708987 -2.246147
-2.856009 -0.267130 -2.170148
-2.562162 -0.526433 -1.985710
-2.730984 -0.719051 -2.095861
-2.914889 -0.540836 -2.211835
-2.502177 -0.889756 -1.364835
-2.566158 -0.978751 -1.580261
-2.580007 -0.881884 -1.813598
-2.411185 -0.689266 -1.703448
-6.349447 0.447800 -0.347604
-7.101773 0.495516 -0.348896
-7.081959 0.688417 -0.370220
-6.340816 0.729882 -0.419885
-8.578323 0.742591 -0.249622
-8.442537 0.839873 -0.270640
-7.831179 0.800558 -0.314353
-7.850993 0.607656 -0.293030
-6.410212 0.121727 -0.140249
-7.160859 0.196487 -0.164577
-7.126863 0.333775 -0.256767
-6.374536 0.286059 -0.255475
-7.947520 0.309385 -0.164626
-8.663691 0.480605 -0.153114
-8.640854 0.581608 -0.213408
-7.913524 0.446674 -0.256817
-9.328665 0.675128 -0.107013
-9.810755 0.806852 -0.083133
-9.801279 0.856192 -0.111377
-9.305828 0.776131 -0.167308
-3.791730 -2.754709 -2.600347
-3.982397 -2.736798 -2.490089
-3.947865 -1.987336 -2.357912
-3.698254 -2.039885 -2.455015
-3.409028 -2.814955 -2.578375
-3.550464 -2.777327 -2.553677
-3.456988 -2.062502 -2.408345
-3.312291 -2.178552 -2.315899
-3.297512 -2.747204 -2.378378
-3.340979 -2.749991 -2.518214
-4.155282 -0.494134 -1.522031
-3.966476 -0.479146 -1.822552
-4.059751 -1.069187 -1.965270
-4.201986 -1.069566 -1.737833
-4.197403 -2.687773 -2.317789
-4.280123 -2.686266 -2.116374
-4.305107 -1.938689 -1.958176
-4.162871 -1.938311 -2.185613
-4.119459 -0.649165 -1.059559
-4.171632 -0.534741 -1.283345
-4.218336 -1.110173 -1.499147
-4.143345 -1.178973 -1.298950
-4.287943 -2.729263 -1.895985
-4.223178 -2.766505 -1.734912
-4.237936 -2.050486 -1.537590
-4.312927 -1.981686 -1.737787
-3.644391 -0.879006 -0.801860
-3.970659 -0.734788 -0.872685
-3.994545 -1.264596 -1.112075
-3.741103 -1.355229 -1.066122
-4.047842 -2.872475 -1.580074
-3.863718 -2.907008 -1.526169
-3.809158 -2.247089 -1.336798
-4.062599 -2.156456 -1.382751
-2.783825 -1.021528 -1.084909
-3.208507 -1.017782 -0.893703
-3.305219 -1.494004 -1.157965
-3.099319 -1.561777 -1.378384
-2.933957 -1.200152 -1.344426
-2.847806 -1.110523 -1.300335
-3.449635 -2.958267 -1.617246
-3.380854 -2.847042 -1.723336
-3.349513 -2.347024 -1.623276
-3.555412 -2.279252 -1.402856
-3.609972 -2.939171 -1.592227
-3.073910 -1.639908 -2.048408
-2.919480 -1.295116 -1.955458
-2.910759 -1.337268 -1.756625
-3.076122 -1.698893 -1.790583
-3.270084 -2.810078 -2.034914
-3.221751 -2.819726 -2.255157
-3.236530 -2.251074 -2.192678
-3.238743 -2.310060 -1.934853
-2.663580 -1.044648 -1.929768
-2.649731 -1.141515 -1.696431
-2.735881 -1.231144 -1.740522
-2.744602 -1.188993 -1.939355
-3.747527 -3.352017 -2.722918
-3.618252 -3.645016 -2.534264
-3.938194 -3.334106 -2.612660
-3.738785 -3.645016 -2.310915
-4.141448 -3.332599 -2.187896
-4.058727 -3.334106 -2.389312
-3.726309 -3.645016 -2.121290
-4.064207 -3.369841 -1.837198
-4.128972 -3.332599 -1.998271
-3.647242 -3.645016 -2.041853
-3.801015 -3.404374 -1.703856
-3.985140 -3.369841 -1.757761
-3.418893 -3.645016 -1.994450
-3.317663 -3.578538 -1.731717
-3.412329 -3.423471 -1.681472
-3.572666 -3.404374 -1.656453
-3.106453 -3.375767 -1.764037
-3.115452 -3.313848 -1.793718
-3.242759 -3.112812 -1.816516
-3.311540 -3.224037 -1.710425
-3.216874 -3.379105 -1.760670
-2.885149 -3.650371 -1.876199
-2.960549 -3.575201 -1.821591
-3.070970 -3.578538 -1.818224
-3.172200 -3.645016 -2.080957
-2.840009 -3.588451 -1.993204
-2.831010 -3.650371 -1.963523
-3.118061 -3.645016 -2.168281
-2.802975 -3.650373 -2.122051
-2.823005 -3.588453 -2.061895
-2.907518 -3.578478 -2.623416
-2.875363 -3.651937 -2.575724
-3.167804 -3.645016 -2.470320
-2.949241 -3.650900 -2.733138
-2.935618 -3.577441 -2.680902
-3.104252 -3.578748 -2.871888
-3.045821 -3.650900 -2.847235
-3.264385 -3.645016 -2.584417
-3.199955 -3.581208 -2.870902
-3.561662 -3.352017 -2.814973
-3.420226 -3.389645 -2.839671
-3.367958 -3.581208 -2.912803
-3.432387 -3.645016 -2.626318
-3.149070 -3.313865 -2.770963
-3.162694 -3.387324 -2.823199
-3.258397 -3.389784 -2.822212
-3.310665 -3.198220 -2.749081
-3.242616 -3.133256 -2.688919
-2.984673 -3.315897 -2.547082
-2.967955 -3.383586 -2.598929
-2.996055 -3.382549 -2.656415
-3.054486 -3.310398 -2.681068
-3.148032 -3.129789 -2.599024
-3.104564 -3.127002 -2.459188
-2.993423 -3.349003 -1.930018
-2.918022 -3.424173 -1.984626
-2.901019 -3.424175 -2.053318
-2.936486 -3.356485 -2.115316
-3.072397 -3.157616 -2.173059
-3.120730 -3.147968 -1.952816
1.544875 -1.678590 -1.242793
1.430507 -1.894738 -1.305371
1.407962 -1.824591 -1.565368
1.544813 -1.530757 -1.536770
1.172076 -1.614345 -1.835624
1.096205 -1.664466 -1.973075
1.024924 -1.534214 -2.001821
0.971263 -1.309957 -2.004413
1.007152 -1.236745 -2.001251
1.208962 -1.133636 -1.959032
1.308928 -1.320511 -1.807026
1.034398 -1.087646 -2.024050
0.952138 -0.997035 -1.978643
1.115387 -0.827859 -1.963247
1.236208 -0.984537 -1.981831
0.812775 -0.874469 -1.893669
0.695050 -0.877284 -1.750151
0.725951 -0.721014 -1.685693
0.863370 -0.591048 -1.804056
0.976024 -0.705293 -1.878273
0.403291 -1.408397 -1.459498
0.471190 -1.441441 -1.208319
0.480678 -1.205999 -1.070380
0.404417 -0.989369 -1.226477
0.512086 -0.915852 -1.402499
0.481185 -1.072122 -1.466957
0.421803 -1.157496 -1.463125
0.656853 -1.848542 -1.106615
0.640783 -2.136133 -1.138276
0.873322 -2.205959 -1.047665
0.878984 -1.961870 -0.988991
0.562710 -0.970229 -1.712761
0.680435 -0.967414 -1.856279
0.608983 -1.086354 -1.855777
0.503329 -1.055603 -1.708928
0.597920 -1.554684 -1.902400
0.439012 -1.469682 -1.731194
0.457524 -1.218781 -1.734821
0.563178 -1.249531 -1.881669
0.944503 -1.604752 -2.034107
0.807761 -1.640765 -2.008359
0.773018 -1.335612 -1.987627
0.890842 -1.380496 -2.036700
0.815045 -1.031409 -1.992713
0.897305 -1.122020 -2.038121
0.861416 -1.195233 -2.041283
0.743592 -1.150349 -1.992211
0.922492 -2.388093 -2.005370
0.939319 -2.128270 -2.005164
1.076061 -2.092257 -2.030912
1.147342 -2.222510 -2.002166
1.218997 -2.415732 -1.896032
1.181248 -2.560424 -1.949683
1.032401 -2.521139 -2.015184
1.305500 -2.075641 -1.781673
1.301284 -2.318985 -1.812990
1.229629 -2.125763 -1.919124
1.347655 -2.359022 -1.367724
1.348114 -2.344780 -1.608198
1.352330 -2.101437 -1.576882
1.374876 -2.171584 -1.316884
1.112040 -2.115134 -0.935700
1.106378 -2.359223 -0.994374
1.260138 -2.355469 -1.126102
1.287359 -2.168031 -1.075262
1.206418 -1.726125 -0.721216
1.150172 -1.889940 -0.842488
1.325490 -1.942837 -0.982050
1.439858 -1.726689 -0.919472
0.668706 -2.693837 -1.981024
0.586876 -2.824473 -1.976337
0.496414 -2.790913 -1.803330
0.449154 -2.394461 -1.789918
0.596698 -2.418973 -1.940800
0.706607 -2.552020 -1.950613
1.211828 -2.975327 -1.998114
1.127408 -3.016730 -2.080539
1.006620 -2.873171 -2.037084
1.044521 -2.731353 -2.006673
1.193368 -2.770639 -1.941172
1.335288 -2.497508 -1.452385
1.297900 -2.624412 -1.502037
1.297997 -2.627958 -1.746509
1.335747 -2.483266 -1.692859
1.314404 -2.997427 -1.590889
1.330253 -3.009410 -1.774193
1.247992 -2.965967 -1.858863
1.229532 -2.761279 -1.801921
1.229434 -2.757732 -1.557449
1.103626 -2.468451 -1.008347
1.219999 -2.591602 -1.189728
1.257387 -2.464698 -1.140075
1.004412 -2.912294 -1.021137
1.165444 -2.946918 -1.078549
1.239000 -2.957879 -1.267735
1.154030 -2.718184 -1.234294
1.037658 -2.595034 -1.052913
0.652354 -1.673742 -0.913513
0.874485 -1.787070 -0.795890
0.930731 -1.623255 -0.674618
0.661843 -1.438300 -0.775573
0.638014 -2.841078 -1.016521
0.808751 -2.822000 -0.905500
0.841996 -2.504740 -0.937276
0.609458 -2.434915 -1.027887
0.390338 -1.850625 -1.526786
0.384876 -2.170937 -1.547318
0.442167 -2.171259 -1.307269
0.458236 -1.883668 -1.275608
0.407638 -2.801945 -1.537373
0.446225 -2.811978 -1.272547
0.417669 -2.405814 -1.283912
0.360378 -2.405492 -1.523961
0.621713 -1.939346 -1.967212
0.604886 -2.199169 -1.967419
0.457342 -2.174656 -1.816537
0.462804 -1.854344 -1.796006
0.750432 -3.645016 -1.639409
0.575526 -3.372187 -1.334172
0.536940 -3.362154 -1.598998
0.791228 -3.565708 -2.064974
0.802331 -3.645016 -1.885738
0.588838 -3.362154 -1.845327
0.679300 -3.395714 -2.018333
1.110512 -3.645016 -1.148251
0.946677 -3.579781 -0.923385
0.849495 -3.353109 -0.932158
0.678759 -3.372187 -1.043179
0.853664 -3.645016 -1.348416
1.001585 -3.231969 -2.180283
0.910895 -3.389041 -2.178781
0.798967 -3.219046 -2.132140
0.880797 -3.088411 -2.136827
1.161004 -3.457595 -2.157007
1.061165 -3.425142 -2.153344
1.151855 -3.268070 -2.154847
1.236275 -3.226668 -2.072421
1.279191 -3.424962 -2.113093
1.531444 -3.369451 -1.929845
1.506771 -3.416325 -1.982076
1.396646 -3.388138 -2.006094
1.353730 -3.189845 -1.965422
1.435990 -3.233288 -1.880753
0.896759 -3.645016 -1.965869
0.885656 -3.565708 -2.145106
0.985494 -3.598161 -2.148769
1.307428 -3.565527 -2.078942
1.100506 -3.645016 -1.939957
1.189241 -3.598161 -2.122857
1.520011 -3.593714 -1.998047
1.574477 -3.660575 -1.955681
1.459810 -3.645016 -1.682915
1.202963 -3.645016 -1.883080
1.409885 -3.565527 -2.022065
1.705740 -3.660575 -1.827310
1.730412 -3.613702 -1.775079
1.746508 -3.607176 -1.701055
1.759458 -3.654050 -1.653870
1.591073 -3.645016 -1.554544
1.664608 -3.489341 -1.764878
1.610142 -3.422480 -1.807244
1.514688 -3.286317 -1.758152
1.498840 -3.274333 -1.574848
1.646663 -3.433875 -1.637459
1.680703 -3.482816 -1.690854
1.604649 -3.603757 -1.138800
1.590841 -3.654764 -1.097498
1.528182 -3.645016 -1.283772
1.667139 -3.656130 -1.247895
1.635713 -3.605123 -1.195981
1.467761 -3.394664 -1.080584
1.552721 -3.468429 -1.136453
1.583785 -3.469795 -1.193634
1.573449 -3.420855 -1.242299
1.449825 -3.263366 -1.311930
1.376269 -3.252406 -1.122745
1.502279 -3.654764 -0.985576
1.417319 -3.580998 -0.929707
1.275785 -3.579781 -0.946985
1.439620 -3.645016 -1.171850
1.280476 -3.385292 -0.893405
1.294284 -3.334285 -0.934706
1.202792 -3.192027 -0.976867
1.041760 -3.157402 -0.919455
1.138942 -3.384074 -0.910682
4.545980 1.293744 -1.980959
4.499181 1.352031 -1.961041
4.566548 1.317740 -1.942629
4.603566 1.199252 -1.914007
4.570640 1.246242 -1.965894
4.591208 1.270239 -1.927564
4.522963 1.215415 -1.934950
4.557405 1.228114 -1.968425
4.590331 1.181125 -1.916538
4.461556 1.336232 -1.962998
4.508356 1.277945 -1.982916
4.473914 1.265246 -1.949441
4.259471 1.691166 -2.064097
4.211243 1.682291 -2.036253
4.210392 1.761187 -2.037005
4.330312 1.701670 -2.005943
4.297122 1.692267 -2.050553
4.248042 1.762288 -2.023461
4.369575 1.565631 -2.002538
4.335533 1.635123 -2.047901
4.368723 1.644527 -2.003291
4.249681 1.610449 -2.022014
4.297909 1.619324 -2.049858
4.331951 1.549832 -2.004495
4.048419 2.108250 -2.077870
4.009249 2.096977 -2.051087
4.005572 2.164326 -2.042010
4.086991 2.118946 -2.031276
4.066203 2.118232 -2.075391
4.023355 2.174308 -2.039530
4.131719 1.990430 -2.035202
4.107253 2.057065 -2.070239
4.128041 2.057779 -2.026124
4.030432 2.044692 -2.057000
4.069602 2.055965 -2.083783
4.094068 1.989329 -2.048746
3.872299 2.531225 -2.057495
3.895519 2.425263 -2.029751
3.836673 2.513991 -2.028495
3.799084 2.719312 -2.009490
3.835678 2.623240 -2.053854
3.800052 2.606007 -2.024854
3.893657 2.643323 -2.000185
3.871405 2.635980 -2.043291
3.834811 2.732052 -1.998928
3.913302 2.435245 -2.027272
3.890082 2.541207 -2.055015
3.912335 2.548550 -2.011909
3.766279 3.182906 -1.885962
3.721489 3.161411 -1.871424
3.748100 3.232862 -1.819779
3.810176 3.165057 -1.821420
3.790320 3.178038 -1.867428
3.772141 3.227993 -1.801245
3.794690 3.040286 -1.910251
3.801444 3.124718 -1.904614
3.821301 3.111737 -1.858606
3.720927 3.090483 -1.900639
3.765717 3.111978 -1.915177
3.758962 3.027546 -1.920814
3.771402 3.584633 -1.526160
3.743175 3.619287 -1.445122
3.779910 3.550555 -1.491577
3.768256 3.451789 -1.616511
3.778295 3.534657 -1.576548
3.786803 3.500579 -1.541965
3.707480 3.525390 -1.588590
3.754254 3.539525 -1.595082
3.744215 3.456657 -1.635045
3.716105 3.632857 -1.452561
3.744332 3.598203 -1.533599
3.697558 3.584068 -1.527108
3.722150 3.907662 -0.996962
3.708307 3.912726 -0.888833
3.735649 3.867310 -0.976357
3.711252 3.798059 -1.168823
3.724496 3.867343 -1.085556
3.737994 3.826991 -1.064952
3.656839 3.857045 -1.088738
3.697425 3.880913 -1.092995
3.684182 3.811629 -1.176262
3.685373 3.914396 -0.896508
3.699217 3.909331 -1.004637
3.658630 3.885463 -1.000379
3.632420 4.053216 -0.412837
3.638806 4.005656 -0.526235
3.601769 4.018749 -0.413865
3.607728 4.037807 -0.181628
3.621111 4.063651 -0.301272
3.590460 4.029184 -0.302299
3.672039 4.022252 -0.293998
3.648384 4.061189 -0.301272
3.635001 4.035345 -0.181628
3.661740 4.003986 -0.518560
3.655353 4.051546 -0.405163
3.679008 4.012609 -0.397889
-2.952570 -3.341178 -2.288381
-2.932539 -3.403098 -2.348536
-2.936435 -3.404663 -2.386325
-2.968589 -3.331204 -2.434018
-3.088481 -3.142309 -2.346124
-2.863314 -3.582683 -2.335069
-2.827847 -3.650373 -2.273071
-3.142933 -3.645016 -2.319301
-2.850491 -3.651937 -2.424704
-2.867209 -3.584248 -2.372858
1.635106 -3.475266 -1.458816
1.622155 -3.428392 -1.506000
1.474333 -3.268850 -1.443389
1.597957 -3.426338 -1.373758
1.629382 -3.477346 -1.425672
1.728013 -3.654050 -1.518484
1.693972 -3.605109 -1.465090
1.688249 -3.607190 -1.431946
1.698584 -3.656130 -1.383281
1.559628 -3.645016 -1.419158
1.776463 -3.589898 -1.313894
1.737000 -3.563499 -1.374247
1.705575 -3.512491 -1.322333
1.703469 -3.558648 -1.206928
1.764021 -3.587114 -1.247155
1.693133 -3.509707 -1.255593
1.761257 -3.678359 -1.260034
1.790384 -3.655817 -1.248347
1.729832 -3.627351 -1.208120
1.766886 -3.629418 -1.377432
1.806348 -3.655817 -1.317080
1.777221 -3.678359 -1.328768
1.826003 -3.585752 -1.580944
1.787704 -3.562108 -1.640996
1.753663 -3.513168 -1.587602
1.754172 -3.557258 -1.473678
1.813561 -3.582969 -1.514205
1.741221 -3.510384 -1.520862
1.818098 -3.672118 -1.530257
1.843446 -3.648888 -1.517390
1.784057 -3.623177 -1.476863
1.821112 -3.625244 -1.646175
1.859411 -3.648888 -1.586123
1.834062 -3.672118 -1.598990
1.702122 -3.578897 -2.005007
1.620326 -3.534775 -2.019910
1.644998 -3.487901 -1.967679
1.739418 -3.581685 -1.863070
1.742076 -3.605819 -1.942764
1.684952 -3.514823 -1.905436
1.748154 -3.691694 -1.920480
1.775484 -3.668955 -1.947943
1.772826 -3.644820 -1.868249
1.627048 -3.624832 -2.028018
1.708844 -3.668955 -2.013115
1.681514 -3.691694 -1.985652
-2.975716 -3.522337 -2.878497
-3.049422 -3.493333 -2.881320
-3.035798 -3.419874 -2.829084
-2.929349 -3.490266 -2.758793
-2.927697 -3.520577 -2.832859
-2.987780 -3.418114 -2.783446
-2.912289 -3.662668 -2.823460
-2.897014 -3.619521 -2.845291
-2.898666 -3.589210 -2.771224
-3.019753 -3.590517 -2.906039
-2.946047 -3.619521 -2.903216
-2.961322 -3.662668 -2.881386
-2.785838 -3.526228 -2.543506
-2.845050 -3.493377 -2.586335
-2.861768 -3.425688 -2.534489
-2.821447 -3.506918 -2.429394
-2.777672 -3.533999 -2.486105
-2.853602 -3.433459 -2.477087
-2.769585 -3.665779 -2.474404
-2.742528 -3.625171 -2.479268
-2.786303 -3.598090 -2.422557
-2.814367 -3.592320 -2.598767
-2.755154 -3.625171 -2.555938
-2.782212 -3.665779 -2.551074
-2.703925 -3.622798 -2.176793
-2.746554 -3.599166 -2.110368
-2.726524 -3.661086 -2.170523
-2.774618 -3.593396 -2.309192
-2.716552 -3.622798 -2.253463
-2.739151 -3.661086 -2.247194
-2.829792 -3.440304 -2.255873
-2.751696 -3.531626 -2.260300
-2.809762 -3.502224 -2.316029
-2.786160 -3.515764 -2.106013
-2.743531 -3.539397 -2.172438
-2.821627 -3.448075 -2.168012
-2.828705 -3.536873 -1.828155
-2.837170 -3.515761 -1.899938
-2.912570 -3.440590 -1.845330
-2.965524 -3.484662 -1.746451
-2.890657 -3.519025 -1.758957
-2.974523 -3.422742 -1.776132
-2.816051 -3.661081 -1.830279
-2.816585 -3.620274 -1.788177
-2.891451 -3.585911 -1.775671
-2.797564 -3.599162 -1.904292
-2.789099 -3.620274 -1.832510
-2.788565 -3.661081 -1.874611
1.599406 -3.573290 -0.951841
1.610277 -3.554550 -1.035384
1.525317 -3.480784 -0.979515
1.423438 -3.501138 -0.864155
1.511334 -3.542637 -0.877781
1.437246 -3.450130 -0.905456
1.577871 -3.674261 -0.938453
1.580808 -3.641994 -0.896211
1.492911 -3.600495 -0.882585
1.636640 -3.623253 -1.036576
1.625769 -3.641994 -0.953032
1.622833 -3.674261 -0.995274
1.636640 -3.623253 1.068000
1.622833 -3.674261 1.026699
1.625769 -3.641994 0.984457
1.577871 -3.674261 0.969878
1.492911 -3.600495 0.914009
1.580808 -3.641994 0.927636
1.423438 -3.501138 0.895579
1.437246 -3.450130 0.936880
1.511334 -3.542637 0.909206
1.525317 -3.480784 1.010940
1.610277 -3.554550 1.066809
1.599406 -3.573290 0.983266
-2.797564 -3.599162 1.935717
-2.788565 -3.661081 1.906036
-2.789099 -3.620274 1.863934
-2.816051 -3.661081 1.861703
-2.891451 -3.585911 1.807096
-2.816585 -3.620274 1.819602
-2.965524 -3.484662 1.777876
-2.974523 -3.422742 1.807557
-2.890657 -3.519025 1.790382
-2.912570 -3.440590 1.876755
-2.837170 -3.515761 1.931362
-2.828705 -3.536873 1.859580
-2.786160 -3.515764 2.137438
-2.821627 -3.448075 2.199436
-2.743531 -3.539397 2.203863
-2.829792 -3.440304 2.287298
-2.809762 -3.502223 2.347454
-2.751696 -3.531626 2.291725
-2.774618 -3.593396 2.340617
-2.739151 -3.661086 2.278618
-2.716552 -3.622798 2.284888
-2.726524 -3.661086 2.201948
-2.746554 -3.599166 2.141793
-2.703925 -3.622798 2.208218
-2.814367 -3.592320 2.630192
-2.782212 -3.665779 2.582499
-2.755154 -3.625171 2.587363
-2.769585 -3.665779 2.505829
-2.786303 -3.598090 2.453982
-2.742528 -3.625171 2.510693
-2.821447 -3.506918 2.460819
-2.853602 -3.433459 2.508512
-2.777672 -3.533999 2.517529
-2.861768 -3.425688 2.565913
-2.845050 -3.493377 2.617760
-2.785838 -3.526228 2.574931
-3.019753 -3.590517 2.937464
-2.961322 -3.662668 2.912810
-2.946047 -3.619521 2.934641
-2.912289 -3.662668 2.854885
-2.898666 -3.589210 2.802649
-2.897014 -3.619521 2.876715
-2.929349 -3.490266 2.790217
-2.987780 -3.418114 2.814871
-2.927697 -3.520577 2.864283
-3.035798 -3.419874 2.860509
-3.049422 -3.493333 2.912744
-2.975716 -3.522337 2.909921
1.627047 -3.624832 2.059443
1.681514 -3.691694 2.017077
1.708844 -3.668955 2.044540
1.748154 -3.691694 1.951905
1.772826 -3.644820 1.899674
1.775484 -3.668955 1.979368
1.739418 -3.581685 1.894495
1.684952 -3.514823 1.936861
1.742076 -3.605819 1.974189
1.644998 -3.487901 1.999104
1.620326 -3.534775 2.051334
1.702122 -3.578897 2.036432
1.821112 -3.625244 1.677600
1.834062 -3.672118 1.630415
1.859411 -3.648888 1.617548
1.818098 -3.672118 1.561682
1.784057 -3.623177 1.508288
1.843446 -3.648888 1.548815
1.754172 -3.557258 1.505102
1.741221 -3.510384 1.552287
1.813561 -3.582969 1.545630
1.753663 -3.513168 1.619027
1.787704 -3.562109 1.672421
1.826003 -3.585752 1.612369
1.766886 -3.629418 1.408857
1.777221 -3.678359 1.360192
1.806348 -3.655817 1.348504
1.761257 -3.678359 1.291459
1.729832 -3.627351 1.239545
1.790384 -3.655817 1.279771
1.703469 -3.558648 1.238353
1.693133 -3.509707 1.287018
1.764021 -3.587114 1.278580
1.705575 -3.512491 1.353758
1.737000 -3.563499 1.405672
1.776463 -3.589898 1.345319
1.728013 -3.654050 1.549909
1.559628 -3.645016 1.450583
1.698584 -3.656130 1.414706
1.688248 -3.607190 1.463371
1.693972 -3.605109 1.496514
1.597957 -3.426338 1.405182
1.474333 -3.268850 1.474814
1.622155 -3.428392 1.537425
1.635106 -3.475266 1.490240
1.629382 -3.477346 1.457097
-3.142932 -3.645016 2.350725
-2.827847 -3.650373 2.304495
-2.863314 -3.582683 2.366494
-2.867209 -3.584248 2.404282
-2.850491 -3.651937 2.456129
-2.952570 -3.341178 2.319806
-3.088481 -3.142309 2.377548
-2.968589 -3.331204 2.465442
-2.936435 -3.404663 2.417750
-2.932539 -3.403098 2.379961
3.661740 4.003986 0.549985
3.679008 4.012609 0.429314
3.655353 4.051546 0.436587
3.672039 4.022252 0.325423
3.635001 4.035345 0.213053
3.648384 4.061189 0.332697
3.607728 4.037807 0.213053
3.590460 4.029184 0.333724
3.621110 4.063651 0.332697
3.601769 4.018749 0.445289
3.638806 4.005656 0.557660
3.632420 4.053216 0.444262
3.685373 3.914396 0.927933
3.658630 3.885463 1.031804
3.699217 3.909331 1.036061
3.656839 3.857045 1.120163
3.684182 3.811629 1.207687
3.697425 3.880913 1.124420
3.711252 3.798059 1.200248
3.737994 3.826991 1.096376
3.724496 3.867343 1.116981
3.735649 3.867310 1.007782
3.708307 3.912726 0.920258
3.722150 3.907662 1.028386
3.716105 3.632857 1.483986
3.697558 3.584068 1.558533
3.744332 3.598203 1.565024
3.707480 3.525390 1.620015
3.744215 3.456657 1.666469
3.754254 3.539525 1.626506
3.768256 3.451789 1.647936
3.786803 3.500578 1.573389
3.778295 3.534657 1.607973
3.779910 3.550555 1.523001
3.743175 3.619287 1.476547
3.771402 3.584633 1.557585
3.720927 3.090483 1.932064
3.758962 3.027546 1.952239
3.765717 3.111978 1.946601
3.794690 3.040286 1.941676
3.821301 3.111737 1.890031
3.801444 3.124718 1.936039
3.810177 3.165057 1.852845
3.772141 3.227993 1.832670
3.790320 3.178038 1.898853
3.748100 3.232862 1.851204
3.721489 3.161411 1.902849
3.766279 3.182906 1.917387
3.913302 2.435245 2.058697
3.912335 2.548550 2.043334
3.890082 2.541207 2.086440
3.893657 2.643323 2.031610
3.834811 2.732052 2.030353
3.871405 2.635980 2.074716
3.799084 2.719312 2.040915
3.800052 2.606007 2.056278
3.835678 2.623240 2.085278
3.836673 2.513991 2.059920
3.895519 2.425263 2.061176
3.872299 2.531225 2.088920
4.030432 2.044692 2.088424
4.094068 1.989329 2.080170
4.069602 2.055965 2.115208
4.131719 1.990430 2.066626
4.128041 2.057779 2.057549
4.107253 2.057065 2.101664
4.086991 2.118946 2.062701
4.023355 2.174308 2.070955
4.066203 2.118232 2.106816
4.005572 2.164326 2.073434
4.009249 2.096977 2.082511
4.048419 2.108250 2.109295
4.249681 1.610449 2.053438
4.331951 1.549832 2.035920
4.297909 1.619324 2.081282
4.369575 1.565631 2.033963
4.368723 1.644527 2.034715
4.335533 1.635123 2.079325
4.330312 1.701670 2.037368
4.248042 1.762288 2.054886
4.297122 1.692267 2.081978
4.210392 1.761187 2.068430
4.211243 1.682291 2.067678
4.259471 1.691166 2.095522
4.461556 1.336232 1.994423
4.473914 1.265246 1.980866
4.508356 1.277945 2.014341
4.522963 1.215415 1.966375
4.590331 1.181125 1.947963
4.557405 1.228114 1.999850
4.603566 1.199252 1.945432
4.591208 1.270239 1.958989
4.570640 1.246242 1.997318
4.566548 1.317740 1.974054
4.499181 1.352031 1.992466
4.545980 1.293744 2.012383
1.280476 -3.385292 0.924830
1.138942 -3.384074 0.942107
1.041760 -3.157402 0.950880
1.202792 -3.192027 1.008292
1.294284 -3.334285 0.966131
1.275785 -3.579781 0.978409
1.417319 -3.580998 0.961132
1.502279 -3.654764 1.017001
1.439620 -3.645016 1.203275
1.583785 -3.469795 1.225059
1.552721 -3.468429 1.167877
1.467761 -3.394664 1.112008
1.376269 -3.252406 1.154169
1.449825 -3.263366 1.343355
1.573449 -3.420855 1.273724
1.604649 -3.603757 1.170224
1.635713 -3.605123 1.227406
1.667139 -3.656130 1.279320
1.528182 -3.645016 1.315197
1.590841 -3.654764 1.128923
1.664608 -3.489341 1.796303
1.680703 -3.482816 1.722278
1.646663 -3.433875 1.668884
1.498840 -3.274333 1.606272
1.514688 -3.286317 1.789576
1.610142 -3.422480 1.838669
1.746508 -3.607176 1.732479
1.730412 -3.613702 1.806504
1.705740 -3.660575 1.858735
1.591073 -3.645016 1.585968
1.759458 -3.654050 1.685295
1.520011 -3.593714 2.029472
1.409885 -3.565527 2.053490
1.202963 -3.645016 1.914504
1.459810 -3.645016 1.714339
1.574477 -3.660575 1.987106
1.307428 -3.565527 2.110367
1.189241 -3.598161 2.154282
1.100506 -3.645016 1.971382
0.896759 -3.645016 1.997294
0.985494 -3.598161 2.180194
0.885656 -3.565708 2.176531
1.435990 -3.233288 1.912178
1.353730 -3.189845 1.996847
1.396646 -3.388138 2.037519
1.506771 -3.416325 2.013501
1.531444 -3.369451 1.961270
1.151855 -3.268070 2.186272
1.061165 -3.425142 2.184769
1.161004 -3.457595 2.188432
1.279191 -3.424962 2.144518
1.236275 -3.226668 2.103846
0.798967 -3.219046 2.163565
0.910895 -3.389041 2.210205
1.001585 -3.231969 2.211708
0.880797 -3.088411 2.168252
0.678759 -3.372187 1.074604
0.849495 -3.353109 0.963583
0.946677 -3.579781 0.954810
1.110512 -3.645016 1.179676
0.853664 -3.645016 1.379840
0.679300 -3.395714 2.049758
0.588838 -3.362154 1.876752
0.802331 -3.645016 1.917162
0.791228 -3.565708 2.096399
0.750432 -3.645016 1.670834
0.536940 -3.362154 1.630423
0.575526 -3.372187 1.365597
0.457342 -2.174656 1.847962
0.604886 -2.199169 1.998843
0.621713 -1.939346 1.998637
0.462804 -1.854344 1.827431
0.360378 -2.405492 1.555386
0.417669 -2.405814 1.315337
0.446225 -2.811977 1.303972
0.407638 -2.801945 1.568798
0.390338 -1.850625 1.558211
0.458236 -1.883668 1.307032
0.442167 -2.171259 1.338693
0.384876 -2.170937 1.578743
0.841996 -2.504740 0.968701
0.808751 -2.822000 0.936925
0.638014 -2.841078 1.047946
0.609458 -2.434915 1.059311
0.930731 -1.623255 0.706043
0.874485 -1.787070 0.827314
0.652354 -1.673742 0.944938
0.661843 -1.438300 0.806998
1.154030 -2.718184 1.265719
1.239000 -2.957879 1.299159
1.165444 -2.946918 1.109974
1.004412 -2.912294 1.052561
1.037658 -2.595034 1.084338
1.103626 -2.468451 1.039772
1.257387 -2.464698 1.171500
1.219999 -2.591602 1.221153
1.229532 -2.761279 1.833346
1.247992 -2.965967 1.890288
1.330253 -3.009410 1.805618
1.314404 -2.997427 1.622314
1.229434 -2.757732 1.588873
1.335288 -2.497508 1.483809
1.335747 -2.483266 1.724283
1.297997 -2.627958 1.777934
1.297900 -2.624412 1.533462
1.044521 -2.731353 2.038097
1.006620 -2.873171 2.068508
1.127408 -3.016730 2.111964
1.211828 -2.975327 2.029538
1.193368 -2.770639 1.972596
0.668706 -2.693837 2.012449
0.706607 -2.552020 1.982038
0.596698 -2.418973 1.972224
0.449154 -2.394461 1.821343
0.496414 -2.790913 1.834755
0.586876 -2.824473 2.007761
1.439858 -1.726689 0.950897
1.325490 -1.942837 1.013475
1.150172 -1.889940 0.873912
1.206418 -1.726125 0.752641
1.112040 -2.115134 0.967125
1.287359 -2.168031 1.106687
1.260138 -2.355469 1.157527
1.106378 -2.359223 1.025799
1.374876 -2.171584 1.348309
1.352330 -2.101437 1.608307
1.348114 -2.344780 1.639623
1.347655 -2.359022 1.399149
1.229629 -2.125763 1.950549
1.301284 -2.318985 1.844414
1.305500 -2.075642 1.813098
1.218997 -2.415732 1.927457
1.147342 -2.222510 2.033591
1.076061 -2.092257 2.062337
0.939319 -2.128270 2.036589
0.922492 -2.388093 2.036795
1.032401 -2.521139 2.046608
1.181248 -2.560424 1.981107
0.815045 -1.031409 2.024138
0.743592 -1.150349 2.023636
0.861416 -1.195233 2.072708
0.897305 -1.122020 2.069545
0.890842 -1.380496 2.068124
0.773018 -1.335612 2.019052
0.807761 -1.640765 2.039784
0.944503 -1.604752 2.065532
0.563178 -1.249531 1.913094
0.457524 -1.218781 1.766245
0.439012 -1.469682 1.762619
0.597920 -1.554684 1.933825
0.503329 -1.055603 1.740353
0.608983 -1.086354 1.887201
0.680435 -0.967414 1.887704
0.562710 -0.970229 1.744186
0.878984 -1.961870 1.020416
0.873322 -2.205959 1.079090
0.640783 -2.136133 1.169701
0.656853 -1.848542 1.138039
0.512086 -0.915852 1.433924
0.404417 -0.989369 1.257902
0.480678 -1.205999 1.101804
0.471190 -1.441441 1.239744
0.403291 -1.408397 1.490923
0.421803 -1.157496 1.494550
0.481185 -1.072122 1.498382
0.863370 -0.591048 1.835481
0.725951 -0.721014 1.717117
0.695050 -0.877284 1.781575
0.812775 -0.874469 1.925094
0.976024 -0.705293 1.909698
1.236208 -0.984537 2.013256
1.115387 -0.827859 1.994672
0.952138 -0.997035 2.010068
1.034398 -1.087646 2.055475
1.308928 -1.320511 1.838451
1.208962 -1.133636 1.990456
1.007152 -1.236745 2.032676
0.971263 -1.309957 2.035838
1.024924 -1.534214 2.033246
1.096205 -1.664466 2.004500
1.172076 -1.614345 1.867049
1.544875 -1.678590 1.274217
1.544813 -1.530757 1.568195
1.407962 -1.824591 1.596793
1.430507 -1.894738 1.336795
-2.901019 -3.424175 2.084743
-2.918022 -3.424173 2.016051
-2.993422 -3.349003 1.961443
-3.120730 -3.147968 1.984241
-3.072397 -3.157616 2.204484
-2.936486 -3.356485 2.146741
-2.996055 -3.382549 2.687840
-2.967955 -3.383586 2.630353
-2.984673 -3.315897 2.578507
-3.104564 -3.127002 2.490613
-3.148032 -3.129789 2.630449
-3.054486 -3.310398 2.712493
-3.310665 -3.198220 2.780506
-3.258397 -3.389784 2.853637
-3.162694 -3.387324 2.854623
-3.149070 -3.313865 2.802388
-3.242616 -3.133256 2.720344
-3.561662 -3.352017 2.846397
-3.432387 -3.645016 2.657743
-3.367958 -3.581208 2.944228
-3.420226 -3.389645 2.871096
-3.199955 -3.581208 2.902327
-3.264385 -3.645016 2.615842
-3.045821 -3.650900 2.878660
-3.104252 -3.578748 2.903313
-2.949241 -3.650900 2.764563
-3.167804 -3.645016 2.501745
-2.875363 -3.651937 2.607148
-2.907518 -3.578478 2.654841
-2.935618 -3.577441 2.712327
-2.802975 -3.650373 2.153476
-3.118061 -3.645016 2.199706
-2.831010 -3.650371 1.994947
-2.840009 -3.588451 2.024628
-2.823005 -3.588453 2.093320
-3.070970 -3.578538 1.849649
-2.960549 -3.575201 1.853016
-2.885149 -3.650371 1.907624
-3.172200 -3.645016 2.112382
-3.311540 -3.224037 1.741850
-3.242759 -3.112812 1.847940
-3.115452 -3.313848 1.825142
-3.106453 -3.375767 1.795461
-3.216874 -3.379105 1.792094
-3.572666 -3.404374 1.687878
-3.412329 -3.423471 1.712897
-3.317663 -3.578538 1.763141
-3.418892 -3.645016 2.025875
-3.985140 -3.369841 1.789186
-3.801015 -3.404374 1.735281
-3.647242 -3.645016 2.073278
-4.128972 -3.332599 2.029695
-4.064207 -3.369841 1.868623
-3.726309 -3.645016 2.152714
-4.058727 -3.334106 2.420736
-4.141448 -3.332599 2.219321
-3.738785 -3.645016 2.342340
-3.747527 -3.352017 2.754343
-3.938194 -3.334106 2.644085
-3.618252 -3.645016 2.565689
-2.744602 -1.188993 1.970780
-2.735881 -1.231144 1.771947
-2.649731 -1.141515 1.727856
-2.663580 -1.044648 1.961193
-3.270084 -2.810078 2.066339
-3.238743 -2.310060 1.966278
-3.236530 -2.251074 2.224102
-3.221751 -2.819726 2.286582
-3.073910 -1.639908 2.079833
-3.076122 -1.698893 1.822008
-2.910759 -1.337268 1.788050
-2.919480 -1.295116 1.986883
-3.555412 -2.279252 1.434281
-3.349513 -2.347024 1.654701
-3.380854 -2.847042 1.754761
-3.449635 -2.958267 1.648671
-3.609972 -2.939171 1.623652
-3.099319 -1.561777 1.409809
-3.305219 -1.494004 1.189390
-3.208507 -1.017782 0.925128
-2.783825 -1.021528 1.116334
-2.847806 -1.110523 1.331760
-2.933957 -1.200152 1.375851
-4.062599 -2.156456 1.414176
-3.809158 -2.247089 1.368223
-3.863718 -2.907008 1.557593
-4.047842 -2.872475 1.611499
-3.741103 -1.355229 1.097546
-3.994545 -1.264596 1.143499
-3.970659 -0.734788 0.904109
-3.644391 -0.879006 0.833285
-4.312927 -1.981686 1.769212
-4.237936 -2.050486 1.569015
-4.223179 -2.766505 1.766337
-4.287943 -2.729263 1.927410
-4.143345 -1.178973 1.330374
-4.218336 -1.110173 1.530571
-4.171632 -0.534741 1.314770
-4.119459 -0.649165 1.090984
-4.162871 -1.938311 2.217038
-4.305107 -1.938689 1.989601
-4.280123 -2.686266 2.147799
-4.197403 -2.687773 2.349214
-4.201986 -1.069566 1.769257
-4.059751 -1.069187 1.996694
-3.966476 -0.479146 1.853977
-4.155282 -0.494134 1.553456
-3.456988 -2.062502 2.439770
-3.550464 -2.777327 2.585102
-3.409028 -2.814955 2.609800
-3.340979 -2.749991 2.549638
-3.297512 -2.747204 2.409803
-3.312291 -2.178552 2.347324
-3.791730 -2.754709 2.631772
-3.698254 -2.039885 2.486440
-3.947865 -1.987336 2.389337
-3.982397 -2.736798 2.521513
-6.458189 -0.009694 0.051490
-7.208837 0.065066 0.075817
-7.208837 0.065066 -0.044392
-6.458189 -0.009694 -0.020065
-7.947909 0.214378 0.075817
-8.664080 0.385598 0.064304
-8.664080 0.385598 -0.032880
-7.947909 0.214378 -0.044392
-9.338053 0.613744 0.064304
-9.820143 0.745468 0.040424
-9.820143 0.745468 -0.008999
-9.338053 0.613744 -0.032880
-9.305828 0.776131 0.198733
-9.801279 0.856192 0.142802
-9.810755 0.806852 0.114558
-9.328665 0.675128 0.138438
-7.913524 0.446674 0.288241
-8.640854 0.581608 0.244833
-8.663691 0.480605 0.184538
-7.947520 0.309385 0.196051
-6.374536 0.286059 0.286900
-7.126863 0.333775 0.288192
-7.160859 0.196487 0.196001
-6.410212 0.121727 0.171674
-7.831179 0.800558 0.345778
-8.442537 0.839873 0.302064
-8.578323 0.742591 0.281047
-7.850993 0.607656 0.324455
-6.340816 0.729882 0.451310
-7.081959 0.688417 0.401644
-7.101773 0.495516 0.380321
-6.349447 0.447800 0.379029
-2.411185 -0.689266 1.734873
-2.580007 -0.881884 1.845023
-2.566158 -0.978751 1.611686
-2.502177 -0.889756 1.396260
-2.914889 -0.540836 2.243260
-2.730984 -0.719051 2.127285
-2.562162 -0.526433 2.017135
-2.856009 -0.267130 2.201572
-3.194800 -0.729874 2.294206
-3.267964 -1.260288 2.356580
-3.123267 -1.376337 2.264133
-2.968837 -1.031546 2.171184
-2.887816 -0.887202 2.161597
-3.071721 -0.708987 2.277572
-3.480370 -1.154800 2.372171
-3.407205 -0.624387 2.309797
-3.636707 -0.512210 2.132351
-3.729981 -1.102252 2.275068
-3.600561 0.095502 2.024293
-3.616191 -0.239188 2.085528
-3.386690 -0.351364 2.262975
-3.263610 -0.330477 2.246341
-3.204730 -0.056770 2.204653
-3.141689 0.360782 2.159545
-3.005361 0.784382 2.083555
-3.548266 1.011669 1.874640
-3.537519 0.513054 1.979186
-1.980266 0.415094 1.984408
-1.835403 0.615485 1.963237
-2.015765 1.111434 1.953097
-2.360248 0.717689 2.033442
-2.100459 -0.103127 1.770501
-2.143848 0.166710 1.998598
-2.523830 0.469305 2.047633
-2.660157 0.045705 2.123624
-2.366311 -0.213599 1.939186
-4.328019 0.862797 1.286967
-4.251731 0.575704 1.355753
-3.971884 0.503730 1.639734
-3.982630 1.002345 1.535187
-4.240061 0.090715 1.130705
-4.123704 -0.161199 1.364020
-3.934898 -0.146211 1.664541
-3.919268 0.188478 1.603306
-4.199115 0.260453 1.319326
-5.075717 0.520221 0.478727
-5.069526 0.908930 0.617589
-5.593133 0.803663 0.487584
-5.601764 0.521580 0.415303
-4.806239 0.911779 0.795238
-4.812431 0.523069 0.656376
-4.541107 0.401525 0.867307
-4.500161 0.571262 1.055928
-4.576448 0.858356 0.987141
-5.105295 -0.064752 0.061433
-5.707075 -0.006916 0.051490
-5.707075 -0.006916 -0.020065
-5.105295 -0.064752 -0.030008
-5.684469 0.082121 0.074415
-5.082689 0.024285 0.084359
-5.122747 0.245093 0.253065
-5.648794 0.246453 0.189641
-3.866544 -0.594046 0.110715
-3.866544 -0.594046 -0.079291
-3.476954 -0.790260 -0.098634
-3.476954 -0.790260 0.130059
-4.157233 -0.395527 -0.079291
-4.157234 -0.395527 0.110715
-4.542505 -0.216809 0.061433
-4.542505 -0.216809 -0.030008
-4.411129 -0.120022 0.444207
-4.483948 0.081087 0.601027
-4.755271 0.202631 0.390097
-4.715213 -0.018177 0.221391
-4.329942 -0.196895 0.270673
-4.330462 -0.054670 0.866668
-4.257643 -0.255778 0.709847
-4.161931 -0.421008 0.876197
-4.214105 -0.306584 1.099983
-3.995286 -0.607087 0.670653
-4.090998 -0.441857 0.504303
-4.009811 -0.518731 0.330769
-3.620220 -0.714945 0.350112
-3.669019 -0.751305 0.599828
-2.719368 -0.980309 0.094823
-3.083153 -0.888371 0.130059
-3.083153 -0.888371 -0.098634
-2.719368 -0.980309 -0.063398
-2.474530 -0.894263 0.576453
-2.690597 -0.921445 0.808312
-3.115278 -0.917698 0.617106
-3.066480 -0.881339 0.367390
-2.702695 -0.973277 0.332154
-2.263146 -0.763033 1.184088
-2.047079 -0.735851 0.952230
-1.906302 -0.452071 1.354015
-2.172154 -0.562543 1.522701
-1.634877 -1.014979 0.230966
-2.102169 -0.975216 0.339122
-2.330334 -1.054229 0.094823
-2.330334 -1.054229 -0.063398
-2.102169 -0.975216 -0.307697
-1.634877 -1.014979 -0.199541
-0.333807 -1.050563 0.237984
-0.865645 -1.024449 0.230966
-0.865645 -1.024449 -0.199541
-0.333807 -1.050563 -0.206560
0.365449 -1.230826 0.195753
0.024504 -1.108883 0.237984
0.024504 -1.108883 -0.206560
0.365449 -1.230826 -0.164328
1.026878 -1.484089 0.156850
0.698198 -1.351232 0.195753
0.698198 -1.351232 -0.164328
1.026878 -1.484089 -0.125425
0.693284 -1.301346 0.444642
1.021965 -1.434202 0.405739
0.975318 -1.496674 0.596569
0.706430 -1.311719 0.697525
1.679173 -1.469827 0.262626
1.390150 -1.490459 0.156850
1.390150 -1.490459 -0.125425
1.679173 -1.469827 -0.231201
1.399828 -1.534969 0.472510
1.688851 -1.514338 0.578287
1.586622 -1.598005 0.861597
1.353181 -1.597442 0.663341
2.189899 -1.288749 0.318490
1.918931 -1.433446 0.262626
1.918931 -1.433446 -0.231201
2.189899 -1.288749 -0.287066
2.793687 -0.912092 0.242973
2.509993 -1.117453 0.318490
2.509993 -1.117453 -0.287066
2.793687 -0.912092 -0.211548
3.283289 -0.516726 0.185870
2.980264 -0.732512 0.242973
2.980264 -0.732512 -0.211548
3.283289 -0.516726 -0.154445
1.804781 -0.466803 1.927660
1.592151 -0.229808 1.965308
1.349747 -0.565182 1.960295
1.470568 -0.721861 1.978879
2.100624 -1.081778 1.421060
1.761758 -1.296889 1.511909
1.761820 -1.444722 1.217931
1.864048 -1.361054 0.934620
2.135016 -1.216357 0.990485
1.717182 -1.117186 1.737910
2.056048 -0.902075 1.647061
1.951430 -0.675253 1.838696
1.617217 -0.930311 1.889915
2.763214 -0.625742 1.150440
2.449444 -0.863951 1.288184
2.483837 -0.998530 0.857609
2.767530 -0.793169 0.782091
3.301221 -0.203836 0.828876
3.042498 -0.373002 0.981246
3.046814 -0.540429 0.612898
3.349839 -0.324643 0.555794
2.751260 -0.458445 1.435626
2.658236 -0.162618 1.653778
2.332872 -0.469831 1.765005
2.437490 -0.696653 1.573370
2.117578 -0.117993 1.931389
2.442942 0.189220 1.820163
2.231070 0.544933 1.898321
1.904947 0.119002 1.969037
3.314072 0.331930 1.202727
3.091404 0.394122 1.362610
2.903769 0.114229 1.478562
2.996793 -0.181598 1.260410
3.255517 -0.012432 1.108040
0.272126 -0.553644 1.202449
0.484594 -0.642536 1.247354
0.592262 -0.569019 1.423376
0.465242 -0.392805 1.386427
0.389330 -0.791209 1.076007
0.176862 -0.702317 1.031102
0.111501 -0.875522 0.709258
0.452445 -0.997465 0.667027
0.465591 -1.007839 0.919910
-1.317893 -0.578105 1.039074
-1.746657 -0.489200 1.184107
-1.887434 -0.772980 0.782322
-1.420142 -0.812743 0.674165
-0.255015 -0.697150 0.977642
-0.749965 -0.609604 1.013689
-0.852214 -0.844241 0.648780
-0.320377 -0.870355 0.655799
-0.554880 -0.318986 1.419790
-0.684211 -0.479025 1.240629
-0.189262 -0.566572 1.204583
0.003854 -0.405733 1.388562
-0.225943 -0.350508 1.413824
-1.202815 -0.152576 1.410755
-1.073484 0.007463 1.589915
-1.133241 0.410272 1.725612
-1.530105 0.406557 1.762714
-1.674968 0.206166 1.783885
-1.631579 -0.063671 1.555788
-1.167531 0.971989 1.876812
-1.132615 1.592870 1.875185
-1.744758 1.464222 1.903773
-1.564396 0.968273 1.913913
-0.073693 0.251935 1.707638
-0.621570 0.310084 1.729065
-0.561813 -0.092726 1.593369
-0.232877 -0.124247 1.587402
-0.475950 0.991131 1.891515
0.071928 0.932983 1.870088
0.178675 1.491805 1.881027
-0.441033 1.612013 1.889889
0.712080 0.188944 1.686809
0.401446 0.257560 1.686286
0.242262 -0.118622 1.566051
0.472059 -0.173847 1.540788
1.148605 0.043845 1.820073
1.012573 -0.304336 1.784954
1.125227 -0.418581 1.859171
1.367631 -0.083207 1.864183
0.872922 -0.306833 1.727139
1.008954 0.041349 1.762259
0.848503 0.102207 1.717848
0.608482 -0.260585 1.571828
0.735503 -0.436799 1.608776
0.995414 1.145969 1.817805
0.691794 1.334632 1.798514
0.585047 0.775810 1.787575
0.895681 0.707194 1.788098
1.615320 0.998412 1.902576
1.421860 0.487145 1.921295
1.640886 0.360093 1.965405
1.967009 0.786025 1.894689
1.173988 0.610158 1.907426
1.367448 1.121425 1.888707
1.113271 1.109791 1.892722
1.013537 0.671016 1.863015
2.992263 0.866890 1.504481
2.869552 1.143530 1.554442
2.592756 0.942709 1.698591
2.804628 0.586997 1.620432
3.026615 1.240858 1.416862
3.149326 0.964217 1.366901
3.371993 0.902025 1.207018
3.380351 1.257661 1.319204
3.133514 1.348629 1.406017
-9.287768 1.077173 0.208520
-9.793863 1.016815 0.154320
-9.782240 0.942826 0.153400
-9.286789 0.862765 0.209331
-9.151003 0.960048 0.230349
-7.854156 1.162551 0.293550
-8.587356 1.123222 0.272322
-8.450590 1.006096 0.294151
-7.839231 0.966781 0.337865
-6.362887 1.286985 0.337254
-7.097192 1.166846 0.322194
-7.082268 0.971076 0.366509
-6.341125 1.012541 0.416174
-5.164745 1.604917 0.542167
-5.652183 1.486910 0.415133
-5.630420 1.212466 0.494053
-5.106812 1.317734 0.624058
-4.176127 2.043978 1.024181
-4.549393 2.007616 0.749870
-4.791988 1.749432 0.770385
-4.734056 1.462249 0.852276
-4.504265 1.408825 1.044178
-4.158877 1.548373 1.292399
-2.919893 2.481672 1.454766
-3.442681 2.222903 1.439704
-3.425431 1.727298 1.707922
-2.882526 1.500010 1.916836
-2.538043 1.893755 1.836490
-1.192752 2.837269 1.394675
-1.715565 2.952349 1.277766
-2.099386 2.739850 1.363613
-1.717536 2.151934 1.745338
-1.105393 2.280582 1.716749
0.180705 2.541665 1.457475
-0.527277 2.721750 1.406095
-0.439918 2.165063 1.728169
0.179790 2.044856 1.719308
1.461810 2.119289 1.489390
0.789361 2.314381 1.478420
0.788445 1.817572 1.740252
1.092066 1.628909 1.759543
1.346243 1.640543 1.755527
2.628926 1.968389 1.399302
2.087641 1.990997 1.448354
1.972074 1.512251 1.714491
2.323764 1.299863 1.706604
2.600560 1.500684 1.562454
2.707459 1.608455 1.551610
2.743533 1.750349 1.572049
2.716786 1.847685 1.523269
-10.299778 1.063244 0.041343
-10.299778 1.063244 -0.009919
-10.259657 0.977659 -0.038163
-10.248034 0.903670 -0.037243
-10.257509 0.854331 -0.008999
-10.257509 0.854331 0.040424
-10.248034 0.903670 0.068668
-10.259657 0.977659 0.069588
-9.390481 1.346298 0.142365
-9.887894 1.237731 0.118237
-9.847773 1.152146 0.146481
-9.341678 1.212504 0.200681
-9.954346 1.359154 0.041343
-9.456933 1.467720 0.065472
-9.456933 1.467720 -0.034047
-9.954346 1.359154 -0.009919
-7.920763 1.480492 0.185731
-8.651631 1.399252 0.187615
-8.602828 1.265459 0.245931
-7.869628 1.304788 0.267159
-8.711011 1.535435 0.065472
-7.980143 1.616675 0.063588
-7.980143 1.616675 -0.032163
-8.711011 1.535435 -0.034047
-6.464743 1.700582 0.121376
-7.184189 1.534509 0.132946
-7.133054 1.358805 0.214374
-6.398749 1.478944 0.229434
-7.278015 1.766947 0.063588
-6.558569 1.933019 0.052018
-6.558569 1.933019 -0.020593
-7.278015 1.766947 -0.032163
-5.017035 2.274157 0.158920
-5.731768 1.922900 0.127882
-5.665774 1.701263 0.235940
-5.178337 1.819270 0.362974
-4.935741 2.077454 0.342460
-5.852463 2.170700 0.052018
-5.137731 2.521957 0.083056
-5.137731 2.521957 -0.051632
-5.852463 2.170700 -0.020593
-3.614703 3.211758 0.322871
-4.275657 2.834354 0.276569
-4.194363 2.637650 0.460108
-3.821098 2.674013 0.734419
-3.298309 2.932781 0.749482
-4.459260 2.906786 0.083056
-3.798306 3.284190 0.129359
-3.798306 3.284190 -0.097934
-4.459260 2.906786 -0.051632
-2.528855 3.623079 0.415681
-3.069707 3.449347 0.390432
-2.753314 3.170371 0.817042
-2.369493 3.382870 0.731194
-3.119335 3.611189 0.129359
-2.578482 3.784921 0.154608
-2.578482 3.784921 -0.123183
-3.119335 3.611189 -0.097934
-1.490042 3.658385 0.474863
-2.074554 3.673489 0.449117
-1.915192 3.433280 0.764631
-1.392379 3.318200 0.881540
-2.093339 3.864849 0.154608
-1.508827 3.849745 0.180354
-1.508827 3.849744 -0.148929
-2.093339 3.864849 -0.123183
-0.003980 3.393341 0.587700
-0.803087 3.566989 0.544411
-0.705424 3.226805 0.951088
0.002559 3.046719 1.002468
-0.797179 3.750382 0.180354
0.001928 3.576734 0.223643
0.001928 3.576734 -0.192218
-0.797179 3.750382 -0.148929
1.618164 2.884391 0.707303
0.866864 3.107196 0.691309
0.873403 2.760574 1.106077
1.545852 2.565482 1.117048
0.928903 3.359043 0.223643
1.680203 3.136239 0.239637
1.680203 3.136239 -0.208212
0.928903 3.359043 -0.192218
2.686874 2.637767 0.602333
2.202630 2.745744 0.667668
2.130318 2.426834 1.077413
2.671603 2.404226 1.028361
2.748005 2.540604 0.881067
2.744301 2.574950 0.783382
2.303117 2.887505 -0.208212
2.303117 2.887505 0.239637
2.787361 2.779529 0.174302
2.787361 2.779529 -0.142877
3.458632 3.624269 -0.128650
3.458632 3.624269 0.160074
3.541107 3.970322 0.202164
3.558374 3.978945 0.081492
3.558374 3.978945 -0.050068
3.541107 3.970322 -0.170739
3.082680 2.713624 0.174302
3.329455 3.013046 0.160074
3.329455 3.013046 -0.128650
3.082680 2.713624 -0.142877
3.496252 3.589557 0.531195
3.514199 3.530636 0.793595
3.604543 3.863165 0.912951
3.631286 3.892097 0.809079
3.615764 3.922518 0.685655
3.578726 3.935610 0.573284
3.178579 2.596330 0.561679
3.385873 2.899647 0.628802
3.367926 2.958568 0.366402
3.121151 2.659146 0.380629
3.508241 3.436102 1.087519
3.517781 3.337911 1.285393
3.618022 3.614835 1.461045
3.636569 3.663624 1.386498
3.625928 3.723215 1.294398
3.598586 3.768631 1.206874
3.183938 2.510024 0.837595
3.397068 2.749496 1.004908
3.387528 2.847687 0.807034
3.180233 2.544370 0.739910
3.550788 3.142720 1.489913
3.566283 2.998165 1.622221
3.662448 3.204862 1.825243
3.689059 3.276313 1.773597
3.687764 3.350911 1.712019
3.651029 3.419644 1.665565
3.116993 2.322568 1.099711
3.422020 2.553864 1.252038
3.406526 2.698419 1.119731
3.193395 2.458946 0.952418
3.484945 2.275266 1.445895
3.443405 2.457853 1.364742
3.138377 2.226557 1.212415
3.226237 2.105852 1.336382
3.564413 2.762226 1.719403
3.605953 2.579639 1.800556
3.712955 2.689936 1.987522
3.711987 2.803241 1.972159
3.698613 2.905986 1.942600
3.660578 2.968923 1.922426
3.727775 2.273553 1.812668
3.795907 2.080548 1.857198
3.933984 2.140792 2.014054
3.930307 2.208142 2.004977
3.893623 2.295120 2.000891
3.834777 2.383849 1.999634
3.277809 1.916206 1.487774
3.577902 1.989950 1.593037
3.509770 2.182955 1.548507
3.251062 2.013541 1.438994
4.235573 1.517579 1.973436
4.095374 1.454724 1.778534
4.290873 1.269233 1.743600
4.373403 1.314776 1.928529
4.361045 1.385762 1.942086
4.317843 1.456962 1.955918
3.866372 1.906623 1.876867
3.967512 1.693706 1.825902
4.107711 1.756561 2.020803
4.106859 1.835457 2.021556
4.068085 1.911505 2.025469
4.004449 1.966867 2.033723
3.543986 1.483648 1.424249
3.734456 1.577338 1.585798
3.633316 1.790255 1.636764
3.333223 1.716510 1.531502
3.297149 1.574616 1.511062
7.303106 2.733328 0.604393
7.371690 2.744495 0.594447
7.357741 2.719065 0.561794
7.416328 2.703511 0.571446
7.406999 2.645523 0.557394
7.402379 2.678082 0.538794
6.866835 2.237431 0.620122
6.763685 2.266241 0.570962
7.213490 2.513199 0.594046
7.218110 2.480640 0.612646
6.685143 2.323781 0.589428
6.697586 2.428556 0.684069
7.080313 2.585002 0.655111
7.134948 2.570739 0.612512
6.737463 2.471617 0.755405
6.763697 2.437335 0.802925
7.188774 2.639230 0.716501
7.120190 2.628064 0.726446
6.759748 2.267793 0.755226
6.882753 2.296089 0.679396
7.234029 2.539298 0.671921
7.243358 2.597286 0.685973
6.818281 2.395391 0.772397
5.987257 1.614376 0.518655
5.973239 1.683153 0.410862
6.200109 1.890818 0.478301
6.303259 1.862008 0.527460
5.908212 1.830392 0.399262
5.844682 1.969453 0.417263
6.135082 2.038057 0.466700
5.748180 1.878999 0.326116
5.807613 1.899304 0.372194
5.871143 1.760244 0.354192
5.828848 1.725670 0.305372
5.757972 1.882238 0.868441
5.840113 1.758024 0.842646
6.094246 1.917521 0.821965
6.152779 2.045119 0.839136
5.905327 1.691620 0.785282
5.966463 1.631781 0.679966
6.282465 1.879413 0.688771
6.159460 1.851118 0.764601
4.388278 2.672915 -0.185770
4.388278 2.672915 0.217195
4.761806 2.368458 0.119695
4.761806 2.368458 -0.088270
3.874038 3.398177 -0.140834
3.874038 3.398177 0.172259
4.077164 3.054167 0.217195
4.077164 3.054167 -0.185770
3.686138 3.957660 0.193863
3.751728 3.753176 0.172259
3.751728 3.753176 -0.140834
3.686138 3.957660 -0.162438
3.649100 3.970753 -0.050068
3.649100 3.970753 0.081492
3.870547 3.409779 0.452854
3.896157 3.353541 0.730408
4.073673 3.065770 0.497790
3.734917 3.841127 0.871073
3.800520 3.664865 0.795404
3.774910 3.721102 0.517849
3.709320 3.925586 0.539453
3.692052 3.916964 0.660125
3.707574 3.886543 0.783549
3.971106 3.283184 0.919732
4.001627 3.171715 1.120960
4.221768 2.868723 1.007383
4.148621 2.995412 0.687113
3.763352 3.549750 1.408207
3.838843 3.419275 1.291340
3.808322 3.530743 1.090111
3.742719 3.707006 1.165781
3.715976 3.678074 1.269653
3.726617 3.618483 1.361752
4.018032 3.096563 1.274229
4.050769 2.940964 1.412150
4.238173 2.793571 1.160652
3.807066 3.197182 1.732121
3.894511 3.097433 1.596875
3.861773 3.253031 1.458954
3.786283 3.383507 1.575821
3.767735 3.334718 1.650368
3.769030 3.260119 1.711946
4.105378 2.737331 1.519252
4.156626 2.523127 1.595639
4.390406 2.318611 1.410549
4.292781 2.589938 1.267754
3.889680 2.756891 1.938279
3.982764 2.705863 1.796960
3.931516 2.920066 1.720573
3.844071 3.019816 1.855818
3.817460 2.948365 1.907464
3.830834 2.845620 1.937023
4.207873 2.362571 1.631386
4.295046 2.142567 1.644708
4.441654 2.158055 1.446295
4.053099 2.185984 1.988476
4.132069 2.170598 1.849283
4.044896 2.390602 1.835961
3.951812 2.441631 1.977280
3.952779 2.328326 1.992643
3.989463 2.241347 1.996730
4.314374 1.778500 1.958984
4.379661 1.777076 1.819111
4.268621 1.967128 1.832146
4.189652 1.982514 1.971339
4.193329 1.915165 1.980416
4.232103 1.839117 1.976502
4.553569 1.404027 1.917164
4.591629 1.417778 1.784804
4.507435 1.586990 1.810287
4.442148 1.588413 1.950160
4.442999 1.509517 1.949408
4.486201 1.438317 1.935575
4.647958 1.175026 1.853492
4.664765 1.138675 1.717866
4.673660 1.259764 1.734689
4.635600 1.246013 1.867049
4.454036 1.103472 1.695396
4.620741 1.078373 1.726287
4.603934 1.114725 1.861913
4.536566 1.149015 1.880325
4.430312 0.977183 1.341224
4.637049 1.000787 1.361776
4.587629 1.029526 1.537588
4.420925 1.054625 1.506697
4.504843 1.751788 1.627350
4.656646 1.646628 1.431384
4.540411 1.957327 1.441973
4.393804 1.941839 1.640385
4.670109 1.416657 1.580010
4.737718 1.480708 1.409527
4.585915 1.585868 1.605493
4.756531 1.104004 1.366238
4.783615 1.317883 1.388391
4.716006 1.253832 1.558874
4.707111 1.132743 1.542050
5.759730 1.710849 0.191288
5.636272 1.862049 0.211381
5.713724 1.870658 0.302379
5.794392 1.717329 0.281635
5.587150 1.799465 -0.055228
5.587150 1.799465 0.086652
5.710608 1.648265 0.066560
5.710608 1.648265 -0.035135
5.082356 2.222285 0.119695
5.358280 2.051131 0.086652
5.358280 2.051131 -0.055228
5.082356 2.222285 -0.088270
4.505696 2.497747 0.794363
4.871289 2.271890 0.620304
4.806077 2.319979 0.376593
4.432549 2.624436 0.474093
5.017610 2.037724 1.025825
4.958929 2.169973 0.891872
4.593336 2.395830 1.065932
4.690960 2.124503 1.208726
5.299426 2.135694 0.522437
5.514465 2.093458 0.448390
5.587589 2.021238 0.336683
5.510137 2.012629 0.245684
5.234214 2.183783 0.278727
5.813226 2.044271 0.498265
5.745103 2.099707 0.631853
6.116069 2.217651 0.642342
6.103626 2.112875 0.547702
5.588839 2.095470 0.504888
5.653272 2.098991 0.572847
5.721395 2.043555 0.439259
5.661963 2.023250 0.393182
5.558372 2.014300 0.891005
5.555978 2.093521 0.803690
5.491545 2.090000 0.735731
5.276505 2.132236 0.809779
5.335186 1.999987 0.943732
5.687577 2.107853 0.787294
5.689971 2.028632 0.874608
6.084778 2.191514 0.845303
6.058544 2.225796 0.797783
3.944298 0.853266 0.984537
4.060168 0.981593 1.074626
4.090162 1.075338 1.165498
4.080775 1.152780 1.330971
3.885276 1.338271 1.365906
3.694806 1.244581 1.204357
3.686448 0.888946 1.092171
4.663879 0.700512 1.119113
4.807516 0.864476 1.141589
4.677543 0.941513 1.228490
4.470806 0.917909 1.207938
4.440812 0.824164 1.117065
5.599335 1.262915 0.922639
5.645981 1.156168 0.890897
5.731069 1.188861 0.874101
5.689032 1.295503 0.897334
5.670321 1.067239 0.844644
5.774102 0.978082 0.787365
5.755408 1.099931 0.827849
5.831412 0.961919 0.758872
5.897743 1.029189 0.758287
5.812718 1.083769 0.799356
5.932749 1.126849 0.777220
5.900449 1.258716 0.810828
5.847724 1.181429 0.818289
5.855514 1.299752 0.833429
5.760752 1.329108 0.864123
5.802789 1.222465 0.840890
5.810536 1.574265 0.066560
5.908841 1.445249 0.121487
5.908841 1.445249 -0.090062
5.810536 1.574265 -0.035135
5.833292 1.588776 0.235568
5.896935 1.453280 0.200148
5.798631 1.582296 0.145221
6.044609 1.140434 0.712527
6.001089 1.284134 0.710986
5.956825 1.266602 0.801276
5.989124 1.134735 0.767669
6.040202 1.289379 0.358773
6.048919 1.276400 0.563440
6.092440 1.132699 0.564981
6.102496 1.122423 0.436703
5.956579 1.501533 0.526443
5.972627 1.387263 0.539078
5.963910 1.400242 0.334411
5.900267 1.535738 0.369831
5.942562 1.570311 0.418651
5.835862 1.606030 0.825557
5.664016 1.555020 0.874999
5.774019 1.443743 0.853858
5.868782 1.414387 0.823165
5.913045 1.431920 0.732875
5.896997 1.546190 0.720240
5.431581 1.826825 0.912874
5.565063 1.665914 0.883793
5.736908 1.716924 0.834352
5.654768 1.841137 0.860147
5.489665 1.517228 0.920074
5.363712 1.411440 0.959882
5.509972 1.373363 0.924238
5.599669 1.405951 0.898933
4.880804 1.563348 1.205898
5.098747 1.520570 1.044313
5.224700 1.626358 1.004505
5.091219 1.787269 1.033585
4.764570 1.874047 1.216486
5.034451 1.026068 1.073889
5.155108 1.131899 1.023403
5.149506 1.274206 1.021358
4.931562 1.316984 1.182943
4.904478 1.103106 1.160790
5.329459 1.169691 0.978328
5.451350 1.067674 0.912497
5.516762 1.167174 0.908898
5.470116 1.273921 0.940640
5.323856 1.311998 0.976283
5.580592 0.869541 0.821913
5.730463 0.788928 0.746056
5.749785 0.879885 0.761035
5.646004 0.969041 0.818314
6.084836 1.099328 0.199416
6.204886 0.888953 0.140415
6.204886 0.888953 -0.108990
6.084836 1.099328 -0.167992
6.022542 1.266284 -0.090062
6.022542 1.266284 0.121487
6.450737 0.464326 0.140415
6.607090 0.274906 0.105758
6.607090 0.274906 -0.074333
6.450737 0.464326 -0.108990
6.634183 0.168611 0.389859
6.619484 0.243400 0.290742
6.463131 0.432819 0.325399
6.509899 0.250490 0.441522
6.659443 0.232542 0.105758
6.782617 0.224187 0.074112
6.782617 0.224187 -0.042687
6.659443 0.232542 -0.074333
6.704198 0.123903 0.380074
6.824882 0.148855 0.312503
6.812673 0.190336 0.249311
6.689499 0.198692 0.280957
6.754511 -0.104566 0.387099
6.859634 -0.003422 0.318798
6.831454 0.058261 0.326880
6.710771 0.033309 0.394451
6.713485 -0.048691 0.406628
7.115778 0.144337 0.129222
7.142064 0.097867 0.066030
7.142064 0.097867 -0.034605
7.115778 0.144337 -0.097797
7.087598 0.206019 -0.105879
7.075389 0.247501 -0.042687
7.075389 0.247501 0.074112
7.087598 0.206019 0.137304
6.964780 -0.189303 0.066030
6.877165 -0.314006 0.098241
6.877165 -0.314006 -0.066817
6.964780 -0.189303 -0.034605
6.832478 -0.199019 0.348474
6.876272 -0.269048 0.249193
6.963887 -0.144345 0.216981
6.937601 -0.097875 0.280173
6.285568 -0.997503 0.054275
6.245483 -0.945409 0.079253
6.245483 -0.945409 -0.047828
6.285568 -0.997503 -0.022850
6.266124 -0.804532 0.303686
6.216505 -0.817327 0.275437
6.246351 -0.912523 0.194941
6.286436 -0.964617 0.169963
6.304638 -0.952485 0.232333
6.093784 -0.505835 0.383949
6.029984 -0.526570 0.353128
6.144466 -0.659778 0.318056
6.194085 -0.646983 0.346305
6.186127 -0.815914 0.298224
6.115222 -0.849279 0.257145
6.215973 -0.911111 0.217727
6.495789 -0.327949 0.564757
6.427836 -0.359610 0.560889
6.503292 -0.426248 0.543665
6.433016 -0.232695 0.560219
6.364100 -0.159150 0.559177
6.365063 -0.264356 0.556351
6.519672 0.107288 0.463430
6.586671 -0.067111 0.461956
6.646670 -0.056590 0.423944
6.643956 0.025409 0.411767
6.493683 -0.186626 0.553189
6.519395 -0.102889 0.522906
6.424767 -0.113081 0.552146
6.615962 -0.133812 0.462614
6.656681 -0.254261 0.447986
6.716988 -0.179166 0.405073
6.675961 -0.123291 0.424602
6.562235 -0.243701 0.542218
6.628666 -0.280414 0.497308
6.587947 -0.159965 0.511936
6.559195 -0.430854 0.533426
6.618122 -0.369268 0.509607
6.551692 -0.332555 0.554517
6.857101 -0.389903 0.098241
6.793156 -0.541840 0.128760
6.793156 -0.541840 -0.097335
6.857101 -0.389903 -0.066817
6.678747 -0.344108 0.419600
6.718903 -0.490979 0.307925
6.782848 -0.339043 0.277406
6.739054 -0.269013 0.376688
6.775343 -0.784031 0.128760
6.706096 -0.982971 0.074117
6.706096 -0.982971 -0.042692
6.775343 -0.784031 -0.097335
6.452819 -1.154304 0.074117
6.378916 -1.145205 0.136487
6.326809 -1.147606 0.116645
6.308607 -1.159738 0.054275
6.308607 -1.159738 -0.022850
6.326809 -1.147606 -0.085220
6.378916 -1.145205 -0.105062
6.452819 -1.154304 -0.042692
6.410482 -0.946575 0.323596
6.413185 -0.775547 0.410011
6.319861 -0.801022 0.375108
6.358376 -0.948975 0.303754
6.656216 -0.753043 0.303973
6.515768 -0.771855 0.398116
6.513065 -0.942883 0.311701
6.586968 -0.951982 0.249331
6.559578 -0.504188 0.475112
6.518213 -0.608286 0.433759
6.658661 -0.589473 0.339617
6.618505 -0.442602 0.451293
6.391636 -0.417286 0.516207
6.309175 -0.446748 0.497949
6.425727 -0.588021 0.457630
6.467093 -0.483923 0.498983
6.208351 -0.462511 0.491259
6.131279 -0.488112 0.453681
6.231580 -0.629259 0.416037
6.324903 -0.603784 0.450941
5.436323 -0.027009 0.515065
5.499944 0.012942 0.544663
5.327752 0.141209 0.609003
5.289872 0.099226 0.589180
5.971472 -0.394839 0.425803
5.776767 -0.213999 0.483344
5.713146 -0.253949 0.453746
5.907671 -0.415573 0.394982
6.089780 -0.338230 0.516431
5.966284 -0.051178 0.572335
5.818004 -0.182990 0.536394
6.012709 -0.363830 0.478853
6.300010 -0.165654 0.558357
6.095015 -0.013271 0.593177
6.218511 -0.300323 0.537273
6.300972 -0.270861 0.555532
6.416557 0.152013 0.514136
6.183933 0.119806 0.576723
6.388928 -0.032577 0.541903
6.483556 -0.022386 0.512662
5.934696 0.735526 0.682268
6.020084 0.464262 0.632950
6.252708 0.496470 0.570363
6.205941 0.678799 0.454241
6.085891 0.889175 0.513242
6.075834 0.899451 0.641520
6.020350 0.893753 0.696662
5.954019 0.826483 0.697247
5.551024 0.745196 0.811049
5.481945 0.593598 0.834250
5.786283 0.393318 0.685873
5.700895 0.664582 0.735191
5.130258 0.877397 1.062404
5.303726 0.729613 0.969288
5.372806 0.881211 0.946086
5.250915 0.983227 1.011918
5.400831 0.410245 0.822533
5.290869 0.292864 0.821009
5.384698 0.206420 0.702556
5.556890 0.078153 0.638215
5.705170 0.209965 0.674155
4.899528 0.601207 1.121729
5.106671 0.500007 1.049565
5.216632 0.617387 1.051089
5.043164 0.765171 1.144204
4.293801 0.301603 0.816073
4.470041 0.315478 0.873736
4.533404 0.478551 0.979782
4.310337 0.602203 0.977734
4.194468 0.473876 0.887645
4.405345 0.066080 0.605822
4.581425 0.041869 0.642703
4.517875 0.178049 0.755913
4.341636 0.164173 0.698250
5.149275 0.278997 0.844902
5.074152 0.142536 0.771141
5.205224 0.150571 0.706625
5.243104 0.192553 0.726448
4.706119 0.278057 0.915613
4.901503 0.203468 0.875736
4.976626 0.339930 0.949496
4.769483 0.441130 1.021660
4.728901 0.009053 0.735442
4.860735 0.070643 0.808773
4.665351 0.145232 0.848651
5.102107 0.030456 0.687780
5.271246 -0.141580 0.551000
5.379629 -0.087744 0.549148
5.233178 0.038491 0.623264
4.989776 -0.231429 0.534812
5.133715 -0.219008 0.563402
4.964575 -0.046972 0.700182
4.832741 -0.108562 0.626850
5.505158 -0.310631 0.449727
5.702507 -0.455038 0.367184
5.808066 -0.418419 0.389111
5.613541 -0.256794 0.447875
5.847560 -0.594548 0.336574
5.996697 -0.724501 0.282349
6.067602 -0.691136 0.323428
5.953120 -0.557928 0.358500
6.044911 -0.914852 0.118670
5.964822 -0.925825 0.052272
5.964822 -0.925825 -0.020847
6.044911 -0.914852 -0.087246
6.145662 -0.976684 -0.047828
6.145662 -0.976684 0.079253
5.779696 -0.804903 0.052272
5.622436 -0.704765 0.083403
5.622436 -0.704765 -0.051978
5.779696 -0.804903 -0.020847
5.741493 -0.632485 0.282574
5.653280 -0.673274 0.193082
5.810540 -0.773411 0.161951
5.890629 -0.762438 0.228349
5.398353 -0.589549 0.083403
5.122037 -0.483753 0.097072
5.122037 -0.483753 -0.065647
5.398353 -0.589549 -0.051978
5.221519 -0.397388 0.387931
5.198277 -0.464367 0.258156
5.474594 -0.570163 0.244487
5.562807 -0.529375 0.333979
5.365458 -0.384968 0.416522
4.759306 -0.438435 0.097072
4.394422 -0.331508 0.134477
4.394422 -0.331508 -0.103053
4.759306 -0.438435 -0.065647
4.548638 -0.090769 0.446360
4.493628 -0.197897 0.298833
4.858512 -0.304825 0.261428
4.881753 -0.237846 0.391202
4.724719 -0.114980 0.483241
3.709545 -0.118633 0.496574
4.085365 -0.066639 0.445182
4.140376 0.040489 0.592709
4.076667 0.138582 0.685137
3.977333 0.310855 0.756709
3.719482 0.346536 0.864343
3.660927 0.002173 0.769656
4.045642 -0.239916 0.134477
3.669822 -0.291910 0.185870
3.669822 -0.291910 -0.154445
4.045642 -0.239916 -0.103053
7.252017 0.250595 0.039913
7.239375 0.272946 0.070306
7.225821 0.302613 0.074194
7.219949 0.322564 0.043801
7.219949 0.322564 -0.012376
7.225821 0.302613 -0.042769
7.239375 0.272946 -0.038881
7.252017 0.250595 -0.008488