515 198
359 389
305 301
424 261
439 255
526 344
415 486
325 217
406 316
228 234
263 191
336 232
440 105
317 399
517 306
491 317
393 495
107 311
354 189
197 146
353 392
380 545
411 517
242 182
335 166
281 70
258 380
32 503
176 106
295 273
500 342
510 321
475 298
253 204
301 209
43 527
371 93
258 231
211 203
440 124
212 207
299 557
248 639
384 537
98 496
505 329
260 208
375 228
437 115
492 276
401 519
433 340
270 551
222 147
164 104
290 218
386 518
402 110
202 205
292 294
353 249
204 80
419 182
417 516
521 360
311 639
344 152
189 299
170 144
159 151
484 346
245 249
174 152
237 185
379 132
292 537
354 154
273 267
245 192
216 325
458 549
85 457
284 530
99 498
94 369
194 213
163 322
213 149
401 333
214 81
108 485
402 599
518 299
401 228
296 226
190 332
132 479
255 640
423 274
235 236
273 166
417 104
396 86
472 289
274 291
512 316
222 309
469 344
366 615
388 231
192 301
166 151
406 144
162 327
226 242
248 538
145 580
216 117
197 166
433 343
321 161
64 555
109 595
334 444
276 572
386 148
531 305
351 226
62 338
395 541
321 421
376 383
402 112
176 94
365 239
196 162
312 218
343 190
342 443
308 191
340 446
553 302
163 324
30 253
469 360
403 104
264 206
549 353
363 438
185 201
188 135
357 429
366 325
198 637
434 330
154 150
232 247
208 221
434 279
336 440
107 321
339 434
380 296
521 307
99 151
199 306
271 217
391 170
431 134
274 169
287 263
85 481
181 296
415 96
258 70
305 250
179 125
435 110
553 294
241 261
370 409
342 314
443 290
373 410
368 433
73 563
434 100
275 352
360 406
472 338
280 270
311 62
120 449
320 634
104 367
202 359
191 303
200 110
238 252
532 280
83 163
85 330
505 318
106 339
344 192
331 290
251 222
242 228
197 340
295 231
98 314
227 175
198 495
280 215
301 317
395 288
216 116
306 179
370 250
410 113
404 224
392 347
280 208
525 276
385 134
371 342
297 271
299 564
441 316
249 228
412 221
173 133
399 518
176 328
357 379
467 144
488 273
337 175
299 284
200 153
353 88
13 291
241 266
190 509
407 177
352 286
276 197
490 304
272 217
76 177
350 74
300 237
416 489
29 494
534 286
221 304
222 176
524 460
108 351
74 323
356 159
222 217
128 496
66 331
10 298
289 240
550 347
432 189
419 139
201 160
304 569
359 435
276 561
303 236
458 308
524 286
269 363
98 319
113 493
255 538
161 100
408 322
130 456
274 221
263 585
203 115
498 299
331 424
512 327
516 306
230 175
437 159
325 285
338 262
462 328
136 461
443 126
355 396
415 133
200 296
69 330
85 458
391 292
117 133
118 453
415 148
360 247
469 326
234 316
205 640
488 340
398 486
259 176
493 505
421 169
552 357
404 542
231 103
297 236
409 305
285 549
434 110
373 272
481 310
116 466
490 509
376 154
465 279
410 494
368 413
318 259
253 175
313 197
190 303
371 119
283 581
398 128
408 321
327 257
426 244
113 506
336 241
431 279
81 317
507 274
19 473
396 136
381 92
177 187
427 206
65 551
251 552
419 171
540 271
110 483
343 257
356 192
372 417
113 598
361 198
290 641
377 317
216 102
399 501
394 220
375 240
442 274
364 430
263 252
438 254
267 372
244 130
539 411
450 142
355 372
216 216
173 173
219 147
308 297
200 291
394 279
183 111
296 638
310 70
355 387
105 466
431 258
374 119
202 201
534 275
332 412
395 506
491 156
210 233
187 306
179 101
445 131
193 341
384 395
485 311
92 316
505 306
218 636
117 339
388 538
318 272
312 197
117 434
475 307
548 388
312 636
406 515
209 214
407 273
164 314
186 326
222 211
210 311
136 609
550 358
296 200
249 560
451 314
427 349
233 83
381 428
135 614
211 468
118 451
341 176
106 453
374 192
277 160
331 327
340 212
512 297
215 200
378 237
118 339
288 533
431 269
446 332
542 279
317 204
101 457
473 138
547 353
413 495
516 350
180 154
535 318
41 234
385 286
431 227
378 492
312 251
393 83
76 564
372 256
5 359
219 218
278 536
525 352
371 382
378 97
271 69
390 331
411 101
270 237
353 272
179 160
389 282
385 264
419 516
205 216
206 148
186 202
437 275
219 311
250 645
296 269
449 269
217 150
398 170
432 198
382 492
421 224
521 286
400 101
66 343
438 326
275 577
185 313
484 307
317 201
402 122
345 168
226 341
113 445
374 104
317 409
418 324
232 642
227 304
165 179
210 330
300 291
528 305
400 171
460 143
315 70
384 270
377 299
93 153
146 117
230 318
369 143
202 332
330 196
344 244
220 231
371 619
389 290
370 302
395 87
513 303
283 208
401 156
304 237
261 219
43 524
349 321
332 252
233 163
217 349
247 207
319 280
208 235
204 186
415 153
166 138
292 204
331 391
399 289
69 334
453 159
251 190
413 589
466 320
367 130
322 433
529 228
355 401
239 151
9 444
349 221
370 403
329 428
431 328
447 120
204 361
410 94
439 343
535 283
351 201
241 255
338 191
85 331
129 612
147 119
395 350
226 181
174 150
417 160
368 432
313 223
414 115
320 277
358 282
362 130
216 304
440 163
469 136
334 170
143 614
269 271
42 522
408 167
199 95
427 503
376 394
272 285
185 210
348 179
323 252
43 526
203 162
362 295
426 182
327 283
327 290
401 480
297 182
237 644
315 226
388 97
184 97
294 196
187 193
260 189
231 251
175 147
327 306
99 470
395 545
193 494
335 163
98 495
494 306
463 287
421 187
173 303
120 456
99 479
229 432
291 248
402 600
314 286
369 276
184 123
430 190
380 191
417 314
369 424
344 410
67 329
217 93
413 236
325 389
477 291
106 337
353 92
267 253
530 274
355 618
176 307
320 406
388 257
536 228
264 645
338 286
517 273
430 330
390 119
241 576
387 529
549 363
516 361
306 247
513 307
360 405
211 290
333 163
349 225
396 486
113 453
43 231
75 304
401 304
29 257
360 192
327 414
386 248
105 327
456 158
450 330
97 159
50 216
146 121
457 552
60 349
503 175
412 155
471 290
285 227
362 201
310 293
78 363
80 317
415 499
370 210
238 229
160 145
195 361
224 305
3 358
254 75
207 141
542 266
201 338
389 285
392 215
244 126
10 427
156 117
418 209
370 428
311 241
390 299
420 309
171 314
391 116
426 165
429 327
351 376
310 258
308 250
234 246
208 160
513 482
339 254
394 128
501 494
354 238
375 217
252 543
402 117
398 210
269 72
377 153
210 115
201 354
225 340
309 208
401 488
213 303
212 147
116 345
263 536
468 348
371 98
500 331
263 545
398 293
359 411
407 292
276 281
263 539
440 317
366 149
169 97
274 186
287 581
103 152
349 158
412 334
109 438
183 348
159 116
407 478
325 273
333 247
115 463
274 238
99 369
284 578
404 278
496 348
350 194
259 256
53 542
7 429
325 292
428 121
431 104
70 361
446 151
367 75
168 536
488 291
156 142
191 305
214 344
326 411
323 305
250 134
244 186
442 267
242 214
354 431
475 296
406 178
369 388
180 126
440 249
371 381
409 112
70 564
247 196
523 259
462 339
392 178
416 338
366 431
233 224
154 623
309 636
412 290
511 297
227 327
429 283
201 287
210 187
299 246
338 233
158 106
210 286
111 471
426 499
413 229
496 349
410 483
446 261
154 625
493 354
527 328
348 427
443 122
374 414
379 97
427 182
116 487
359 288
67 561
338 328
99 357
314 194
246 136
444 156
327 251
470 345
370 240
214 77
345 264
388 229
301 204
151 129
124 469
48 224
466 549
157 556
253 76
466 159
342 416
308 232
139 477
122 337
246 97
193 503
525 261
329 177
523 197
419 120
212 106
233 319
217 199
339 184
473 357
172 102
217 307
383 415
335 170
100 314
260 163
134 482
387 264
319 187
368 393
319 198
339 267
327 250
265 556
430 191
250 145
227 228
336 302
193 304
493 161
392 322
237 421
238 241
234 211
262 229
445 328
421 291
223 171
414 255
428 349
139 485
246 235
351 189
340 69
546 310
168 305
226 173
305 545
107 354
485 148
91 353
197 106
420 520
447 312
223 308
259 551
223 340
218 304
432 356
390 258
369 264
160 161
230 158
192 147
171 304
210 224
397 224
521 260
299 547
240 641
10 335
174 165
212 299
420 285
124 128
328 218
326 409
278 248
239 249
396 110
291 198
477 347
341 175
88 580
75 315
109 145
398 344
236 319
41 523
391 186
255 230
464 333
186 171
264 239
359 283
86 298
398 484
231 345
163 629
434 239
515 344
424 141
266 226
46 221
211 200
247 71
427 112
198 296
288 257
297 298
191 128
394 313
179 107
394 496
385 400
126 128
149 120
221 217
249 143
209 166
290 296
307 556
143 589
347 144
232 553
338 238
196 218
360 325
397 337
355 395
328 431
418 524
376 436
278 548
320 414
324 276
150 579
392 146
536 347
186 320
438 244
359 621
