507 99
429 434
913 1160
384 337
199 169
934 902
481 543
1011 371
738 545
321 37
567 354
975 373
494 161
887 229
862 371
249 461
586 584
786 897
871 1182
793 1177
680 503
1146 817
917 1159
210 239
268 396
942 702
986 485
739 265
919 900
281 164
1030 906
692 676
266 474
775 972
655 425
906 557
518 590
427 102
924 935
956 1038
507 268
734 1001
624 634
335 582
1023 531
934 785
327 479
585 581
1176 617
1048 800
800 382
860 234
874 725
502 112
781 122
870 609
135 365
763 520
200 530
269 320
726 720
694 709
209 120
861 933
1153 725
826 272
829 959
885 1095
777 580
492 495
303 37
927 884
781 319
1040 657
391 555
888 1200
10 162
811 603
682 457
480 438
337 661
902 220
698 335
758 263
1108 882
1031 857
204 393
892 464
113 115
233 234
210 492
1072 727
229 335
866 799
108 62
478 654
1027 275
665 1109
792 469
1050 634
195 124
382 598
597 215
1232 673
237 152
459 651
855 502
981 423
403 410
999 284
211 210
722 254
90 78
674 1096
753 485
407 197
729 1253
448 710
97 115
906 831
337 589
99 256
331 452
62 272
574 710
225 314
538 418
874 97
308 225
394 48
744 273
898 528
530 353
826 556
542 288
911 47
865 1066
1017 795
386 461
413 529
815 216
1099 874
288 137
179 345
581 166
250 396
1218 662
941 380
237 176
336 271
728 188
296 199
1210 677
1108 566
666 403
741 949
763 143
769 219
638 466
180 556
769 906
744 950
888 1233
935 82
1004 621
760 1005
1046 758
676 1153
359 506
160 365
487 440
976 914
201 130
193 315
957 775
807 888
735 535
1128 822
463 364
542 330
486 216
417 366
644 524
794 129
856 142
372 406
1046 389
1080 693
170 247
835 991
716 1001
867 177
98 275
836 400
1175 599
725 197
398 398
133 306
680 296
208 235
727 1062
322 263
251 542
1033 432
867 377
1035 855
343 493
943 894
858 364
470 560
564 552
1007 314
784 441
463 634
974 36
877 1140
250 323
818 382
140 272
119 244
863 501
1094 636
785 301
398 244
466 245
922 962
714 1029
761 1203
854 543
453 412
954 32
660 560
827 500
954 1002
905 514
770 869
1016 525
990 475
803 1060
1189 652
916 1051
391 228
902 953
518 592
629 426
443 106
694 579
304 406
788 842
882 1190
545 34
839 1096
116 217
426 176
902 303
1003 904
778 1149
322 244
917 458
338 73
513 224
829 679
900 967
1140 620
444 509
348 77
1153 737
1070 782
98 151
465 168
484 248
227 467
969 759
322 554
901 451
555 61
902 369
192 423
771 1243
824 716
879 779
891 417
621 461
756 390
966 781
674 628
407 444
925 429
715 501
1039 718
1130 773
910 425
134 153
800 652
555 584
344 577
351 80
981 560
155 302
193 562
540 541
413 497
520 551
494 729
952 888
764 146
37 284
416 375
307 641
920 933
318 445
523 411
150 483
872 546
870 146
133 219
1021 706
604 547
702 571
892 735
677 400
715 1156
826 716
367 623
226 73
390 59
592 326
478 140
862 850
157 352
603 260
776 884
876 522
774 503
902 941
366 629
563 451
776 431
530 144
177 113
348 350
747 1177
755 140
284 24
1040 857
1044 388
462 82
529 208
343 276
723 353
310 129
399 594
365 435
313 491
723 583
747 165
915 853
1025 498
642 452
453 519
377 501
664 209
1050 361
868 1058
1007 266
871 806
586 178
706 599
537 726
1014 793
368 88
874 310
189 568
292 135
651 611
1184 587
804 277
42 209
307 100
771 240
795 803
674 457
787 641
124 207
288 198
949 968
842 805
912 1103
1038 825
533 316
735 1241
1009 551
590 203
904 590
246 350
813 161
972 914
424 111
343 332
871 1003
400 678
781 1149
828 555
844 123
957 746
375 604
815 1166
347 145
608 445
949 137
289 229
505 653
927 205
879 235
861 1003
295 203
602 217
445 465
974 805
546 382
530 495
888 603
908 413
1023 709
330 388
481 313
537 158
432 20
304 114
472 328
804 402
686 333
108 365
476 137
204 209
462 169
144 530
320 336
992 365
872 205
88 92
126 137
627 520
615 304
770 476
756 1226
503 458
1065 685
217 269
668 557
1054 565
207 587
895 974
994 751
465 403
504 108
969 768
82 210
355 513
1076 596
144 315
509 498
921 545
1099 683
68 241
1086 574
168 74
915 786
964 1023
892 626
623 670
703 216
636 486
590 264
528 11
754 333
370 720
406 569
1090 706
743 223
505 12
824 92
942 551
842 1231
1131 773
436 579
739 988
167 191
768 332
336 286
592 202
633 132
280 347
402 664
411 157
623 175
568 164
1183 705
548 533
738 707
914 822
1029 391
249 498
101 339
781 782
945 150
607 204
772 290
270 579
801 286
1201 719
302 281
216 612
478 238
305 498
375 444
637 457
316 237
998 546
204 114
801 820
440 443
924 886
605 381
714 166
676 192
615 252
135 297
857 839
744 1170
991 812
897 1009
636 120
160 242
862 123
235 67
907 675
843 898
318 648
1122 571
956 934
1033 58
928 72
690 1075
343 238
491 161
670 145
252 35
190 469
982 237
294 555
826 959
814 1068
1055 768
875 1005
339 86
589 412
288 313
626 149
954 1038
104 84
1024 361
748 202
861 1074
986 668
836 844
793 497
1039 544
915 352
382 669
914 1010
816 132
477 312
582 440
1184 718
802 661
954 265
58 149
825 627
978 309
854 348
76 175
220 520
228 52
1037 59
1174 651
1140 755
886 146
571 313
1045 403
950 698
1114 867
866 599
1005 51
292 396
405 282
76 186
158 422
38 191
210 145
140 277
109 191
650 362
685 1101
883 1228
351 362
365 554
773 143
932 222
977 517
418 524
323 559
106 437
716 612
336 120
543 261
52 146
916 744
312 69
639 268
1010 896
766 449
288 389
771 194
311 522
572 252
297 133
694 233
843 962
751 476
875 573
799 441
875 406
738 343
873 912
300 509
510 408
777 845
906 1156
909 573
921 845
467 217
384 390
1035 282
623 409
355 386
879 993
1033 558
317 63
821 973
870 419
692 305
939 377
606 631
509 187
396 70
874 212
836 980
239 229
1066 435
484 99
225 523
821 983
722 157
520 149
457 642
294 175
440 663
1002 872
240 310
287 605
815 719
477 14
468 16
312 359
899 133
488 535
628 692
1056 568
417 722
895 1246
143 272
961 1107
315 632
1161 717
201 493
605 464
980 372
228 370
169 143
724 417
986 524
1038 829
189 120
505 404
968 882
187 467
623 661
696 286
483 347
676 247
819 1061
901 52
736 258
494 395
941 866
410 158
337 394
803 726
1033 726
929 800
891 1096
599 387
559 592
213 288
1070 682
368 564
284 496
80 117
885 371
959 947
899 401
454 364
376 668
684 206
1042 888
119 88
295 469
1018 638
254 384
754 1119
536 11
541 304
137 192
994 407
607 570
659 428
899 594
477 205
408 23
983 478
1055 486
1122 613
299 607
483 732
677 440
92 235
132 492
845 295
297 398
686 502
806 526
124 332
282 305
844 651
605 117
848 1228
922 417
694 393
1020 811
345 528
808 521
885 506
1012 636
384 484
404 645
530 127
980 107
629 151
117 219
392 565
820 869
806 308
323 38
786 495
766 509
317 102
1051 600
653 585
752 1004
948 584
882 1073
912 1217
201 142
134 177
839 755
933 1031
904 151
586 155
970 92
934 672
26 241
142 508
1117 737
216 590
761 610
578 248
984 95
907 596
307 537
94 317
938 784
538 175
401 706
674 510
896 1039
962 928
393 592
581 723
674 621
342 307
307 623
950 486
400 497
807 998
480 215
868 1023
857 523
220 156
967 537
735 478
606 261
329 85
1019 560
777 102
585 372
417 372
718 367
481 509
553 151
396 724
146 231
256 559
509 520
961 629
487 716
912 810
887 1136
1056 678
42 270
409 595
1165 678
1115 824
679 229
497 104
976 1034
625 326
469 489
192 469
161 328
448 22
835 884
590 31
867 279
744 160
852 736
492 202
588 153
335 488
362 208
81 234
753 269
179 241
216 532
742 1094
414 230
565 349
475 589
190 217
179 292
535 511
668 1165
654 581
889 791
1102 727
573 312
370 91
404 24
844 778
792 1036
839 1072
252 130
699 327
238 644
140 402
498 207
965 612
652 153
893 1124
448 45
199 427
1016 411
472 467
743 701
1063 598
742 1125
946 444
958 582
255 237
820 142
103 221
846 968
49 122
939 622
815 430
288 411
571 623
1012 244
985 723
650 367
384 527
1008 63
932 1074
262 179
1038 750
140 171
414 65
94 387
889 560
447 480
1034 459
477 130
759 927
117 376
1052 476
570 424
468 671
166 494
261 472
910 163
247 138
947 512
369 420
158 215
1054 618
846 757
681 1044
886 465
998 760
794 369
608 601
1020 804
408 413
565 636
634 371
835 881
1099 846
844 974
656 399
996 701
846 476
480 737
810 229
667 369
480 351
250 506
506 472
345 584
784 569
779 317
405 653
274 430
581 85
661 442
448 666
817 809
884 653
1126 639
380 139
866 846
840 392
692 421
1139 751
632 371
152 104
173 159
753 503
283 326
387 612
833 1070
996 504
1051 398
1180 650
1015 371
839 131
319 626
925 378
936 443
453 361
336 35
529 223
978 672
476 542
366 133
941 411
620 283
103 390
735 1136
489 635
177 575
1083 686
1039 462
431 245
964 381
692 1136
677 1056
599 70
365 473
694 541
441 285
922 416
303 453
495 675
314 59
862 433
135 425
318 176
378 279
630 599
774 206
905 292
162 557
550 230
482 311
485 637
1045 848
578 102
704 640
755 710
1017 367
510 537
659 290
1217 706
175 367
942 956
929 268
1040 627
306 582
675 214
111 152
347 436
856 701
827 447
785 1054
729 1121
884 1158
462 328
387 520
273 226
1000 573
1158 680
769 932
211 106
877 1079
562 264
313 672
1171 718
674 282
925 66
816 305
348 388
465 153
982 605
346 593
510 145
958 931
992 348
896 972
872 1178
817 505
243 613
651 380
883 603
274 257
875 517
913 815
255 459
124 420
874 91
864 979
397 324
518 476
938 850
611 354
774 934
898 1216
680 1089
1033 917
859 405
394 636
869 174
746 1051
922 634
428 723
744 560
445 706
814 502
954 312
996 845
331 31
131 311
605 637
632 416
541 504
113 270
728 1136
113 441
391 681
872 380
134 251
645 338
578 268
817 549
581 81
769 713
796 363
456 153
393 309
496 705
126 378
185 515
494 387
472 227
673 472
906 587
546 266
701 712
556 183
978 236
373 668
731 542
1004 766
1024 474
1150 675
789 567
1131 651
869 969
758 1222
534 491
383 508
576 442
512 473
810 794
165 565
824 756
845 851
491 354
1002 579
784 1111
760 1035
478 76
709 365
1041 81
570 140
929 415
1032 641
264 629
426 255
679 693
390 473
366 163
679 1216
314 154
49 113
148 474
831 179
520 318
1024 762
846 1060
1062 397
407 147
1033 630
718 555
823 650
483 502
896 1182
746 1244
809 424
607 625
386 530
416 57
125 292
667 310
753 1157
1127 756
822 808
874 712
556 325
747 1065
898 599
1062 648
661 330
190 323
139 358
1027 373
1121 625
672 380
604 658
593 410
788 131
441 481
901 126
1005 880
933 647
947 1052
243 38
701 1159
538 67
217 248
519 649
259 360
801 284
281 508
338 243
882 1102
899 479
231 108
531 15
759 1059
747 1095
537 603
845 101
938 371
1154 755
816 486
285 516
930 949
744 157
810 381
550 51
1067 699
761 672
988 601
595 597
1052 473
901 818
766 249
1132 715
277 650
926 212
593 460
725 336
412 326
570 663
375 404
95 186
774 1025
637 456
934 335
1071 789
124 341
781 884
263 459
865 188
296 374
298 134
852 647
238 97
603 481
697 556
1042 787
352 500
769 845
244 265
734 991
1007 517
325 221
78 227
602 247
892 289
259 352
897 625
1076 685
204 343
903 530
724 419
744 281
1171 777
452 122
808 983
499 359
1203 731
565 682
39 172
362 303
895 1221
761 227
732 445
594 193
279 227
381 572
748 194
657 241
288 608
545 447
900 265
809 1004
945 376
1088 568
1056 606
493 279
746 231
71 211
668 588
885 1059
369 102
184 155
803 936
430 131
514 148
628 476
406 49
315 122
344 701
694 521
854 728
479 286
652 501
404 435
698 519
304 316
883 830
477 320
1022 745
909 1089
1065 868
514 735
446 173
568 366
653 521
636 161
69 252
893 1007
32 193
847 733
776 794
258 617
590 390
254 302
85 182
793 202
1015 298
819 247
407 236
584 89
1143 605
334 25
733 674
911 1196
793 186
782 1007
931 708
787 1149
1033 746
431 263
52 169
356 367
785 716
671 224
500 629
1041 563
81 232
785 483
997 760
541 287
284 273
551 443
749 943
180 453
539 175
118 502
182 467
575 80
27 251
328 264
405 444
199 232
1087 628
495 255
644 272
462 474
828 783
486 340
672 135
575 484
904 349
530 506
945 832
948 378
442 76
910 92
801 1082
845 1054
893 231
968 859
891 428
576 252
721 1198
1035 347
249 59
960 800
1009 68
382 225
650 343
1045 406
934 526
149 404
470 661
732 621
785 293
793 681
189 351
363 441
266 94
389 386
344 38
748 1001
881 192
419 70
265 354
384 387
991 866
1001 676
752 1093
819 1015
997 264
655 537
1004 900
284 263
253 322
443 141
1007 778
976 817
953 651
319 579
492 11
696 512
854 782
254 387
1123 651
1012 904
620 115
516 439
576 187
796 725
118 277
402 361
333 116
1029 847
567 692
795 339
613 478
1060 853
1126 664
1042 519
427 11
633 201
843 1039
101 148
571 537
183 133
281 503
831 282
741 658
259 297
610 36
279 328
976 462
727 369
884 687
1019 853
125 103
1030 657
407 591
992 735
517 491
911 1102
622 668
846 140
358 481
940 961
887 200
968 573
218 590
329 358
942 1028
505 337
960 467
882 353
755 242
925 1031
940 559
984 858
724 229
263 435
507 73
1186 635
847 613
702 456
898 963
861 245
764 402
413 33
361 261
493 37
70 93
775 501
787 1036
1068 894
981 1047
657 603
738 956
709 158
831 791
550 271
861 326
447 194
19 172
825 197
607 278
1019 430
321 480
875 476
184 55
889 537
451 499
379 562
622 383
823 805
884 535
244 189
831 1088
386 574
249 358
354 195
835 980
436 435
1078 897
181 426
816 865
835 147
945 587
1087 742
807 670
794 779
855 674
723 587
537 657
986 847
852 1245
559 411
388 48
627 389
467 504
190 264
1017 553
311 155
352 293
820 497
863 964
643 372
555 159
829 948
349 160
134 430
786 979
982 1012
967 946
795 948
421 656
82 95
840 109
888 679
362 313
627 316
328 306
643 570
1011 52
869 717
759 146
835 815
1089 594
837 756
1056 451
1143 765
139 124
1007 274
838 453
742 381
583 655
600 605
176 459
798 836
609 283
352 383
264 376
835 467
877 815
870 556
970 861
180 516
813 573
915 789
707 302
764 987
957 925
838 1178
757 334
810 1067
976 850
506 488
980 246
443 644
468 547
521 223
406 565
1109 676
676 1080
663 508
669 175
560 165
292 527
148 83
42 154
641 677
1022 908
174 107
956 972
675 313
831 654
436 208
684 1239
837 1021
254 135
808 960
828 482
317 189
874 1021
859 1144
662 215
535 10
585 580
496 677
909 970
311 403
502 582
682 1112
696 1049
746 663
553 343
511 94
668 1167
957 486
930 814
982 296
902 213
523 644
1168 786
564 602
997 880
579 41
390 236
627 656
493 360
1180 706
408 432
872 741
525 547
1104 810
486 125
170 255
560 659
1076 750
176 164
356 187
915 1204
354 16
198 395
872 197
200 197
498 290
884 1181
597 588
724 703
585 540
926 99
856 732
831 423
613 422
812 339
940 295
179 410
344 353
159 505
673 269
350 639
896 42
701 574
320 28
708 193
777 891
577 231
555 225
630 633
384 511
412 144
238 95
756 214
730 1173
1018 415
899 461
777 1163
1200 735
457 222
409 268
528 709
1035 58
601 266
620 708
216 557
674 295
154 291
1055 905
242 232
1027 543
1144 574
783 919
732 696
1096 640
864 852
788 191
886 614
198 386
904 930
927 740
1019 304
673 542
277 57
934 166
1017 833
683 523
361 393
360 490
883 1158
907 47
429 102
992 631
875 239
915 830
313 28
274 628
407 377
440 495
873 1096
144 281
771 1143
860 577
728 260
135 227
1122 843
603 369
715 293
550 533
138 456
765 819
656 606
1002 851
500 199
978 546
329 699
579 147
814 988
844 1150
353 505
496 442
835 275
813 463
916 976
943 908
487 278
981 418
465 719
992 757
774 194
219 420
615 336
978 710
863 1239
359 346
861 230
1041 745
228 381
700 1032
370 409
927 411
262 219
531 318
962 981
249 241
666 1239
298 587
992 551
344 272
864 1078
1042 499
827 209
943 915
950 717
1093 622
814 729
417 191
60 115
1094 604
796 109
667 494
478 653
898 166
832 352
498 534
786 520
546 202
318 621
1024 339
388 237
90 169
740 1064
513 660
719 727
905 914
856 1100
1008 241
448 187
827 377
881 332
750 372
1070 713
745 257
809 692
697 306
991 275
772 170
959 651
143 122
707 519
794 180
891 307
773 963
1015 754
562 642
341 41
735 1123
124 229
597 559
856 293
930 223
1173 579
876 219
464 314
697 1085
612 31
312 391
849 828
537 676
896 1215
714 601
623 391
1087 583
894 1224
506 166
937 542
805 833
776 543
501 604
959 1111
267 265
853 99
221 130
555 203
841 286
933 316
60 266
493 681
790 1190
938 389
826 784
749 607
574 77
833 1120
349 278
488 399
597 128
579 257
576 467
313 262
485 44
910 964
884 1043
658 198
360 27
834 175
341 341
711 168
799 793
501 715
277 26
600 293
704 1080
351 97
698 339
707 1226
382 144
914 777
1039 466
761 187
249 290
671 1199
503 529
416 302
143 96
179 215
192 214
1075 744
788 770
798 206
134 375
813 528
328 625
883 126
1188 682
580 224
1026 259
614 195
1164 681
365 15
1053 471
694 1103
837 536
762 250
309 256
507 106
904 953
440 347
770 271
1082 694
1035 566
935 412
671 616
223 265
742 1127
520 207
501 111
476 97
695 445
1037 687
994 872
279 568
972 480
832 607
331 515
588 664
142 90
779 796
554 694
659 640
867 439
712 477
1011 82
809 371
1137 687
746 165
597 130
606 594
887 1175
729 729
1136 647
372 261
576 526
682 1036
275 267
500 553
364 714
874 501
681 1097
409 113
411 153
248 496
322 55
263 415
733 381
581 257
460 613
821 1144
891 1026
45 134
958 701
121 491
1050 908
329 28
851 228
555 473
467 428
223 56
246 391
383 69
23 151
143 212
1138 686
701 1055
910 1134
791 799
821 445
931 875
905 503
864 1038
299 503
927 1194
142 208
822 1087
924 467
446 707
968 996
1041 344
309 359
853 484
756 152
1072 775
1088 726
857 939
373 672
721 1044
874 1085
709 147
771 592
457 158
273 130
744 691
775 405
530 531
504 207
490 576
855 1017
657 131
861 959
1010 687
555 568
56 160
713 1090
573 301
849 598
169 271
633 578
371 290
1083 736
538 228
789 758
185 567
106 257
868 827
207 151
437 325
658 504
552 233
240 269
168 294
1048 902
212 72
1147 663
791 866
796 1193
863 91
269 465
1195 695
675 461
864 1002
510 463
806 1183
931 489
1001 709
499 676
399 581
939 712
1147 807
737 1015
864 1249
975 1047
1029 372
1110 847
57 171
1109 780
602 361
517 99
792 149
1098 677
343 83
188 491
707 1148
780 503
494 205
285 319
519 31
73 238
868 173
294 319
246 511
368 342
1026 685
959 281
504 211
870 82
474 599
36 145
925 165
593 70
885 348
460 727
482 304
613 707
935 569
912 958
230 151
712 482
594 636
466 389
110 232
451 68
791 423
995 924
729 629
468 429
769 765
192 527
628 271
265 128
1236 655
191 168
590 619
1219 683
715 525
477 563
194 461
408 469
733 1064
534 139
334 607
686 647
137 118
249 376
1053 897
877 440
236 68
379 115
497 674
728 180
925 837
905 610
797 142
182 294
465 267
1124 770
360 644
169 140
153 110
856 65
365 174
829 464
719 362
926 1133
547 537
910 1063
1169 696
973 118
441 556
424 649
734 461
197 515
465 667
1081 846
870 190
375 343
1041 765
279 134
571 632
565 697
482 221
971 269
533 292
798 956
654 679
338 501
1077 608
958 887
939 296
701 304
375 542
479 522
469 728
587 511
926 261
254 611
461 698
990 827
985 645
797 878
954 583
181 71
1024 392
914 294
932 607
879 967
565 420
959 254
1094 571
1032 532
490 512
673 229
1033 910
276 511
610 224
783 374
1029 647
303 683
816 664
674 547
713 1155
929 1071
1010 849
1114 563
879 797
1006 473
338 433
443 219
122 168
1115 657
350 344
889 516
956 1106
730 1259
910 1034
109 268
130 475
1023 251
890 954
396 577
1094 703
208 485
865 805
864 1047
352 31
714 1022
576 123
283 551
732 1129
777 328
521 698
805 1058
452 423
856 436
730 217
189 211
826 128
218 361
289 518
912 294
718 1014
1015 814
972 381
995 657
438 176
284 542
967 712
990 252
869 677
759 494
1088 768
421 351
338 656
339 364
241 274
780 1046
397 330
477 513
1189 722
951 1056
997 701
727 499
871 464
855 481
898 785
341 453
731 166
1033 688
465 13
610 48
782 168
835 821
796 666
661 466
791 315
476 649
312 303
129 523
829 678
284 187
780 1170
869 1012
415 391
313 503
1106 604
926 1080
650 209
419 306
957 823
1008 787
874 184
390 583
445 259
1161 655
671 1085
887 1117
475 121
429 600
361 281
919 841
344 496
659 203
107 115
982 368
634 273
431 397
737 438
657 512
192 298
456 298
989 814
443 425
773 1103
1067 753
1131 776
139 167
581 265
528 433
413 389
539 161
852 125
511 375
778 1186
868 852
221 436
446 705
806 415
441 262
138 247
704 577
262 474
208 550
517 430
281 308
880 1163
881 584
693 609
1126 787
350 598
907 747
338 447
819 336
271 75
810 102
294 162
836 65
142 536
244 271
763 1227
617 51
1177 614
814 153
499 698
1026 921
465 442
1182 778
982 757
277 502
775 521
874 548
498 656
737 267
692 1078
133 396
379 439
1113 819
332 677
752 1054
982 365
69 199
1149 780
559 453
842 654
903 217
877 1110
62 238
789 1212
339 645
812 198
463 497
715 485
1170 587
135 392
489 634
966 805
902 859
617 426
590 195
323 451
887 222
894 1039
932 237
992 324
751 215
578 173
709 142
513 250
363 165
938 939
926 1062
794 801
777 1115
834 546
941 248
651 143
292 22
770 1034
371 532
997 751
670 176
810 550
784 1108
1078 895
536 195
375 626
822 1109
1052 770
202 487
256 55
134 456
845 651
791 1107
220 388
519 134
786 1048
573 492
852 741
309 518
210 363
113 75
849 696
238 424
524 366
935 339
486 605
349 167
965 396
820 989
156 460
654 117
432 141
922 1130
995 919
653 523
1099 698
916 374
606 265
500 718
395 539
701 1014
620 573
174 436
424 614
882 242
726 1142
963 404
136 140
961 624
858 951
921 1072
1023 395
432 358
1069 661
809 211
941 532
824 1109
707 203
835 296
1151 677
485 87
868 641
140 499
278 93
1143 591
760 1014
191 235
293 340
696 697
863 450
930 79
932 603
278 61
197 474
1079 654
939 979
695 498
872 1201
1020 461
459 454
650 227
808 319
326 280
839 969
670 399
117 380
167 104
897 752
231 79
684 1186
579 411
188 249
461 82
477 555
369 159
753 504
808 1034
878 689
314 253
602 453
181 174
904 1156
865 336
844 738
1132 678
1039 66
973 324
994 775
958 1022
1006 445
778 397
494 483
890 145
339 191
799 784
585 67
1006 637
921 374
1106 891
744 1213
308 360
593 428
972 79
917 175
979 418
996 360
773 624
509 64
746 1030
334 663
914 310
990 825
34 246
601 712
1130 744
968 831
523 42
989 290
619 424
660 568
1047 584
824 442
817 1079
278 386
698 1192
1049 889
948 693
700 128
453 549
415 414
534 225
775 1108
948 396
512 593
1114 604
709 1103
43 225
427 598
921 41
260 414
783 349
738 731
935 509
711 1175
761 1192
904 138
882 175
906 812
1063 890
172 66
447 540
933 401
741 1156
418 328
623 495
298 673
788 785
805 670
745 247
706 1101
188 179
672 192
850 931
870 1210
930 624
928 921
473 227
750 158
291 303
876 804
638 249
672 232
841 752
460 723
726 974
1081 703
645 384
874 239
738 256
1185 744
645 644
50 127
755 208
779 911
173 534
774 147
745 264
689 1108
781 178
732 228
155 207
709 1149
403 194
913 161
977 959
694 324
235 103
1037 419
850 179
524 642
344 157
653 636
260 434
951 1040
515 258
947 601
946 747
448 262
332 490
805 1019
39 157
892 248
469 658
846 158
275 62
1082 724
855 930
824 238
668 1197
907 970
804 294
453 631
1029 553
749 1062
709 695
449 506
916 197
693 702
656 395
975 549
376 80
420 131
789 1113
459 287
873 403
779 457
296 166
252 582
535 689
919 162
596 370
788 1123
846 462
699 1074
858 183
422 192
220 629
669 554
460 112
866 58
678 1050
1106 739
650 615
727 533
465 390
136 241
434 639
180 341
824 879
709 1008
519 526
352 210
629 354
792 859
589 698
300 418
926 751
982 245
623 446
474 251
348 103
1193 597
993 539
445 328
664 460
59 225
249 512
576 487
227 107
909 1211
982 896
771 233
785 486
1228 666
829 171
238 271
942 270
674 676
979 31
705 440
888 821
753 1054
309 112
387 272
400 492
295 632
492 703
919 267
645 570
839 593
271 441
157 539
1048 466
949 1090
299 532
946 714
743 653
196 539
862 1220
745 309
133 135
1011 449
855 1120
867 291
448 451
904 511
612 593
829 589
1124 626
407 205
724 536
501 485
1210 620
951 234
981 70
633 383
656 481
1008 521
407 415
378 362
584 346
864 737
864 935
571 553
928 913
723 200
438 267
725 430
610 645
108 366
236 470
585 341
365 541
936 749
786 1023
552 599
262 640
487 519
243 281
814 775
611 386
188 303
1073 635
929 722
330 397
285 490
990 420
586 299
772 510
538 123
1067 762
171 431
694 1181
798 864
583 602
797 414
1010 501
865 169
410 168
881 786
715 1118
1060 870
1130 735
218 135
499 469
290 239
191 265
558 245
1140 732
596 453
560 563
366 387
846 257
651 573
845 275
245 309
811 887
999 579
1005 714
794 582
99 330
622 547
884 539
1015 330
172 308
377 509
937 146
923 636
733 739
521 163
913 1063
478 177
510 304
1137 822
766 503
206 56
690 1228
782 1165
1115 749
872 280
341 478
35 249
698 1187
829 116
269 308
807 288
563 446
818 442
677 466
690 511
211 498
389 668
1061 733
978 395
518 478
1042 368
820 943
1142 608
598 617
415 341
346 135
776 441
282 438
735 1041
914 962
135 103
548 238
617 376
1113 595
806 807
689 143
862 399
1074 791
898 820
1055 640
837 1164
758 1053
880 196
1216 710
1141 595
134 307
449 563
450 465
1059 483
350 145
142 200
614 274
299 126
910 769
437 273
981 597
468 200
160 469
128 519
1201 732
480 15
112 349
150 503
787 676
746 664
603 349
967 1016
1089 898
717 730
455 541
597 163
510 63
821 109
989 40
827 995
833 236
923 262
828 160
770 816
918 306
545 307
874 1116
983 503
870 381
946 28
362 345
794 482
923 428
695 414
668 365
605 354
749 457
581 524
429 526
150 300
969 773
456 234
1097 636
962 870
258 37
487 599
1058 413
217 57
397 29
927 494
735 172
875 784
787 125
146 330
404 648
629 246
209 558
632 228
317 573
832 787
85 219
723 551
819 838
870 1035
956 378
195 254
605 355
346 123
866 535
585 83
285 51
524 373
875 1173
866 707
1086 804
114 452
237 139
672 614
129 183
290 111
899 850
1039 341
811 504
587 236
1001 885
928 1066
627 204
208 48
