2
2.37037 4.76296
1.19259 4.44444
0.585185 3.94815
0.251852 3.11852
0.251852 2.13333
0.622222 1.14074
1.57778 0.6
2.65185 0.318519
3.93333 0.666667
4.4 1.60741
4.65185 2.57778
4.31111 3.47407
3.74815 4.17037
3.08889 4.57037
1.48148 3.68148
1.08148 3.02963
1.08889 2.2963
1.37037 1.65185
2.34815 1.27407
3.15556 1.43704
3.62222 1.91852
3.67407 2.77037
3.22222 3.37037
2.25926 3.77778
