0.8617 0.2383
0.8450 0.7967
0.4433 0.3583
0.9183 0.6350
0.3383 0.5600
0.6600 0.5267
0.7467 0.8050
0.2683 0.7800
0.2267 0.2933
0.5133 0.9117
0.0467 0.5067
0.7267 0.1217
0.9100 0.7867
0.0350 0.5983
0.5783 0.3517
0.2917 0.7033
0.6200 0.6067
0.2217 0.1000
0.5200 0.3333
0.7333 0.5167
0.3400 0.9200
0.5367 0.1233
0.6183 0.3350
0.9433 0.6500
0.3600 0.0483
0.4533 0.2900
0.5250 0.2867
0.8367 0.4550
0.5900 0.3100
0.6683 0.8183
0.6833 0.1517
0.6417 0.1250
0.6900 0.1650
0.6483 0.3933
0.5633 0.1667
0.3250 0.0250
0.0650 0.6300
0.6917 0.5783
0.8083 0.1233
0.2017 0.3383
0.1017 0.6817
0.6800 0.1200
0.6733 0.8150
0.0250 0.5483
0.8633 0.8233
0.4717 0.0400
0.4567 0.0433
0.2733 0.3150
0.8683 0.2517
0.0850 0.5967
0.6900 0.1383
0.3383 0.3800
0.8233 0.4383
0.2600 0.7167
0.6817 0.6333
0.7133 0.3950
0.8817 0.5517
0.4567 0.9333
0.4750 0.9800
0.4650 0.3233
0.5450 0.3283
0.4033 0.6150
0.0500 0.5183
0.8167 0.1800
0.8900 0.8233
0.0683 0.3767
0.6950 0.5133
0.2350 0.0917
0.5483 0.8767
0.2633 0.3233
0.8767 0.7817
0.1083 0.3717
0.5267 0.3217
0.9383 0.6867
0.9350 0.2033
0.8900 0.5233
0.5750 0.6550
0.3400 0.5567
0.4017 0.3400
0.9033 0.8033
0.0633 0.4483
0.2767 0.6883
0.0467 0.5567
0.6283 0.7433
0.5667 0.1733
0.3350 0.4217
0.3700 0.0433
0.6550 0.4117
0.5983 0.3550
0.4383 0.0250
0.5717 0.9417
0.2533 0.8317
0.2683 0.1017
0.4017 0.3017
0.1233 0.6667
0.6650 0.1450
0.6433 0.1383
0.3617 0.3367
0.0967 0.3517
0.9333 0.3433
0.2900 0.8067
0.3867 0.3067
0.2983 0.7083
0.1533 0.3583
0.5567 0.6783
0.1567 0.3433
0.2867 0.8300
0.5917 0.6533
0.7500 0.1000
0.0667 0.4017
0.9100 0.5067
0.4567 0.9150
0.8433 0.1917
0.6650 0.4500
0.0817 0.4383
0.1567 0.3300
0.2367 0.2067
0.4100 0.6050
0.5733 0.8967
0.0800 0.4217
0.6133 0.8600
0.0300 0.4117
0.6450 0.1550
0.6633 0.4633
0.8917 0.2267
0.0500 0.4350
0.1400 0.6517
0.4350 0.9500
0.8733 0.4433
0.6883 0.7967
0.9350 0.7583
0.3600 0.3450
0.6500 0.6267
0.7783 0.1133
0.4617 0.6850
0.8950 0.2300
0.9333 0.7550
0.5117 0.9250
0.7517 0.1283
0.4550 0.0783
0.4250 0.9150
0.3067 0.9467
0.4467 0.9917
0.2783 0.3317
0.9150 0.7617
0.9700 0.6883
0.8367 0.1817
0.3317 0.4833
0.9500 0.5800
0.3750 0.3850
0.6200 0.1500
0.6567 0.5317
0.8950 0.5717
0.7067 0.5083
0.2017 0.2533
0.6150 0.7617
0.4867 0.6500
0.3367 0.5617
0.6967 0.8100
0.3217 0.8483
0.5167 0.0733
0.9517 0.6067
0.8300 0.7733
0.1017 0.6867
0.0800 0.4950
0.8800 0.2683
0.8917 0.3567
0.7083 0.4283
0.6467 0.4217
0.6650 0.6283
0.7017 0.4700
0.4583 0.9417
0.0983 0.5767
0.2767 0.1483
0.8617 0.7717
0.3333 0.8833
0.5883 0.2133
0.9650 0.5867
0.8500 0.1350
0.6733 0.1633
0.6267 0.7500
0.9117 0.7917
0.3317 0.4167
0.2283 0.1117
0.9167 0.6017
0.2967 0.8900
0.0317 0.4433
0.0283 0.4650
0.8933 0.7017
0.1083 0.4233
0.2533 0.7683
0.6450 0.3217
0.4267 0.2983
0.9067 0.2650
0.0417 0.4350
0.8933 0.5650
0.0717 0.4217
0.2767 0.1233
0.1667 0.6600
0.9217 0.6283
0.1600 0.3400
0.5833 0.2167
0.6000 0.9067
0.9250 0.6450
0.5167 0.6817
0.6117 0.8350
0.3500 0.5133
0.9383 0.3200
0.5000 0.6617
0.6433 0.1600
0.6550 0.3883
0.2517 0.0650
0.5083 0.0783
0.3083 0.5133
0.7950 0.1083
0.1967 0.3233
0.8750 0.8283
0.2867 0.1183
0.2300 0.0967
0.4117 0.6933
0.2917 0.4450
0.8583 0.8267
0.8183 0.4800
0.6450 0.6717
0.1217 0.6600
0.6300 0.3717
0.3083 0.5350
0.9300 0.7350
0.8500 0.4250
0.3850 0.3750
0.5000 0.0767
0.3383 0.4967
0.2733 0.7250
0.8717 0.2650
0.6317 0.3117
0.5050 0.9717
0.2667 0.7517
0.4067 0.6717
0.2533 0.8517
0.9117 0.2450
0.3700 0.4167
0.8250 0.1917
0.0650 0.4800
0.6617 0.4350
0.5650 0.7083
0.2967 0.0633
0.6517 0.6150
0.3117 0.6683
0.4283 0.3483
0.3883 0.3267
0.5217 0.0967
0.3400 0.4100
0.6417 0.3217
0.6550 0.1450
0.3617 0.0083
0.0700 0.4250
0.2900 0.4700
0.4867 0.1017
0.4033 0.6767
0.2733 0.9067
0.3500 0.0750
0.5383 0.8900
0.7150 0.8050
0.4483 0.2767
0.4783 0.9433
0.8917 0.2900
0.2650 0.3383
0.9517 0.6650
0.6800 0.3517
0.3133 0.1100
0.3500 0.3867
0.3333 0.6450
0.5767 0.6333
0.4700 0.0750
0.2717 0.0667
0.6800 0.1283
0.9217 0.7983
0.1100 0.3800
0.5233 0.0850
0.8800 0.4117
0.6050 0.7033
0.0683 0.5233
0.1083 0.6667
0.2300 0.3233
0.5967 0.8917
0.6833 0.3850
0.6783 0.1400
0.2100 0.1500
0.6083 0.1517
0.6700 0.3650
0.4750 0.3000
0.1217 0.6800
0.6933 0.5350
0.3233 0.4300
0.8367 0.1533
0.1000 0.6033
0.2917 0.7850
0.2300 0.1767
0.5933 0.2883
0.0500 0.4017
0.4700 0.6533
0.7967 0.4700
0.0467 0.4383
0.9533 0.6433
0.3567 0.9617
0.9500 0.3233
0.7050 0.5717
0.5967 0.6700
0.3933 0.6200
0.1267 0.3683
0.4400 0.0683
0.6350 0.1733
0.6083 0.7817
0.0933 0.6783
0.2100 0.3433
0.0167 0.4567
0.3417 0.4500
0.2133 0.6983
0.5667 0.2500
0.8367 0.4650
0.9100 0.6300
0.1150 0.6183
0.1533 0.6383
0.2583 0.7600
0.4617 0.9217
0.2667 0.6950
0.2533 0.3550
0.7700 0.8017
0.8150 0.1267
0.5767 0.8667
0.4500 0.2883
0.9317 0.2883
0.9017 0.6950
0.8483 0.1583
0.8967 0.7933
0.2700 0.7033
0.8933 0.3533
0.8333 0.1433
0.3383 0.9383
0.3983 0.6000
0.3217 0.0533
0.9500 0.6467
0.9233 0.3583
0.6383 0.3333
0.3050 0.4117
0.8133 0.1067
0.2983 0.6750
0.7050 0.5950
0.3517 0.9650
0.1800 0.3217
0.3050 0.8667
0.5417 0.8883
0.3450 0.9017
0.9033 0.6200
0.0150 0.5633
0.0350 0.4433
0.2383 0.8083
0.3100 0.3983
0.8967 0.2550
0.3450 0.6167
0.9150 0.1700
0.9583 0.7200
0.8033 0.4583
0.0017 0.5267
0.4267 0.0217
0.4450 0.6483
0.6700 0.5217
0.8767 0.2300
0.5167 0.0583
0.6517 0.3133
0.4400 0.0650
0.5733 0.3500
0.1167 0.6533
0.2550 0.8067
0.1300 0.3333
0.3017 0.5250
0.3583 0.4400
0.0417 0.6183
0.6083 0.7917
0.3267 0.0267
0.9417 0.3233
0.7183 0.8483
0.4400 0.9150
0.8367 0.1883
0.5467 0.9517
0.2283 0.2250
0.2567 0.8117
0.5517 0.1483
0.4550 0.0633
0.3833 0.6283
0.4667 0.9583
0.2283 0.2767
0.8667 0.1417
0.1750 0.3633
0.8017 0.1617
0.0483 0.6217
0.8467 0.1400
0.7417 0.8400
0.3450 0.5433
0.9267 0.3417
0.6067 0.8800
0.9533 0.6750
0.4333 0.9267
0.4117 0.3117
0.4100 0.0383
0.4533 0.2983
0.7000 0.7967
0.6400 0.6467
0.7617 0.8417
0.4917 0.0367
0.8767 0.2867
0.3883 0.9683
0.7250 0.4800
0.6100 0.7217
0.6250 0.2967
0.6033 0.7817
0.5750 0.3150
0.6233 0.1683
0.8500 0.8300
0.3233 0.5283
0.2067 0.6850
0.9117 0.2850
0.8783 0.3983
0.2350 0.3517
0.5733 0.2800
0.5300 0.0667
0.5433 0.6650
0.8683 0.4950
0.1683 0.6833
0.9300 0.3683
0.5750 0.8983
0.7517 0.1300
0.1033 0.3850
0.3617 0.0867
0.5217 0.1217
0.4283 0.3467
0.6283 0.6650
0.1250 0.6617
0.0250 0.5067
0.9300 0.3667
0.2200 0.2500
0.5583 0.1550
0.7367 0.8500
0.4800 0.3033
0.7750 0.1083
0.6233 0.6350
0.3000 0.5500
0.9317 0.7833
0.7583 0.1083
0.6800 0.7983
0.5167 0.1200
0.2833 0.8567
0.1933 0.6667
0.8500 0.7600
0.3300 0.4250
0.4217 0.9500
0.6550 0.5550
0.3850 0.9850
0.8717 0.8250
0.4983 0.2783
0.2283 0.1333
0.5800 0.8700
0.5183 0.0667
0.9700 0.6500
0.6867 0.8283
0.6933 0.5250
0.2500 0.2200
0.6183 0.8217
0.2483 0.1983
0.8817 0.3317
0.2267 0.1617
0.2350 0.3017
0.4017 0.3817
0.6867 0.6317
0.6317 0.8033
0.1700 0.3233
0.5167 0.9667
0.4183 0.9617
0.1900 0.7033
0.2767 0.8217
0.8450 0.8383
0.3583 0.6117
0.8333 0.4283
0.7317 0.4383
0.3567 0.5367
0.8050 0.1483
0.2783 0.7750
0.5083 0.0967
0.4033  0.001
0.0633 0.5817
0.4667 0.3167
0.6750 0.7933
0.9283 0.7867
0.8850 0.5300
0.6467 0.3150
0.5300 0.1250
0.2700 0.7883
0.1267 0.3367
0.9350 0.5967
0.5500 0.9483
0.8183 0.1333
0.7950 0.8117
0.2100 0.1683
0.7217 0.1483
0.1033 0.3633
0.4017 0.9933
0.5750 0.2150
0.5217 0.3367
0.2067 0.2550
0.5183 0.9683
0.2783 0.1483
0.5550 0.6467
0.5750 0.1633
0.1833 0.7083
0.2567 0.1867
0.8733 0.8083
0.5483 0.1233
0.5517 0.3033
0.2833 0.0367
0.2950 0.4850
0.1650 0.3733
0.9233 0.5650
0.8167 0.4517
0.6650 0.4983
0.6800 0.8233
0.0367 0.5950
0.7633 0.4733
0.2617 0.3333
0.8917 0.5017
0.7267 0.5417
0.4033 0.6600
0.1467 0.3650
0.6950 0.1167
0.4850 0.9083
0.2600 0.8617
0.5783 0.1450
0.9700 0.6017
0.0333 0.5817
0.3083 0.8933
0.6483 0.5600
0.6350 0.3567
0.5567 0.3400
0.2867 0.0667
0.3400 0.5233
0.7083 0.4033
0.5533 0.3083
0.5467 0.6833
0.7617 0.4683
0.0650 0.6400
0.7500 0.8500
0.4733 0.6833
0.3300 0.5367
0.2583 0.0650
0.3000 0.4617
0.5083 0.9250
0.4933 0.9300
0.5033 0.0483
0.2717 0.7483
0.4350 0.0450
0.5433 0.1517
0.3783 0.4167
0.1067 0.6617
0.3033 0.6933
0.2383 0.1950
0.2633 0.7083
0.4650 0.3217
0.2933 0.6883
0.5117 0.7133
0.6250 0.3833
0.8567 0.1767
0.7967 0.1250
0.7000 0.1367
0.1250 0.4000
0.2150 0.6983
0.0400 0.5433
0.2717 0.8633
0.8633 0.1783
0.2767 0.3483
0.3250 0.4267
0.7567 0.4833
0.6717 0.4767
0.3417 0.8917
0.3383 0.3517
0.2483 0.2550
0.8800 0.3867
0.2883 0.8350
0.2283 0.1933
0.7217 0.4833
0.4817 0.6533
0.1467 0.6950
0.9167 0.6033
0.2433 0.3517
0.5833 0.2100
0.9417 0.5650
0.6667 0.5550
0.6250 0.7400
0.6683 0.3717
0.9483 0.6283
0.7000 0.3800
0.3200 0.4217
0.9133 0.4100
0.6683 0.5900
0.8150 0.1900
0.8067 0.1033
0.2533 0.2667
0.2183 0.1183
0.5183 0.9150
0.9167 0.5500
0.4383 0.6517
0.7450 0.8083
0.7100 0.4450
0.3117 0.4550
0.0133 0.5183
0.4900 0.0233
0.0733 0.4317
0.0433 0.5350
0.0367 0.5583
0.4450 0.9417
0.2933 0.8650
0.8283 0.7717
0.8950 0.2350
0.2067 0.3183
0.2650 0.6650
0.7133 0.4033
0.6367 0.3533
0.6450 0.5950
0.4233 0.0533
0.7550 0.8383
0.6900 0.8250
0.2083 0.6833
0.4417 0.9567
0.9050 0.6233
0.8900 0.5117
0.4733 0.0183
0.2750 0.1417
0.8733 0.1717
0.0900 0.5850
0.9367 0.3567
0.8567 0.5250
0.9117 0.5517
0.5950 0.6967
0.7017 0.5700
0.9667 0.5917
0.7817 0.1350
0.3917 0.6650
0.5817 0.6300
0.8767 0.3417
0.6833 0.5117
0.3717 0.0500
0.9300 0.5317
0.1000 0.4000
0.7117 0.1467
0.6317 0.3333
0.3917 0.9783
0.6233 0.6100
0.8300 0.1967
0.5133 0.9017
0.1450 0.3417
0.2533 0.8583
0.5717 0.8533
0.2300 0.1800
0.1217 0.3533
0.3350 0.4317
0.8400 0.4833
0.6650 0.4700
0.1400 0.6500
0.2483 0.1650
0.4183 0.9700
0.8067 0.8517
0.2250 0.2333
0.1067 0.6717
0.3467 0.0917
0.6983 0.4050
0.8967 0.1967
0.2283 0.2417
0.2700 0.8667
0.4250 0.6600
0.8900 0.2167
0.2317 0.1983
0.3567 0.0500
0.8550 0.4950
0.8750 0.4467
0.9500 0.6217
0.8583 0.8300
0.0867 0.3800
0.2983 0.8833
0.3217 0.5433
0.9283 0.2150
0.6617 0.4833
0.6800 0.4033
0.4267 0.0500
0.0467 0.4500
0.3617 0.0183
0.6650 0.3267
0.3650 0.3283
0.4100 0.6783
0.3367 0.0550
0.6233 0.3633
0.4100 0.9283
0.3633 0.4583
0.8633 0.8283
0.3300 0.5083
0.9483 0.3167
0.4583 0.3317
0.5850 0.3450
0.6183 0.6667
0.6383 0.1533
0.5150 0.9517
0.0367 0.6200
0.7350 0.5217
0.5483 0.0850
0.2000 0.3567
0.2433 0.3200
0.6983 0.4067
0.3567 0.3717
0.3050 0.1033
0.5233 0.3317
0.9467 0.5633
0.7517 0.1017
0.7183 0.4367
0.2483 0.1517
0.8550 0.1683
0.8750 0.4133
0.5850 0.3167
0.6717 0.5650
0.7167 0.5133
0.2617 0.1517
0.6550 0.7683
0.0950 0.3650
0.1183 0.3917
0.6983 0.3650
0.7017 0.4317
0.8883 0.2317
0.9517 0.7050
0.7717 0.8500
0.6333 0.7900
0.6950 0.8067
0.3817 0.6500
0.7083 0.4717
0.4283 0.9917
0.9117 0.1817
0.6250 0.7550
0.4133 0.6217
0.3017 0.6850
0.1267 0.6800
0.3383 0.3917
0.2167 0.3450
0.2217 0.6750
0.3017 0.5333
0.6617 0.4850
0.2967 0.0967
0.8100 0.1400
0.2450 0.1767
0.4317 0.9233
0.6250 0.8350
0.5150 0.6850
0.2650 0.7933
0.9400 0.7317
0.4817 0.9867
0.6100 0.7867
0.8150 0.4450
0.5533 0.6867
0.2867 0.3300
0.5850 0.6817
0.3233 0.4533
0.3050 0.1100
0.7017 0.5000
0.9150 0.7133
0.7183 0.5483
0.2767 0.7150
0.8033 0.7850
0.1783 0.3350
0.3000 0.9150
0.6917 0.5867
0.3267 0.0167
0.7417 0.4750
0.9500 0.2867
0.7233 0.4367
0.4667 0.9800
0.5067 0.6483
0.8417 0.4883
0.2700 0.7983
0.3800 0.3967
0.3733 0.6300
0.5583 0.1333
0.8600 0.5017
0.8933 0.2167
0.0600 0.6350
0.9000 0.7950
0.9100 0.1633
0.4317 0.0267
0.8983 0.5900
0.9083 0.6200
0.4567 0.9500
0.5550 0.3217
0.6967 0.3817
0.6600 0.7867
0.9650 0.6933
0.0667 0.5933
0.8667 0.5233
0.4067 0.9867
0.3050 0.0867
0.7950 0.1517
0.8717 0.3800
0.7867 0.1583
0.6333 0.6000
0.5783 0.2300
0.0733 0.6250
0.3867 0.3400
0.6017 0.6250
0.6150 0.3267
0.2567 0.3567
0.6067 0.2983
0.4417 0.3083
0.8250 0.4600
0.2417 0.6817
0.9517 0.5750
0.6183 0.5983
0.6517 0.7767
0.9000 0.7500
0.4500 0.9233
0.2500 0.8583
0.9583 0.6883
0.4817 0.0733
0.3700 0.9283
0.6850 0.5783
0.6633 0.1483
0.8783 0.3900
0.3750 0.6250
0.3750 0.5667
0.2883 0.7033
0.1383 0.3467
0.5717 0.6317
0.2167 0.2683
0.2300 0.1667
0.6983 0.5617
0.3167 0.4867
0.2200 0.1433
0.4817 0.3317
0.3667 0.5550
0.9183 0.1867
0.6350 0.3500
0.2450 0.3083
0.7250 0.4717
0.7750 0.1550
0.9050 0.6950
0.6933 0.5217
0.2883 0.4717
0.4733 0.9550
0.6167 0.3250
0.8317 0.4383
0.5417 0.7050
0.4933 0.6533
0.0733 0.4717
0.8833 0.1767
0.7333 0.5417
0.3800 0.0583
0.8817 0.8017
0.6617 0.5833
0.9100 0.7883
0.3900 0.3533
0.2133 0.2250
0.6233 0.6583
0.5483 0.1067
0.4650 0.0683
0.0583 0.5517
0.8617 0.4967
0.8217 0.8483
0.9100 0.7517
0.8017 0.1250
0.5533 0.3433
0.0733 0.6167
0.2817 0.7233
0.6750 0.5633
0.3800 0.3733
0.9150 0.7300
0.7067 0.4100
0.3267 0.0333
0.5017 0.0850
0.3333 0.5433
0.9383 0.7367
0.4300 0.3417
0.6917 0.5433
0.4817 0.3200
0.3450 0.9433
0.5583 0.1050
0.5583 0.3483
0.5733 0.3217
0.5100 0.9800
0.1950 0.2150
0.7150 0.5600
0.6917 0.1067
0.6817 0.1650
0.2500 0.6933
0.2983 0.4750
0.6450 0.6517
0.9383 0.5517
0.3567 0.6067
0.0767 0.6417
0.4433 0.0717
0.2800 0.8617
0.9300 0.6467
0.2567 0.8833
0.5183 0.9183
0.1300 0.3367
0.0517 0.6117
0.8767 0.4900
0.3817 0.0833
0.2917 0.4633
0.3350 0.5683
0.2183 0.6800
0.0700 0.6333
0.3833 0.3317
0.2683 0.3567
0.6533 0.6100
0.2700 0.8150
0.9333 0.3517
0.3167 0.0633
0.9100 0.2733
0.9317 0.2583
0.0617 0.4900
0.9583 0.7433
0.5667 0.9083
0.4483 0.2817
0.3217 0.5900
0.6117 0.6800
0.4467 0.3150
0.3800 0.9567
0.0700 0.4283
0.6083 0.8667
0.9083 0.5917
0.1150 0.3850
0.1000 0.6383
0.3983 0.6467
0.2750 0.0800
0.2483 0.1967
0.5900 0.3583
0.4050 0.6583
0.3567 0.4500
0.5433 0.6917
0.2567 0.3100
0.6083 0.1750
0.8683 0.7483
0.9333 0.6050
0.8250 0.1167
0.2267 0.2233
0.8917 0.7633
0.6417 0.6117
0.9533 0.7183
0.6767 0.6417
0.6467 0.3800
0.5617 0.1850
0.9133 0.1950
0.1600 0.6700
0.7300 0.8167
0.3783 0.3383
0.2983 0.1150
0.1333 0.3950
0.5200 0.0883
0.4367 0.9400
0.7267 0.4617
0.9000 0.5417
0.6600 0.1450
0.6283 0.5883
0.1800 0.3233
0.2500 0.2050
0.9167 0.2100
0.6183 0.6850
0.1767 0.3450
0.3467 0.6367
0.3600 0.9183
0.0467 0.4033
0.7017 0.4000
0.9017 0.5033
0.1300 0.6833
0.8700 0.1267
0.1500 0.6650
0.3550 0.9400
0.2417 0.3183
0.7050 0.5567
0.2083 0.1367
0.5517 0.3183
0.5167 0.7050
0.8117 0.8083
0.9117 0.1783
0.9167 0.5950
0.2650 0.8183
0.4600 0.6383
0.5950 0.1917
0.9217 0.7933
0.3167 0.5600
0.5233 0.6900
0.5717 0.7050
0.8550 0.5167
0.2967 0.0383
0.0300 0.4983
0.7833 0.1233
0.3367 0.4150
0.7683 0.4683
0.6867 0.6000