8.6167 2.3833
8.4500 7.9667
4.4333 3.5833
9.1833 6.3500
3.3833 5.6000
6.6000 5.2667
7.4667 8.0500
2.6833 7.8000
2.2667 2.9333
5.1333 9.1167
0.4667 5.0667
7.2667 1.2167
9.1000 7.8667
0.3500 5.9833
5.7833 3.5167
2.9167 7.0333
6.2000 6.0667
2.2167 1.0000
5.2000 3.3333
7.3333 5.1667
3.4000 9.2000
5.3667 1.2333
6.1833 3.3500
9.4333 6.5000
3.6000 0.4833
4.5333 2.9000
5.2500 2.8667
8.3667 4.5500
5.9000 3.1000
6.6833 8.1833
6.8333 1.5167
6.4167 1.2500
6.9000 1.6500
6.4833 3.9333
5.6333 1.6667
3.2500 0.2500
0.6500 6.3000
6.9167 5.7833
8.0833 1.2333
2.0167 3.3833
1.0167 6.8167
6.8000 1.2000
6.7333 8.1500
0.2500 5.4833
8.6333 8.2333
4.7167 0.4000
4.5667 0.4333
2.7333 3.1500
8.6833 2.5167
0.8500 5.9667
6.9000 1.3833
3.3833 3.8000
8.2333 4.3833
2.6000 7.1667
6.8167 6.3333
7.1333 3.9500
8.8167 5.5167
4.5667 9.3333
4.7500 9.8000
4.6500 3.2333
5.4500 3.2833
4.0333 6.1500
0.5000 5.1833
8.1667 1.8000
8.9000 8.2333
0.6833 3.7667
6.9500 5.1333
2.3500 0.9167
5.4833 8.7667
2.6333 3.2333
8.7667 7.8167
1.0833 3.7167
5.2667 3.2167
9.3833 6.8667
9.3500 2.0333
8.9000 5.2333
5.7500 6.5500
3.4000 5.5667
4.0167 3.4000
9.0333 8.0333
0.6333 4.4833
2.7667 6.8833
0.4667 5.5667
6.2833 7.4333
5.6667 1.7333
3.3500 4.2167
3.7000 0.4333
6.5500 4.1167
5.9833 3.5500
4.3833 0.2500
5.7167 9.4167
2.5333 8.3167
2.6833 1.0167
4.0167 3.0167
1.2333 6.6667
6.6500 1.4500
6.4333 1.3833
3.6167 3.3667
0.9667 3.5167
9.3333 3.4333
2.9000 8.0667
3.8667 3.0667
2.9833 7.0833
1.5333 3.5833
5.5667 6.7833
1.5667 3.4333
2.8667 8.3000
5.9167 6.5333
7.5000 1.0000
0.6667 4.0167
9.1000 5.0667
4.5667 9.1500
8.4333 1.9167
6.6500 4.5000
0.8167 4.3833
1.5667 3.3000
2.3667 2.0667
4.1000 6.0500
5.7333 8.9667
0.8000 4.2167
6.1333 8.6000
0.3000 4.1167
6.4500 1.5500
6.6333 4.6333
8.9167 2.2667
0.5000 4.3500
1.4000 6.5167
4.3500 9.5000
8.7333 4.4333
6.8833 7.9667
9.3500 7.5833
3.6000 3.4500
6.5000 6.2667
7.7833 1.1333
4.6167 6.8500
8.9500 2.3000
9.3333 7.5500
5.1167 9.2500
7.5167 1.2833
4.5500 0.7833
4.2500 9.1500
3.0667 9.4667
4.4667 9.9167
2.7833 3.3167
9.1500 7.6167
9.7000 6.8833
8.3667 1.8167
3.3167 4.8333
9.5000 5.8000
3.7500 3.8500
6.2000 1.5000
6.5667 5.3167
8.9500 5.7167
7.0667 5.0833
2.0167 2.5333
6.1500 7.6167
4.8667 6.5000
3.3667 5.6167
6.9667 8.1000
3.2167 8.4833
5.1667 0.7333
9.5167 6.0667
8.3000 7.7333
1.0167 6.8667
0.8000 4.9500
8.8000 2.6833
8.9167 3.5667
7.0833 4.2833
6.4667 4.2167
6.6500 6.2833
7.0167 4.7000
4.5833 9.4167
0.9833 5.7667
2.7667 1.4833
8.6167 7.7167
3.3333 8.8333
5.8833 2.1333
9.6500 5.8667
8.5000 1.3500
6.7333 1.6333
6.2667 7.5000
9.1167 7.9167
3.3167 4.1667
2.2833 1.1167
9.1667 6.0167
2.9667 8.9000
0.3167 4.4333
0.2833 4.6500
8.9333 7.0167
1.0833 4.2333
2.5333 7.6833
6.4500 3.2167
4.2667 2.9833
9.0667 2.6500
0.4167 4.3500
8.9333 5.6500
0.7167 4.2167
2.7667 1.2333
1.6667 6.6000
9.2167 6.2833
1.6000 3.4000
5.8333 2.1667
6.0000 9.0667
9.2500 6.4500
5.1667 6.8167
6.1167 8.3500
3.5000 5.1333
9.3833 3.2000
5.0000 6.6167
6.4333 1.6000
6.5500 3.8833
2.5167 0.6500
5.0833 0.7833
3.0833 5.1333
7.9500 1.0833
1.9667 3.2333
8.7500 8.2833
2.8667 1.1833
2.3000 0.9667
4.1167 6.9333
2.9167 4.4500
8.5833 8.2667
8.1833 4.8000
6.4500 6.7167
1.2167 6.6000
6.3000 3.7167
3.0833 5.3500
9.3000 7.3500
8.5000 4.2500
3.8500 3.7500
5.0000 0.7667
3.3833 4.9667
2.7333 7.2500
8.7167 2.6500
6.3167 3.1167
5.0500 9.7167
2.6667 7.5167
4.0667 6.7167
2.5333 8.5167
9.1167 2.4500
3.7000 4.1667
8.2500 1.9167
0.6500 4.8000
6.6167 4.3500
5.6500 7.0833
2.9667 0.6333
6.5167 6.1500
3.1167 6.6833
4.2833 3.4833
3.8833 3.2667
5.2167 0.9667
3.4000 4.1000
6.4167 3.2167
6.5500 1.4500
3.6167 0.0833
0.7000 4.2500
2.9000 4.7000
4.8667 1.0167
4.0333 6.7667
2.7333 9.0667
3.5000 0.7500
5.3833 8.9000
7.1500 8.0500
4.4833 2.7667
4.7833 9.4333
8.9167 2.9000
2.6500 3.3833
9.5167 6.6500
6.8000 3.5167
3.1333 1.1000
3.5000 3.8667
3.3333 6.4500
5.7667 6.3333
4.7000 0.7500
2.7167 0.6667
6.8000 1.2833
9.2167 7.9833
1.1000 3.8000
5.2333 0.8500
8.8000 4.1167
6.0500 7.0333
0.6833 5.2333
1.0833 6.6667
2.3000 3.2333
5.9667 8.9167
6.8333 3.8500
6.7833 1.4000
2.1000 1.5000
6.0833 1.5167
6.7000 3.6500
4.7500 3.0000
1.2167 6.8000
6.9333 5.3500
3.2333 4.3000
8.3667 1.5333
1.0000 6.0333
2.9167 7.8500
2.3000 1.7667
5.9333 2.8833
0.5000 4.0167
4.7000 6.5333
7.9667 4.7000
0.4667 4.3833
9.5333 6.4333
3.5667 9.6167
9.5000 3.2333
7.0500 5.7167
5.9667 6.7000
3.9333 6.2000
1.2667 3.6833
4.4000 0.6833
6.3500 1.7333
6.0833 7.8167
0.9333 6.7833
2.1000 3.4333
0.1667 4.5667
3.4167 4.5000
2.1333 6.9833
5.6667 2.5000
8.3667 4.6500
9.1000 6.3000
1.1500 6.1833
1.5333 6.3833
2.5833 7.6000
4.6167 9.2167
2.6667 6.9500
2.5333 3.5500
7.7000 8.0167
8.1500 1.2667
5.7667 8.6667
4.5000 2.8833
9.3167 2.8833
9.0167 6.9500
8.4833 1.5833
8.9667 7.9333
2.7000 7.0333
8.9333 3.5333
8.3333 1.4333
3.3833 9.3833
3.9833 6.0000
3.2167 0.5333
9.5000 6.4667
9.2333 3.5833
6.3833 3.3333
3.0500 4.1167
8.1333 1.0667
2.9833 6.7500
7.0500 5.9500
3.5167 9.6500
1.8000 3.2167
3.0500 8.6667
5.4167 8.8833
3.4500 9.0167
9.0333 6.2000
0.1500 5.6333
0.3500 4.4333
2.3833 8.0833
3.1000 3.9833
8.9667 2.5500
3.4500 6.1667
9.1500 1.7000
9.5833 7.2000
8.0333 4.5833
0.0167 5.2667
4.2667 0.2167
4.4500 6.4833
6.7000 5.2167
8.7667 2.3000
5.1667 0.5833
6.5167 3.1333
4.4000 0.6500
5.7333 3.5000
1.1667 6.5333
2.5500 8.0667
1.3000 3.3333
3.0167 5.2500
3.5833 4.4000
0.4167 6.1833
6.0833 7.9167
3.2667 0.2667
9.4167 3.2333
7.1833 8.4833
4.4000 9.1500
8.3667 1.8833
5.4667 9.5167
2.2833 2.2500
2.5667 8.1167
5.5167 1.4833
4.5500 0.6333
3.8333 6.2833
4.6667 9.5833
2.2833 2.7667
8.6667 1.4167
1.7500 3.6333
8.0167 1.6167
0.4833 6.2167
8.4667 1.4000
7.4167 8.4000
3.4500 5.4333
9.2667 3.4167
6.0667 8.8000
9.5333 6.7500
4.3333 9.2667
4.1167 3.1167
4.1000 0.3833
4.5333 2.9833
7.0000 7.9667
6.4000 6.4667
7.6167 8.4167
4.9167 0.3667
8.7667 2.8667
3.8833 9.6833
7.2500 4.8000
6.1000 7.2167
6.2500 2.9667
6.0333 7.8167
5.7500 3.1500
6.2333 1.6833
8.5000 8.3000
3.2333 5.2833
2.0667 6.8500
9.1167 2.8500
8.7833 3.9833
2.3500 3.5167
5.7333 2.8000
5.3000 0.6667
5.4333 6.6500
8.6833 4.9500
1.6833 6.8333
9.3000 3.6833
5.7500 8.9833
7.5167 1.3000
1.0333 3.8500
3.6167 0.8667
5.2167 1.2167
4.2833 3.4667
6.2833 6.6500
1.2500 6.6167
0.2500 5.0667
9.3000 3.6667
2.2000 2.5000
5.5833 1.5500
7.3667 8.5000
4.8000 3.0333
7.7500 1.0833
6.2333 6.3500
3.0000 5.5000
9.3167 7.8333
7.5833 1.0833
6.8000 7.9833
5.1667 1.2000
2.8333 8.5667
1.9333 6.6667
8.5000 7.6000
3.3000 4.2500
4.2167 9.5000
6.5500 5.5500
3.8500 9.8500
8.7167 8.2500
4.9833 2.7833
2.2833 1.3333
5.8000 8.7000
5.1833 0.6667
9.7000 6.5000
6.8667 8.2833
6.9333 5.2500
2.5000 2.2000
6.1833 8.2167
2.4833 1.9833
8.8167 3.3167
2.2667 1.6167
2.3500 3.0167
4.0167 3.8167
6.8667 6.3167
6.3167 8.0333
1.7000 3.2333
5.1667 9.6667
4.1833 9.6167
1.9000 7.0333
2.7667 8.2167
8.4500 8.3833
3.5833 6.1167
8.3333 4.2833
7.3167 4.3833
3.5667 5.3667
8.0500 1.4833
2.7833 7.7500
5.0833 0.9667
4.0333 0.01
0.6333 5.8167
4.6667 3.1667
6.7500 7.9333
9.2833 7.8667
8.8500 5.3000
6.4667 3.1500
5.3000 1.2500
2.7000 7.8833
1.2667 3.3667
9.3500 5.9667
5.5000 9.4833
8.1833 1.3333
7.9500 8.1167
2.1000 1.6833
7.2167 1.4833
1.0333 3.6333
4.0167 9.9333
5.7500 2.1500
5.2167 3.3667
2.0667 2.5500
5.1833 9.6833
2.7833 1.4833
5.5500 6.4667
5.7500 1.6333
1.8333 7.0833
2.5667 1.8667
8.7333 8.0833
5.4833 1.2333
5.5167 3.0333
2.8333 0.3667
2.9500 4.8500
1.6500 3.7333
9.2333 5.6500
8.1667 4.5167
6.6500 4.9833
6.8000 8.2333
0.3667 5.9500
7.6333 4.7333
2.6167 3.3333
8.9167 5.0167
7.2667 5.4167
4.0333 6.6000
1.4667 3.6500
6.9500 1.1667
4.8500 9.0833
2.6000 8.6167
5.7833 1.4500
9.7000 6.0167
0.3333 5.8167
3.0833 8.9333
6.4833 5.6000
6.3500 3.5667
5.5667 3.4000
2.8667 0.6667
3.4000 5.2333
7.0833 4.0333
5.5333 3.0833
5.4667 6.8333
7.6167 4.6833
0.6500 6.4000
7.5000 8.5000
4.7333 6.8333
3.3000 5.3667
2.5833 0.6500
3.0000 4.6167
5.0833 9.2500
4.9333 9.3000
5.0333 0.4833
2.7167 7.4833
4.3500 0.4500
5.4333 1.5167
3.7833 4.1667
1.0667 6.6167
3.0333 6.9333
2.3833 1.9500
2.6333 7.0833
4.6500 3.2167
2.9333 6.8833
5.1167 7.1333
6.2500 3.8333
8.5667 1.7667
7.9667 1.2500
7.0000 1.3667
1.2500 4.0000
2.1500 6.9833
0.4000 5.4333
2.7167 8.6333
8.6333 1.7833
2.7667 3.4833
3.2500 4.2667
7.5667 4.8333
6.7167 4.7667
3.4167 8.9167
3.3833 3.5167
2.4833 2.5500
8.8000 3.8667
2.8833 8.3500
2.2833 1.9333
7.2167 4.8333
4.8167 6.5333
1.4667 6.9500
9.1667 6.0333
2.4333 3.5167
5.8333 2.1000
9.4167 5.6500
6.6667 5.5500
6.2500 7.4000
6.6833 3.7167
9.4833 6.2833
7.0000 3.8000
3.2000 4.2167
9.1333 4.1000
6.6833 5.9000
8.1500 1.9000
8.0667 1.0333
2.5333 2.6667
2.1833 1.1833
5.1833 9.1500
9.1667 5.5000
4.3833 6.5167
7.4500 8.0833
7.1000 4.4500
3.1167 4.5500
0.1333 5.1833
4.9000 0.2333
0.7333 4.3167
0.4333 5.3500
0.3667 5.5833
4.4500 9.4167
2.9333 8.6500
8.2833 7.7167
8.9500 2.3500
2.0667 3.1833
2.6500 6.6500
7.1333 4.0333
6.3667 3.5333
6.4500 5.9500
4.2333 0.5333
7.5500 8.3833
6.9000 8.2500
2.0833 6.8333
4.4167 9.5667
9.0500 6.2333
8.9000 5.1167
4.7333 0.1833
2.7500 1.4167
8.7333 1.7167
0.9000 5.8500
9.3667 3.5667
8.5667 5.2500
9.1167 5.5167
5.9500 6.9667
7.0167 5.7000
9.6667 5.9167
7.8167 1.3500
3.9167 6.6500
5.8167 6.3000
8.7667 3.4167
6.8333 5.1167
3.7167 0.5000
9.3000 5.3167
1.0000 4.0000
7.1167 1.4667
6.3167 3.3333
3.9167 9.7833
6.2333 6.1000
8.3000 1.9667
5.1333 9.0167
1.4500 3.4167
2.5333 8.5833
5.7167 8.5333
2.3000 1.8000
1.2167 3.5333
3.3500 4.3167
8.4000 4.8333
6.6500 4.7000
1.4000 6.5000
2.4833 1.6500
4.1833 9.7000
8.0667 8.5167
2.2500 2.3333
1.0667 6.7167
3.4667 0.9167
6.9833 4.0500
8.9667 1.9667
2.2833 2.4167
2.7000 8.6667
4.2500 6.6000
8.9000 2.1667
2.3167 1.9833
3.5667 0.5000
8.5500 4.9500
8.7500 4.4667
9.5000 6.2167
8.5833 8.3000
0.8667 3.8000
2.9833 8.8333
3.2167 5.4333
9.2833 2.1500
6.6167 4.8333
6.8000 4.0333
4.2667 0.5000
0.4667 4.5000
3.6167 0.1833
6.6500 3.2667
3.6500 3.2833
4.1000 6.7833
3.3667 0.5500
6.2333 3.6333
4.1000 9.2833
3.6333 4.5833
8.6333 8.2833
3.3000 5.0833
9.4833 3.1667
4.5833 3.3167
5.8500 3.4500
6.1833 6.6667
6.3833 1.5333
5.1500 9.5167
0.3667 6.2000
7.3500 5.2167
5.4833 0.8500
2.0000 3.5667
2.4333 3.2000
6.9833 4.0667
3.5667 3.7167
3.0500 1.0333
5.2333 3.3167
9.4667 5.6333
7.5167 1.0167
7.1833 4.3667
2.4833 1.5167
8.5500 1.6833
8.7500 4.1333
5.8500 3.1667
6.7167 5.6500
7.1667 5.1333
2.6167 1.5167
6.5500 7.6833
0.9500 3.6500
1.1833 3.9167
6.9833 3.6500
7.0167 4.3167
8.8833 2.3167
9.5167 7.0500
7.7167 8.5000
6.3333 7.9000
6.9500 8.0667
3.8167 6.5000
7.0833 4.7167
4.2833 9.9167
9.1167 1.8167
6.2500 7.5500
4.1333 6.2167
3.0167 6.8500
1.2667 6.8000
3.3833 3.9167
2.1667 3.4500
2.2167 6.7500
3.0167 5.3333
6.6167 4.8500
2.9667 0.9667
8.1000 1.4000
2.4500 1.7667
4.3167 9.2333
6.2500 8.3500
5.1500 6.8500
2.6500 7.9333
9.4000 7.3167
4.8167 9.8667
6.1000 7.8667
8.1500 4.4500
5.5333 6.8667
2.8667 3.3000
5.8500 6.8167
3.2333 4.5333
3.0500 1.1000
7.0167 5.0000
9.1500 7.1333
7.1833 5.4833
2.7667 7.1500
8.0333 7.8500
1.7833 3.3500
3.0000 9.1500
6.9167 5.8667
3.2667 0.1667
7.4167 4.7500
9.5000 2.8667
7.2333 4.3667
4.6667 9.8000
5.0667 6.4833
8.4167 4.8833
2.7000 7.9833
3.8000 3.9667
3.7333 6.3000
5.5833 1.3333
8.6000 5.0167
8.9333 2.1667
0.6000 6.3500
9.0000 7.9500
9.1000 1.6333
4.3167 0.2667
8.9833 5.9000
9.0833 6.2000
4.5667 9.5000
5.5500 3.2167
6.9667 3.8167
6.6000 7.8667
9.6500 6.9333
0.6667 5.9333
8.6667 5.2333
4.0667 9.8667
3.0500 0.8667
7.9500 1.5167
8.7167 3.8000
7.8667 1.5833
6.3333 6.0000
5.7833 2.3000
0.7333 6.2500
3.8667 3.4000
6.0167 6.2500
6.1500 3.2667
2.5667 3.5667
6.0667 2.9833
4.4167 3.0833
8.2500 4.6000
2.4167 6.8167
9.5167 5.7500
6.1833 5.9833
6.5167 7.7667
9.0000 7.5000
4.5000 9.2333
2.5000 8.5833
9.5833 6.8833
4.8167 0.7333
3.7000 9.2833
6.8500 5.7833
6.6333 1.4833
8.7833 3.9000
3.7500 6.2500
3.7500 5.6667
2.8833 7.0333
1.3833 3.4667
5.7167 6.3167
2.1667 2.6833
2.3000 1.6667
6.9833 5.6167
3.1667 4.8667
2.2000 1.4333
4.8167 3.3167
3.6667 5.5500
9.1833 1.8667
6.3500 3.5000
2.4500 3.0833
7.2500 4.7167
7.7500 1.5500
9.0500 6.9500
6.9333 5.2167
2.8833 4.7167
4.7333 9.5500
6.1667 3.2500
8.3167 4.3833
5.4167 7.0500
4.9333 6.5333
0.7333 4.7167
8.8333 1.7667
7.3333 5.4167
3.8000 0.5833
8.8167 8.0167
6.6167 5.8333
9.1000 7.8833
3.9000 3.5333
2.1333 2.2500
6.2333 6.5833
5.4833 1.0667
4.6500 0.6833
0.5833 5.5167
8.6167 4.9667
8.2167 8.4833
9.1000 7.5167
8.0167 1.2500
5.5333 3.4333
0.7333 6.1667
2.8167 7.2333
6.7500 5.6333
3.8000 3.7333
9.1500 7.3000
7.0667 4.1000
3.2667 0.3333
5.0167 0.8500
3.3333 5.4333
9.3833 7.3667
4.3000 3.4167
6.9167 5.4333
4.8167 3.2000
3.4500 9.4333
5.5833 1.0500
5.5833 3.4833
5.7333 3.2167
5.1000 9.8000
1.9500 2.1500
7.1500 5.6000
6.9167 1.0667
6.8167 1.6500
2.5000 6.9333
2.9833 4.7500
6.4500 6.5167
9.3833 5.5167
3.5667 6.0667
0.7667 6.4167
4.4333 0.7167
2.8000 8.6167
9.3000 6.4667
2.5667 8.8333
5.1833 9.1833
1.3000 3.3667
0.5167 6.1167
8.7667 4.9000
3.8167 0.8333
2.9167 4.6333
3.3500 5.6833
2.1833 6.8000
0.7000 6.3333
3.8333 3.3167
2.6833 3.5667
6.5333 6.1000
2.7000 8.1500
9.3333 3.5167
3.1667 0.6333
9.1000 2.7333
9.3167 2.5833
0.6167 4.9000
9.5833 7.4333
5.6667 9.0833
4.4833 2.8167
3.2167 5.9000
6.1167 6.8000
4.4667 3.1500
3.8000 9.5667
0.7000 4.2833
6.0833 8.6667
9.0833 5.9167
1.1500 3.8500
1.0000 6.3833
3.9833 6.4667
2.7500 0.8000
2.4833 1.9667
5.9000 3.5833
4.0500 6.5833
3.5667 4.5000
5.4333 6.9167
2.5667 3.1000
6.0833 1.7500
8.6833 7.4833
9.3333 6.0500
8.2500 1.1667
2.2667 2.2333
8.9167 7.6333
6.4167 6.1167
9.5333 7.1833
6.7667 6.4167
6.4667 3.8000
5.6167 1.8500
9.1333 1.9500
1.6000 6.7000
7.3000 8.1667
3.7833 3.3833
2.9833 1.1500
1.3333 3.9500
5.2000 0.8833
4.3667 9.4000
7.2667 4.6167
9.0000 5.4167
6.6000 1.4500
6.2833 5.8833
1.8000 3.2333
2.5000 2.0500
9.1667 2.1000
6.1833 6.8500
1.7667 3.4500
3.4667 6.3667
3.6000 9.1833
0.4667 4.0333
7.0167 4.0000
9.0167 5.0333
1.3000 6.8333
8.7000 1.2667
1.5000 6.6500
3.5500 9.4000
2.4167 3.1833
7.0500 5.5667
2.0833 1.3667
5.5167 3.1833
5.1667 7.0500
8.1167 8.0833
9.1167 1.7833
9.1667 5.9500
2.6500 8.1833
4.6000 6.3833
5.9500 1.9167
9.2167 7.9333
3.1667 5.6000
5.2333 6.9000
5.7167 7.0500
8.5500 5.1667
2.9667 0.3833
0.3000 4.9833
7.8333 1.2333
3.3667 4.1500
7.6833 4.6833
6.8667 6.0000