2
1.94449 0.0369949
0.0830901 1.99119
1.21401 0.000132142
0.43782 0.00756344
0.0229553 0.751045
0.495314 0.63515
0.0827897 0.189765
0.13035 0.143825
0.0221808 0.106064
1.77139 0.371345
1.94962 1.42335
1.30711 0.796596
0.16503 1.07369
1.24211 0.368703
1.83083 0.0603062
1.43145 1.88109
0.371723 0.0110546
0.337399 1.16766
0.541177 0.440952
0.272977 0.862433
