17 45, 0.0040504494617, 0.00968960011439
17 42, 0.0101924482216, 0.0120947288725
36 81, 0.00220593000412, 0.005100175872
10 25, 0.00499402871184, 0.00509531510553
17 48, 0.00156108830067, 0.00485731624633
2 6, 0.000748937451011, 0.00775732015082
6 29, 0.00368475245437, 0.00508250164814
20 39 41, 0.0173231139474, 0.0173231139474
17 30, 0.00437861233944, 0.00693164448332
55 71, 0.00331857329682, 0.00579252367724
30 89, 0.00349356203156, 0.00506635459788
0 80, 0.0124381438743, 0.0239916831608
3 72, 0.00053885247328, 0.044576540807
37 95, 0.00775122189195, 0.0144571509311
37 96, 0.0133828082927, 0.0371091684741
21 34 88, 0.0324752138134, 0.0338017012976
64 84 94, 0.0122916532932, 0.0125370916829
12 29 51, 0.0453868335066, 0.0455071888025
26 37 85, 0.0377267460853, 0.0385365947001
10 25 58, 0.00491168731512, 0.00506725814299
1 27, 0.000546042479126, 0.00646967893719
59 73, 0.00244054132162, 0.00828904695131
15 36, 0.00149759650658, 0.00230403644248
31 43, 0.00394263294632, 0.0319795053084
35 77 97, 0.0562783962729, 0.0573642563825
14 32, 0.00289204902325, 0.00932601917217
54 87, 0.0865371559897, 0.0910687496346
60 77, 0.0345463850423, 0.0373865792338
37 41 78 85, 0.0341751286432, 0.0342159489449
0 26 80 96, 0.0249857107503, 0.026489483229
95 96, 0.0113309335346, 0.0319775879531
1 76 81, 0.00457838519625, 0.00492601919769
19 28 67, 0.00224112694174, 0.00224112694174
18 27, 0.00660218052556, 0.00739055331702
2 33 51, 0.0188785888263, 0.0191866432913
12 63, 0.00286780847254, 0.0263739720846
11 35 77, 0.034732171406, 0.0347924366238
12 66, 0.0343773293653, 0.0450208607473
84 94, 0.0124789760668, 0.0125984521264
42 69, 0.00226373113458, 0.00279603066767
64 86, 0.0808007136085, 0.0942154905438
64 84, 0.0117656731027, 0.0790146125064
4 79, 0.00885747725857, 0.0342544211233
64 70 86, 0.0931437612462, 0.0967653170314
5 9, 0.0176270663125, 0.0240134519804
53 81, 0.000246360037772, 0.00243050904179
67 71, 0.00592406289808, 0.0138172537113
64 68, 0.0141779208092, 0.0183450686092
33 83, 0.015219170308, 0.0166380681018
26 96, 0.0269255836803, 0.0361447231377
40 47 72, 0.0334577528601, 0.0334577528601
34 44 83, 0.0350409779349, 0.0352827751874
52 72, 0.0298376058212, 0.0410028566708
34 56, 0.0513550239926, 0.0534997200735
21 35 82, 0.0247755748849, 0.0247755748849
4 63 91, 0.00420729797616, 0.00420729797616
1 18, 0.00632906857703, 0.00650476398847
24 55, 0.00563816354271, 0.00575012163848
20 54 95, 0.0216785573705, 0.0221891770432
63 68, 0.0296854263587, 0.0393709312969
7 54 87, 0.09284374431, 0.0945635663281
5 16 63, 0.0411558169052, 0.0417218021513
11 35, 0.0115325254688, 0.0342725425349
11 34, 0.0152770184731, 0.0190631942879
55 66 91, 0.010853565302, 0.0109281400871
55 80, 0.000717324902204, 0.00414846660979
22 29 61, 0.00857402640155, 0.00857402640155
10 69, 0.000294645760102, 0.00589953807428
9 14, 0.00588892391742, 0.024374372547
17 48 89, 0.00500800105559, 0.00500800105559
30 75, 0.00929318226385, 0.0126604028974
31 43 77, 0.0316742294183, 0.0331246637052
31 77, 0.0168024276996, 0.0313237867596
49 56 72, 0.0475403159891, 0.0484466413497
38 90 95, 0.0460352553224, 0.0476569800654
46 94, 0.00115058093151, 0.0096874076714
4 24 91, 0.00445938654922, 0.00460129158462
28 65 93, 0.0037922420703, 0.0037922420703
0 50, 0.00284814091278, 0.0164473899382
22 84, 0.00151223213733, 0.0119108887604
16 63, 0.0398440691362, 0.0411691062068
16 68, 0.000357690350178, 0.0391480895554
75 93, 0.00234082809968, 0.00656821484706
75 90, 0.00137125301513, 0.00525272604551
54 57 87, 0.0761235508468, 0.0862650102353
15 42, 0.000412058490755, 0.00281621375265
10 45 58, 0.00386222816596, 0.00386222816596
3 23, 0.0099107338084, 0.0360423130678
14 32 79, 0.00580647824245, 0.00580647824245
18 69, 0.00295921269519, 0.00806825323285
90 93, 0.00232892523844, 0.00267514664375
58 62 67, 0.0119485579591, 0.0122173907301
90 96, 0.0152511369387, 0.0306853055005
90 95, 0.0312911292476, 0.0459083791804
5 79, 0.0400396409983, 0.0416082784331
37 95 96, 0.0146945005082, 0.0147630907665
70 97, 0.140916798343, 0.375694611443
5 14 79, 0.0392379807492, 0.0406534649357
2 43, 0.00834467179626, 0.0175503028194
25 58, 0.00128032814899, 0.00862569574486
8 30 75, 0.00869404244774, 0.00919401113759
19 28, 0.00100424851305, 0.00457330516264
19 67 89, 0.00488117927456, 0.00513102158218
23 85, 0.0148199512348, 0.0331539575549
1 74 76, 0.00157600942746, 0.0016266933478
77 86, 0.0159062487653, 0.0460136201991
11 13, 0.0026003790836, 0.0148291449984
28 93, 0.00332694730277, 0.00466280416153
12 46 63, 0.0262744002753, 0.0274507252397
50 90 96, 0.014443027765, 0.0150183600346
20 54, 0.00891182640406, 0.0212783663455
49 72, 0.0429355147989, 0.0471908977679
20 57, 0.00487548916761, 0.0166070445265
4 24 79, 0.0100589171212, 0.0100589171212
50 96, 0.00863351525145, 0.0142728279886
47 72, 0.0324540721494, 0.0337986734862
38 75 90, 0.00535911797243, 0.00535911797243
50 90, 0.00324925251362, 0.0144259263207
26 66, 0.000145043367394, 0.0124163906458
4 5 16 63 79, 0.0418074835687, 0.0420595685965
16 64 68, 0.0163673457284, 0.0181141223471
47 87, 0.0258054214245, 0.276383236382
20 39 57, 0.0168995609761, 0.0168995609761
29 61, 0.00275658133016, 0.00861667528686
11 34 35, 0.0194711413938, 0.0198102930244
4 5 63 79, 0.0411165453104, 0.0417130503036
3 78, 0.00558599540321, 0.00963752609032
34 44, 0.0220331840234, 0.0344185452793
3 39 78, 0.00819919130433, 0.00819919130433
8 93, 0.00437254288184, 0.00634206001453
18 32 69, 0.00823398407624, 0.00823398407624
9 59, 0.00160432962035, 0.00805202260215
0 80 96, 0.0242326043004, 0.0246520909976
56 98, 0.0290652781492, 0.0528002612911
0 96, 0.000492836335222, 0.0259221732098
10 42 69, 0.00283118574827, 0.00288798619491
24 62, 0.00849216507157, 0.0144275634733
24 67, 0.0136700642373, 0.0145512066107
51 85, 0.00230175421705, 0.0256903832325
26 37 96, 0.035939991525, 0.0367056547332
24 91, 0.00206346224302, 0.00559816170831
22 61, 0.00827981530274, 0.00887987916535
23 37 41 78, 0.0286262403654, 0.0332380056517
40 87, 0.00393300061976, 0.0304258831622
39 72, 0.00288037158748, 0.00980253813689
39 78, 0.00835987076868, 0.00918602671047
49 56 83, 0.0397556567009, 0.0398249201094
46 63 68, 0.0287548212808, 0.0298105774455
36 53, 0.00242412801639, 0.00243438317859
40 72, 0.0106381905479, 0.0331177878392
23 41 78, 0.0273509955418, 0.0283869599293
58 67, 0.0088836281506, 0.0118185954948
58 62, 0.00972492275077, 0.0119195721358
76 81, 0.00333068722877, 0.00457446978976
15 42 53, 0.00280616585315, 0.00280616585315
41 78, 0.00424016584871, 0.0278708132844
55 71 80, 0.00429290324412, 0.0043476351891
1 18 27, 0.00655379298946, 0.00657436505454
38 75, 0.00177903422004, 0.0100383721479
47 52 72, 0.0304044782141, 0.0318713534592
28 50, 0.00461664769235, 0.0164341498036
2 6 43, 0.00752899287276, 0.0086657867364
18 27 73, 0.00739313505022, 0.00746671224966
68 94, 0.00281068125894, 0.0146692375661
64 94, 0.00209409164666, 0.0135823392062
40 47 87, 0.0309590893692, 0.0314985658949
24 55 91, 0.00576922372833, 0.00576922372833
26 66 85, 0.0119904088272, 0.0124103877763
2 29 51, 0.0417383583397, 0.0443472536444
48 67 89, 0.00824128539047, 0.0083773295005
25 58 62, 0.00855334316917, 0.0104237601019
12 63 91, 0.0203526187834, 0.0225288620243
45 58, 0.00369536219753, 0.0041640829089
0 50 96, 0.00823213627528, 0.00908454188177
33 92, 0.00801213245203, 0.0165857060558
17 89, 0.00460215303158, 0.00502863187703
3 23 78, 0.00983985407166, 0.00983985407166
19 67, 0.000310542471046, 0.00499795852986
23 49, 0.00638625553705, 0.0404921218278
3 23 72, 0.0356197823776, 0.0424873745516
34 56 83, 0.0512420735931, 0.0519450428618
83 92, 0.0138850688794, 0.0170818781505
34 56 88, 0.0532643987322, 0.0540721024467
22 84 94, 0.0120721475162, 0.0123574561058
38 95, 0.0475119172662, 0.0894159274278
6 43, 0.00162931054758, 0.00732981867678
21 82, 0.0242909989593, 0.167750893391
38 90, 0.00546941913242, 0.0467558428815
21 88, 0.0228968980374, 0.160601938796
26 37, 0.0365071725367, 0.0379888614572
71 80, 0.00438306512708, 0.0165781699238
10 58, 0.00266109704295, 0.00476162181755
31 77 86, 0.0179999464023, 0.0181659936663
20 37 41, 0.0121118081272, 0.0121118081272
18 59 73, 0.00801173276291, 0.00821768811438
29 51, 0.0443267651951, 0.045388985201
5 16 63 79, 0.0417037545453, 0.0424168895361
22 94, 0.00958036824912, 0.0119033113911
70 77 97, 0.13906234261, 0.140877225377
50 71 80, 0.0170340389263, 0.0170340389263
15 36 69, 0.00237919006701, 0.00237919006701
11 60 77, 0.0334333999138, 0.0340787724601
15 53, 0.00126079586318, 0.00268740907269
32 79, 0.00276448750603, 0.00576295430205
3 49 72, 0.0453280767025, 0.0453280767025
2 29, 0.00524260345584, 0.0423309072024
25 32, 0.00179966101455, 0.00514576730277
13 60, 0.00189932191331, 0.00708516646199
36 69, 0.00207002357791, 0.00290969700176
70 86, 0.0306347163252, 0.0982667383358
23 49 72, 0.0405302976112, 0.0424289512556
14 59, 0.00837194185632, 0.0112456680848
21 82 88, 0.170602503043, 0.186009121834
39 41, 0.00874578471731, 0.0172526848018
39 40, 0.00573207252237, 0.0146109691636
2 51, 0.0193904695257, 0.0418867074739
89 93, 0.00476543861656, 0.00537840305691
40 47, 0.0310966150523, 0.0332249893753
12 29 51 66, 0.0457475338608, 0.0459754951864
22 29, 0.00731483028178, 0.0167895950234
77 97, 0.0577982242869, 0.138556576455
12 46, 0.0141403974936, 0.0258488566314
49 92, 0.00409852748217, 0.0136361503716
19 89 93, 0.00556237094734, 0.00556237094734
11 60, 0.00803457044446, 0.0333850139059
8 30 89, 0.00321828523027, 0.00338448243839
28 71 80, 0.0167277468808, 0.0167277468808
48 58 67, 0.00955961505514, 0.00961855487819
57 87, 0.0184237258134, 0.0758180114517
28 65, 0.00373777814628, 0.00452996154435
28 67, 0.00229074161046, 0.00630889912582
39 40 72, 0.010381684667, 0.010406004304
0 26 80, 0.024198441024, 0.024198441024
40 57 87, 0.018045716418, 0.0183443097385
55 66, 0.0025790551464, 0.0106124717285
33 44, 0.0137352233617, 0.016730589304
33 43, 0.0186733005154, 0.024940061381
18 59, 0.00811956591426, 0.0113716717301
50 80, 0.0170454978378, 0.0170454978378
35 82, 0.0121549280169, 0.0248382587754
19 89, 0.00284665625888, 0.00544143568785
62 67, 0.0122524322427, 0.0146359265077
43 77, 0.0334823734222, 0.0367945449331
35 77, 0.0354586180621, 0.0552414604572
61 84, 0.00903627625997, 0.0137068874887
52 56, 0.0299973771392, 0.0517442728035
24 62 67, 0.0145813374615, 0.0147132403754
56 88, 0.0313739351775, 0.0534288446336
15 36 53, 0.00242637295443, 0.00242637295443
27 74, 0.00159951318867, 0.00254373881975
27 73, 0.00349962077436, 0.00745772845675
56 83, 0.0293861369009, 0.0524393359514
24 79, 0.00874984771279, 0.00996535243643
10 32 69, 0.00597332817156, 0.00605772692059
12 66 91, 0.0323091809552, 0.0351064990957
24 71, 0.00322695285386, 0.0131518174012
8 89, 0.000980643260122, 0.00474589260082
51 92, 0.00151555944076, 0.00777429621593
28 67 71, 0.00644594564251, 0.00644594564251
31 84 86, 0.0157325547153, 0.0157325547153
80 96, 0.0254237725537, 0.0254237725537
49 85 92, 0.0103237524313, 0.0103237524313
10 25 32, 0.00514221273665, 0.00514221273665
48 58, 0.0037761216144, 0.00934888706551
14 18 59, 0.0113583811938, 0.0113583811938
14 18, 0.00903192094846, 0.0112173588212
16 63 68, 0.034273966988, 0.0405681022911
20 95, 0.00606931705949, 0.021426555354
1 27 74, 0.00172508115099, 0.00172508115099
50 65, 0.00120764072699, 0.00465571246662
21 34 35, 0.0187593380468, 0.0187593380468
15 42 69, 0.00221805180116, 0.00221805180116
15 69, 0.00178632751844, 0.00232510009215
1 18 36, 0.0062202830199, 0.00643575231382
34 83, 0.0355352477051, 0.0505544621872
12 22 46, 0.0176637290922, 0.0177216343927
74 76, 0.00149270501557, 0.0021309281227
34 88, 0.0342823103714, 0.0524663104142
49 83 92, 0.0140304229174, 0.0140304229174
13 34, 0.0109837441178, 0.0206886743966
82 88, 0.183160060195, 0.639602163904
42 45, 0.00145026346956, 0.0103759800635
54 57, 0.00606291802122, 0.083110987445
66 85, 0.0118497981358, 0.0266682112458
33 51 92, 0.00801830418195, 0.00801830418195
44 60, 0.00231552034713, 0.0169292930899
33 44 60, 0.0171097438106, 0.0171480519706
45 48, 0.00178269442693, 0.00410245498184
32 69, 0.00612468909358, 0.00833679680248
0 50 80, 0.0165517538414, 0.0166659790735
34 35, 0.018120536424, 0.0193983006986
23 78, 0.00178656657385, 0.0327558069267
28 50 71 80, 0.016881049057, 0.0168976257988
49 56, 0.0396182038524, 0.0475444745089
5 9 14, 0.0244504142997, 0.0245586994543
1 36, 0.00496495811539, 0.00625910743895
10 32, 0.00462979824596, 0.00587860115179
67 89, 0.00525495884333, 0.00821852776106
8 30, 0.000441258017516, 0.00877371192646
14 18 32, 0.00940368544444, 0.00948783760851
10 42, 0.00289010805691, 0.00289010805691
10 45, 0.00209662725536, 0.00373852170614
45 48 58, 0.00421929676168, 0.00421929676168
56 72, 0.0366897825785, 0.0479494958073
5 14, 0.0245016997584, 0.0390943808022
24 67 71, 0.0132179511988, 0.0137029385159
5 16, 0.00366408407568, 0.0413448906769
37 85, 0.0342478862116, 0.0386506043831
70 77 86, 0.0450353419, 0.0461445628783
44 83, 0.0056463823096, 0.0347492263186
48 89, 0.00467116254369, 0.00810785577816
1 36 76 81, 0.00501624836136, 0.00501624836136
64 84 86, 0.0734274109585, 0.0829953908564
46 63, 0.0272687681158, 0.0286156166941
75 90 93, 0.00269415479374, 0.00269415479374
46 68, 0.00216076210574, 0.0289741655614
22 46, 0.00896838005875, 0.0179620759854
2 33, 0.00646940567982, 0.0188928566336
36 53 81, 0.00238641845066, 0.00242110383943
32 62, 0.00231123922306, 0.00290115336565
36 76, 0.00511321593597, 0.00511321593597
36 76 81, 0.00509459286539, 0.00509459286539
39 57, 0.015172625005, 0.016974957892
3 23 49 72, 0.0415121567877, 0.0457359665768
20 54 57, 0.00928729328836, 0.00944240922321
40 57, 0.0103900063728, 0.0174116989512
54 95, 0.0224405247251, 0.0926075383612
18 36, 0.00105378737173, 0.00629970829215
18 32, 0.0082242007843, 0.00942051576829
2 33 43, 0.0178816536647, 0.0184645339715
49 83, 0.0119822271911, 0.0389750890319
31 61 84, 0.0137083619744, 0.0137187896196
49 85, 0.0104650639471, 0.0148867925112
11 77, 0.020739647386, 0.0337072268494
7 54, 0.0156804057593, 0.0918481671599
84 86, 0.0148091098882, 0.0749633641307
4 63 79, 0.0335586273909, 0.0412828586381
0 26 96, 0.0259822140073, 0.0268088038203
28 71, 0.00610560526709, 0.016515711128
4 63, 0.000850197849058, 0.0396702788506
20 39, 0.0162383442715, 0.0170446163025
33 51, 0.00669901418898, 0.0187355315097
20 37, 0.010259846528, 0.0119191434438
64 70, 0.0957776080492, 0.0975493491936
35 97, 0.0137744583567, 0.0557399710793
64 68 94, 0.012564170035, 0.0141484823578
85 92, 0.00365271389335, 0.010185473528
21 35, 0.0181965154436, 0.0238034785722
21 34, 0.00246032406156, 0.0326429788601
26 85, 0.0125091591742, 0.0377732200515
26 80, 0.00193996582675, 0.0261048426212
19 93, 0.00480356743156, 0.00546526193027
5 63 79, 0.0415409163851, 0.0415409163851
43 60, 0.0239550033614, 0.0368883165565
43 61, 0.00274888676073, 0.00499975766907
51 85 92, 0.00363474082481, 0.00363474082481
62 79, 0.00142863343621, 0.00907655620642
1 36 76, 0.0049976501527, 0.00508984134812
51 66 85, 0.0239554039897, 0.026546948971
24 62 79, 0.0089855170669, 0.0089855170669
8 75, 0.00647731023497, 0.0085999697929
10 42 45, 0.00289250351956, 0.00289250351956
63 79, 0.041852641404, 0.0421901277308
37 41 78, 0.0261334265486, 0.0334093638373
9 14 59, 0.00820101462785, 0.00822434777501
12 91, 0.0220374055392, 0.0334545589954
6 61, 0.00250620951843, 0.00377559334035
37 41, 0.0017446018772, 0.0337955442827
51 66, 0.0265159289344, 0.0462441308818
47 52, 0.000994113151741, 0.309936300702
56 88 98, 0.033239013974, 0.033239013974
1 76, 5.33363266348e-05, 0.00499426515318
1 74, 0.00169107708177, 0.00169107708177
48 67, 0.00821147748659, 0.00949165277131
22 61 84, 0.00908801320063, 0.00915172257924
70 77, 0.0455043220505, 0.136034592233
52 56 98, 0.0528778717145, 0.0528778717145
31 61, 0.00476606979034, 0.0136046182178
12 51 66, 0.0448012265231, 0.0455776379589
4 91, 0.00236069298149, 0.00433969290946
17 42 45, 0.00929805331037, 0.0101894954174
19 28 93, 0.00475874916019, 0.00477292346506
65 93, 0.000802672229205, 0.00375037362218
3 39, 0.00234832811527, 0.00795988801444
65 90, 0.00112990033916, 0.00310441658232
65 90 93, 0.00227665317508, 0.00227665317508
18 73, 0.0062617300839, 0.00811904356261
47 52 98, 0.193080520149, 0.318345009816
33 83 92, 0.0171059954696, 0.0171059954696
42 53, 0.00292868952019, 0.00621920919535
52 98, 0.0511395892879, 0.194262100657
23 37 78 85, 0.0334879843972, 0.033912202859
4 24, 0.00458697223238, 0.0098740449578
14 79, 0.00581330290962, 0.0394699746622
0 28 50 80, 0.0168080116439, 0.0169250897889
82 97, 0.00966635815924, 0.0333605008816
13 44, 0.00541107905321, 0.020587805441
25 62, 0.000432685612188, 0.00936157268357
22 46 94, 0.00967062301779, 0.00967062301779
66 91, 0.0110957543596, 0.0347721770032
63 91, 0.00431211040453, 0.0203513719828
26 80 96, 0.0257613090248, 0.0268079330767
12 22, 0.0160630518795, 0.0176016599004
12 29, 0.012765511368, 0.0449127159765
90 95 96, 0.030420776151, 0.0321301305862
7 87, 0.0945818226625, 0.465631776997
55 91, 0.00474358317018, 0.0106384570402
31 84, 0.0137178021398, 0.0156181989697
31 86, 0.00590604110285, 0.0174504262143
88 98, 0.011508235174, 1.06598896439
52 56 72, 0.0413641949425, 0.0417334043563
12 22 29, 0.016654982364, 0.0170997236069
33 60, 0.0171917053465, 0.025056250379
20 41, 0.0121372326054, 0.0168880647177
39 40 57, 0.0151941658847, 0.0151941658847
23 37 78, 0.0313153335028, 0.0329950873627
13 34 44, 0.0210917033083, 0.0216057796501
33 43 60, 0.0253220013068, 0.025591931152
