68 72, 0.0177251390575, 0.0177251390575
44 78, 0.0172573858246, 0.0172573858246
17 69, 0.0112200545463, 0.0792661536179
27 67, 0.020224571808, 0.020224571808
0 15, 0.0278943830184, 0.0278943830184
33 80, 0.00751539114915, 0.00751539114915
11 33, 0.0168718788881, 0.0168718788881
5 64 80, 0.0733245895212, 0.0733245895212
11 70, 0.00944221482605, 0.00944221482605
67 92, 0.0422040628638, 0.0422040628638
0 19, 0.0166105022839, 0.0166105022839
15 80, 0.0991067048746, 0.0991067048746
27 86, 0.0505198584919, 0.0505198584919
38 97, 0.0326236822713, 0.0326236822713
27 81, 0.0444815150049, 0.0444815150049
39 76 91, 0.037432703276, 0.037432703276
25 63, 0.03042798475, 0.03042798475
33 70, 0.0216755984665, 0.0216755984665
49 59, 0.0159463578653, 0.0159463578653
18 46, 0.0122907214956, 0.0122907214956
2 37, 0.0176367015745, 0.0176367015745
53 57, 0.0364820465925, 0.0364820465925
89 99, 0.0225501670992, 0.0225501670992
59 68, 0.022763343617, 0.022763343617
38 42, 0.0029926691397, 0.0483374782775
65 71 85, 0.0637417242715, 0.0637417242715
2 77, 0.0126605689539, 0.0126605689539
50 93, 0.00456902349612, 0.00456902349612
10 15, 0.0210543134477, 0.0564368466265
5 64, 0.0540367663682, 0.0540367663682
24 79, 0.0190204683273, 0.0190204683273
6 15, 0.0758326459085, 0.0758326459085
6 17, 0.066042716986, 0.066042716986
55 96, 0.0729021920302, 0.0729021920302
23 85, 0.0197892735465, 0.0197892735465
39 91, 0.0507004901477, 0.0671682770194
85 87, 0.0361471836109, 0.0361471836109
50 73, 0.031107939959, 0.031107939959
91 96, 0.0577572058334, 0.0577572058334
3 34 44, 0.0345154853642, 0.0345154853642
13 30, 0.0233910942987, 0.0233910942987
34 45, 0.0139141988442, 0.0139141988442
22 35, 0.0167986975022, 0.0167986975022
8 55, 0.0442605238322, 0.0981190183129
3 34, 0.0133829592842, 0.0274642495618
23 47, 0.0304800002929, 0.0304800002929
71 85, 0.0585561042352, 0.0585561042352
43 46, 0.00859403417455, 0.00859403417455
4 73, 0.0122530400717, 0.0122530400717
