3
3.682 1.829 -1.176 2.4025
3.695 1.539 -2.616 2.89
2.549 2.211 -3.388 2.89
2.75 3.258 -4.005 2.3104
3.842 2.786 -0.885 1.44
4.637 1.918 -3.014 1.44
3.673 0.467 -2.813 1.44
1.352 1.609 -3.378 2.4025
0.155 2.137 -4.043 2.89
-1.143 1.741 -3.314 2.89
-1.221 0.704 -2.656 2.3104
0.132 1.704 -5.515 2.89
1.256 0.736 -2.871 1.44
0.208 3.227 -4.026 1.44
0.119 0.618 -5.592 1.44
-0.758 2.102 -6.006 1.44
1.011 2.089 -6.034 1.44
-3.301 3.08 -0.169 2.4025
-3.164 3.866 1.062 2.89
-1.854 3.565 1.808 2.89
-1.5 2.4 1.986 2.3104
-4.368 3.609 1.974 2.89
-3.528 2.099 -0.078 1.44
-3.192 4.925 0.813 1.44
-5.295 3.698 1.408 1.44
-4.305 2.611 2.405 1.44
-4.379 4.338 2.784 1.44
2.361 5.119 2.476 2.4025
3.443 5.901 1.858 2.89
3.641 5.424 0.407 2.89
4.146 4.327 0.187 2.3104
4.752 5.773 2.67 2.89
5.836 6.709 2.106 2.89
4.546 6.095 4.16 2.89
2.566 4.169 2.763 1.44
3.182 6.961 1.858 1.44
5.118 4.749 2.589 1.44
5.508 7.747 2.175 1.44
6.759 6.594 2.674 1.44
6.046 6.473 1.063 1.44
4.092 7.08 4.276 1.44
3.903 5.346 4.621 1.44
5.504 6.082 4.681 1.44
1.426 5.899 -3.746 2.4025
0.479 6.522 -4.675 2.89
-1.0 6.274 -4.302 2.89
-1.512 5.175 -4.511 2.3104
0.79 6.042 -6.102 2.89
-0.075 6.665 -7.157 2.89
0.056 7.923 -7.634 2.89
-1.265 6.117 -7.801 2.89
-0.969 8.206 -8.512 2.4025
-1.817 7.125 -8.654 2.89
-1.947 4.876 -7.738 2.89
-2.989 6.914 -9.404 2.89
-3.115 4.648 -8.498 2.89
-3.639 5.665 -9.325 2.89
1.738 4.958 -3.95 1.44
0.654 7.599 -4.688 1.44
1.833 6.267 -6.337 1.44
0.672 4.957 -6.15 1.44
0.827 8.619 -7.337 1.44
-1.117 9.097 -8.971 1.44
-1.569 4.095 -7.096 1.44
-3.383 7.699 -10.034 1.44
-3.611 3.689 -8.437 1.44
-4.538 5.485 -9.898 1.44
-3.734 7.421 -1.34 2.4025
-4.061 7.957 -0.014 2.89
-2.855 7.942 0.945 2.89
-1.989 7.071 0.883 2.3104
-5.243 7.166 0.586 2.89
-6.607 7.392 -0.01 2.89
-6.994 8.462 -0.744 2.89
-7.788 6.535 0.083 2.89
-8.311 8.327 -1.13 2.4025
-8.852 7.154 -0.648 2.89
-8.07 5.289 0.698 2.89
-10.127 6.569 -0.763 2.89
-9.345 4.691 0.588 2.89
-10.372 5.328 -0.14 2.89
-3.552 6.429 -1.4 1.44
-4.362 9.002 -0.103 1.44
-5.032 6.101 0.504 1.44
-5.314 7.378 1.654 1.44
-6.369 9.305 -1.001 1.44
-8.832 8.985 -1.691 1.44
-7.293 4.779 1.247 1.44
-10.907 7.064 -1.323 1.44
-9.535 3.738 1.061 1.44
-11.345 4.865 -0.221 1.44
0.294 9.557 2.163 2.4025
1.493 10.371 1.932 2.89
2.193 9.996 0.611 2.89
2.32 8.818 0.285 2.3104
2.455 10.208 3.125 2.89
1.916 10.639 4.46 2.89
1.976 11.893 4.964 2.89
1.165 9.855 5.438 2.89
1.331 11.947 6.183 2.4025
0.799 10.719 6.519 2.89
0.734 8.507 5.516 2.89
0.047 10.27 7.621 2.89
-0.033 8.048 6.61 2.89
-0.372 8.925 7.663 2.89
0.343 8.576 1.912 1.44
1.207 11.424 1.871 1.44
2.752 9.16 3.2 1.44
3.358 10.789 2.929 1.44
2.444 12.734 4.473 1.44
1.227 12.768 6.76 1.44
0.987 7.827 4.717 1.44
-0.212 10.95 8.419 1.44
-0.386 7.028 6.633 1.44
-0.96 8.567 8.496 1.44
2.253 10.313 -3.426 2.4025
1.723 10.53 -4.775 2.89
0.191 10.455 -4.89 2.89
-0.497 9.952 -4.004 2.3104
2.347 9.356 -3.109 1.44
2.064 11.493 -5.163 1.44
2.137 9.753 -5.419 1.44
-3.747 -1.987 -0.549 2.4025
-3.869 -1.962 -2.013 2.89
-2.778 -2.769 -2.734 2.89
-3.017 -3.91 -3.136 2.3104
-3.878 -2.874 -0.08 1.44
-4.835 -2.4 -2.265 1.44
-3.868 -0.943 -2.402 1.44
-1.588 -2.184 -2.922 2.4025
-0.44 -2.831 -3.567 2.89
0.906 -2.319 -3.02 2.89
1.026 -1.181 -2.568 2.3104
-0.529 -2.672 -5.092 2.89
-1.46 -1.234 -2.589 1.44
-0.484 -3.9 -3.35 1.44
-0.53 -1.617 -5.364 1.44
0.325 -3.157 -5.566 1.44
-1.442 -3.138 -5.466 1.44
3.3 -3.082 0.146 2.4025
3.26 -3.632 1.505 2.89
2.007 -3.193 2.28 2.89
1.659 -2.012 2.27 2.3104
4.527 -3.222 2.263 2.89
3.527 -2.102 0.041 1.44
3.277 -4.718 1.45 1.44
5.41 -3.419 1.657 1.44
4.489 -2.163 2.511 1.44
4.603 -3.793 3.19 1.44
-2.136 -4.571 3.529 2.4025
-3.256 -5.445 3.144 2.89
-3.564 -5.237 1.649 2.89
-4.091 -4.194 1.273 2.3104
-4.502 -5.164 4.014 2.89
-5.618 -6.179 3.711 2.89
-4.184 -5.213 5.518 2.89
-2.326 -3.584 3.653 1.44
-2.989 -6.489 3.316 1.44
-4.88 -4.169 3.777 1.44
-5.279 -7.189 3.941 1.44
-6.498 -5.956 4.316 1.44
-5.907 -6.133 2.661 1.44
-3.716 -6.164 5.776 1.44
-3.513 -4.397 5.787 1.44
-5.1 -5.099 6.098 1.44
-1.66 -6.469 -2.502 2.4025
-0.781 -7.256 -3.371 2.89
0.72 -6.955 -3.16 2.89
1.208 -5.915 -3.601 2.3104
-1.2 -7.039 -4.834 2.89
-0.411 -7.849 -5.821 2.89
-0.569 -9.171 -6.051 2.89
0.724 -7.434 -6.639 2.89
0.39 -9.615 -6.938 2.4025
1.218 -8.584 -7.335 2.89
1.401 -6.207 -6.853 2.89
2.33 -8.519 -8.196 2.89
2.507 -6.127 -7.726 2.89
2.975 -7.281 -8.392 2.89
-1.993 -5.578 -2.849 1.44
-0.949 -8.317 -3.177 1.44
-2.255 -7.296 -4.947 1.44
-1.093 -5.982 -5.086 1.44
-1.311 -9.796 -5.577 1.44
0.51 -10.575 -7.237 1.44
1.066 -5.32 -6.336 1.44
2.681 -9.407 -8.7 1.44
3.0 -5.177 -7.876 1.44
3.828 -7.214 -9.053 1.44
3.675 -7.566 -0.25 2.4025
4.103 -7.856 1.123 2.89
2.971 -7.66 2.15 2.89
2.097 -6.809 1.996 2.3104
5.321 -6.977 1.48 2.89
6.638 -7.316 0.835 2.89
6.976 -8.505 0.281 2.89
7.817 -6.465 0.684 2.89
8.26 -8.45 -0.22 2.4025
8.828 -7.213 0.0 2.89
8.135 -5.13 1.042 2.89
10.087 -6.667 -0.313 2.89
9.395 -4.57 0.731 2.89
10.369 -5.336 0.055 2.89
3.482 -6.6 -0.476 1.44
4.403 -8.902 1.202 1.44
5.096 -5.944 1.223 1.44
5.472 -6.994 2.561 1.44
6.34 -9.376 0.227 1.44
8.742 -9.202 -0.691 1.44
7.398 -4.524 1.545 1.44
10.826 -7.261 -0.831 1.44
9.612 -3.549 1.009 1.44
11.33 -4.901 -0.179 1.44
-0.068 -9.007 3.87 2.4025
-1.276 -9.841 3.88 2.89
-2.074 -9.706 2.567 2.89
-2.233 -8.605 2.045 2.3104
-2.148 -9.459 5.092 2.89
-1.508 -9.645 6.439 2.89
-1.522 -10.786 7.164 2.89
-0.692 -8.702 7.201 2.89
-0.788 -10.624 8.321 2.4025
-0.24 -9.36 8.389 2.89
-0.266 -7.365 7.001 2.89
0.588 -8.723 9.333 2.89
0.578 -6.722 7.935 2.89
1.0 -7.396 9.1 2.89
-0.143 -8.087 3.45 1.44
-0.988 -10.889 3.989 1.44
-2.445 -8.412 4.998 1.44
-3.058 -10.059 5.071 1.44
-2.019 -11.7 6.869 1.44
-0.636 -11.328 9.027 1.44
-0.582 -6.839 6.114 1.44
0.91 -9.25 10.219 1.44
0.925 -5.717 7.747 1.44
1.646 -6.897 9.809 1.44
-2.431 -10.746 -1.33 2.4025
-2.001 -11.208 -2.653 2.89
-0.483 -11.165 -2.893 2.89
0.266 -10.514 -2.166 2.3104
-2.507 -9.748 -1.184 1.44
-2.364 -12.222 -2.834 1.44
-2.467 -10.557 -3.394 1.44
