3
45.716 55.727 67.167
46.415 54.489 67.609
45.428 53.308 67.689
45.466 52.422 66.838
47.147 54.718 68.953
47.894 53.45 69.374
48.084 55.917 68.846
44.553 53.319 68.697
43.478 52.333 68.873
42.517 52.889 69.911
42.877 52.986 71.088
44.028 50.997 69.377
44.273 49.854 68.392
44.992 48.724 69.11
42.981 49.347 67.765
41.312 53.271 69.493
40.336 53.821 70.438
39.834 52.739 71.395
39.93 51.547 71.078
39.159 54.488 69.712
38.63 53.665 68.692
39.315 53.143 72.576
38.761 52.149 73.505
37.525 51.406 72.97
37.28 50.264 73.379
38.415 52.982 74.746
38.259 54.37 74.242
39.272 54.499 73.152
36.769 52.044 72.073
35.7 51.368 71.327
36.228 50.285 70.36
35.617 49.219 70.226
34.859 52.386 70.574
37.35 50.562 69.693
37.996 49.582 68.818
38.572 48.403 69.584
38.526 47.285 69.084
39.105 50.227 67.97
38.563 51.149 66.864
37.335 51.174 66.615
39.382 51.859 66.237
39.116 48.635 70.777
39.633 47.534 71.604
38.53 46.576 72.012
38.739 45.366 72.032
40.312 48.045 72.863
41.605 48.796 72.615
42.089 49.482 73.888
43.264 50.416 73.627
44.526 49.69 73.291
37.362 47.114 72.345
36.198 46.286 72.647
35.808 45.439 71.442
35.738 44.214 71.541
34.999 47.147 73.069
35.339 47.887 74.25
33.761 46.278 73.339
35.566 46.107 70.315
35.198 45.44 69.065
36.126 44.302 68.679
35.659 43.253 68.243
35.16 46.436 67.898
33.888 47.254 67.857
33.882 48.383 67.358
32.798 46.688 68.36
37.428 44.512 68.815
38.386 43.47 68.488
38.19 42.292 69.428
38.124 41.154 68.971
39.841 43.984 68.527
40.862 42.843 68.487
40.07 44.92 67.356
38.077 42.557 70.726
37.895 41.476 71.7
36.635 40.66 71.436
36.681 39.424 71.399
37.885 42.021 73.127
39.273 42.388 73.598
39.282 43.013 74.978
40.676 43.528 75.31
41.737 42.476 75.226
35.526 41.368 71.234
34.231 40.752 70.957
34.237 39.936 69.668
33.878 38.76 69.68
33.155 41.823 70.884
34.653 40.562 68.571
34.648 39.914 67.261
35.646 38.77 67.148
35.36 37.788 66.472
34.901 40.925 66.16
36.808 38.888 67.788
37.775 37.785 67.809
37.346 36.681 68.775
37.745 35.525 68.615
39.177 38.271 68.153
40.194 37.247 67.865
40.796 36.412 68.76
40.706 36.905 66.589
41.675 35.575 68.117
41.638 35.854 66.781
40.477 37.385 65.297
42.331 35.269 65.731
41.162 36.801 64.242
42.086 35.751 64.468
36.543 37.035 69.778
35.847 36.041 70.601
34.911 35.119 69.819
34.854 33.918 70.092
34.19 35.679 68.846
33.236 34.912 68.03
33.919 33.96 67.056
33.332 32.953 66.669
32.296 35.842 67.254
31.444 36.758 68.124
30.386 36.009 68.925
29.544 36.967 69.761
30.339 37.687 70.799
35.144 34.287 66.649
35.971 33.363 65.875
36.195 32.137 66.742
35.83 31.023 66.363
37.332 33.99 65.478
38.307 32.936 64.957
37.131 35.09 64.445
36.784 32.371 67.913
36.932 31.355 68.946
37.794 30.169 68.561
39.005 30.306 68.37
37.152 29.011 68.428
37.843 27.727 68.319
38.09 27.23 66.89
38.674 26.161 66.712
37.074 26.676 69.102
37.658 27.988 65.882
37.994 27.685 64.486
39.222 28.478 64.031
39.434 28.672 62.829
36.8 27.99 63.576
35.581 27.186 63.896
34.563 27.664 64.692
35.221 25.933 63.534
33.625 26.74 64.804
34.0 25.68 64.11
40.045 28.909 64.987
41.169 29.779 64.697
42.185 29.056 63.83
42.708 29.635 62.885
41.807 30.27 65.986
42.44 27.789 64.135
43.311 26.969 63.31
42.907 26.974 61.851
43.726 27.237 60.972
41.632 26.713 61.599
41.138 26.586 60.236
41.163 27.913 59.491
41.548 27.947 58.323
39.725 26.008 60.231
39.228 25.567 58.859
37.806 25.019 58.883
37.201 24.913 59.976
37.285 24.691 57.794
40.754 28.992 60.154
40.773 30.309 59.522
42.188 30.752 59.217
42.428 31.334 58.16
40.061 31.369 60.363
38.569 31.141 60.556
37.823 30.281 59.713
37.883 31.807 61.579
36.459 30.086 59.911
36.518 31.622 61.779
35.811 30.762 60.949
34.46 30.575 61.153
43.12 30.469 60.122
44.528 30.765 59.9
45.079 30.057 58.683
45.867 30.627 57.938
44.657 28.818 58.479
45.135 28.023 57.364
44.62 28.558 56.052
45.371 28.702 55.095
44.695 26.581 57.528
43.325 28.832 56.012
42.672 29.333 54.811
43.231 30.692 54.399
43.397 30.948 53.211
41.173 29.441 55.054
40.346 29.775 53.821
38.873 30.028 54.138
38.415 29.677 55.253
38.169 30.579 53.26
43.517 31.551 55.379
44.2 32.825 55.134
45.54 32.628 54.417
45.737 33.177 53.331
44.389 33.599 56.431
46.442 31.836 54.993
47.696 31.505 54.309
47.485 30.963 52.913
48.247 31.299 52.016
48.531 30.489 55.078
49.182 31.018 56.348
49.968 29.919 57.04
50.085 32.207 56.054
46.466 30.137 52.721
46.237 29.517 51.427
45.795 30.511 50.349
46.249 30.417 49.211
45.216 28.403 51.569
45.16 27.464 50.373
44.08 26.394 50.51
43.801 25.946 51.651
43.51 25.995 49.466
44.905 31.435 50.704
44.485 32.503 49.797
45.662 33.356 49.437
45.851 33.661 48.266
43.441 33.414 50.432
42.06 32.815 50.491
41.134 33.608 51.395
39.846 32.929 51.513
38.89 32.92 50.582
37.762 32.25 50.809
39.032 33.58 49.429
46.439 33.759 50.445
47.616 34.586 50.224
48.609 33.951 49.234
48.965 34.603 48.264
48.306 34.923 51.537
49.475 35.902 51.375
50.456 36.331 52.846
50.99 34.727 53.499
49.039 32.704 49.438
49.94 32.048 48.471
49.382 31.998 47.049
50.14 32.188 46.107
50.307 30.618 48.864
51.119 30.515 50.114
52.301 31.203 50.247
50.711 29.706 51.161
53.047 31.115 51.419
51.443 29.614 52.337
52.617 30.314 52.467
48.086 31.731 46.875
47.464 31.744 45.521
47.389 33.111 44.891
47.698 33.256 43.717
46.042 31.2 45.538
45.95 29.691 45.448
44.583 29.226 45.936
46.216 29.24 44.015
46.942 34.092 45.669
46.689 35.437 45.159
47.974 36.19 44.825
48.051 36.844 43.781
45.861 36.255 46.156
44.565 35.706 46.314
48.971 36.098 45.703
50.204 36.875 45.585
51.402 35.94 45.654
52.112 35.889 46.657
50.287 37.888 46.713
49.029 38.628 46.935
48.669 39.643 46.071
48.196 38.307 48.009
47.492 40.343 46.268
47.016 38.997 48.216
46.663 40.021 47.344
51.654 35.206 44.581
52.598 34.089 44.645
54.068 34.416 44.93
54.822 33.51 45.281
52.439 33.433 43.282
51.977 34.546 42.395
51.097 35.4 43.237
54.474 35.674 44.81
55.819 36.081 45.25
56.03 36.036 46.765
57.164 36.141 47.233
56.148 37.506 44.793
55.078 38.387 45.17
56.337 37.535 43.284
54.939 35.919 47.521
55.005 35.708 48.957
55.545 34.315 49.337
55.942 34.106 50.478
53.622 35.925 49.603
53.776 36.167 51.003
52.719 34.719 49.402
55.536 33.364 48.4
56.011 32.009 48.676
57.475 31.97 49.025
57.891 31.167 49.857
55.789 31.095 47.48
54.343 30.728 47.245
54.21 29.871 45.999
52.749 29.682 45.622
52.567 29.189 44.227
58.251 32.856 48.417
59.708 32.82 48.547
60.259 32.849 49.984
61.404 32.454 50.208
60.368 33.962 47.748
59.966 35.231 48.277
59.985 33.875 46.269
59.464 33.324 50.939
59.844 33.256 52.347
59.75 31.846 52.88
60.44 31.527 53.839
58.998 34.203 53.2
59.285 35.632 52.864
60.342 36.306 53.453
58.535 36.293 51.924
60.627 37.617 53.134
58.811 37.6 51.585
59.859 38.267 52.19
60.123 39.583 51.843
58.903 31.015 52.273
58.767 29.615 52.641
59.357 28.718 51.552
58.616 28.115 50.77
57.302 29.258 52.791
56.562 30.088 53.775
56.371 29.643 55.07
56.0 31.29 53.395
55.659 30.394 55.984
55.285 32.052 54.3
55.115 31.601 55.597
60.691 28.603 51.487
61.284 27.795 50.418
61.133 26.281 50.625
61.034 25.53 49.654
62.753 28.184 50.498
62.969 28.405 51.958
61.715 29.075 52.437
61.088 25.86 51.884
61.195 24.454 52.264
59.837 23.802 52.575
59.772 22.591 52.794
62.142 24.316 53.466
61.677 25.046 54.689
61.936 26.384 54.899
60.952 24.631 55.754
61.394 26.761 56.043
60.793 25.716 56.583
58.766 24.593 52.606
57.422 24.056 52.798
56.939 23.383 51.522
57.44 23.657 50.427
56.429 25.168 53.171
56.385 25.516 54.642
57.456 25.249 55.504
55.257 26.162 55.162
57.387 25.6 56.845
55.185 26.512 56.503
56.252 26.233 57.345
55.948 22.513 51.689
55.228 21.88 50.575
53.915 22.635 50.371
52.917 22.365 51.039
54.997 20.367 50.81
54.537 20.023 52.24
54.528 20.914 53.116
54.192 18.846 52.484
53.924 23.586 49.442
52.812 24.518 49.284
51.793 24.047 48.252
51.374 24.816 47.38
53.347 25.894 48.9
54.369 26.499 49.853
54.858 27.803 49.254
53.773 26.727 51.235
51.383 22.786 48.366
50.312 22.232 47.545
48.98 22.464 48.258
48.931 23.125 49.301
50.557 20.736 47.3
50.435 19.979 48.493
47.903 21.934 47.69
46.594 22.006 48.324
46.483 20.979 49.455
46.647 19.775 49.232
45.495 21.773 47.288
44.112 21.949 47.829
43.6 23.18 48.176
43.135 21.048 48.085
42.366 23.03 48.623
42.059 21.746 48.577
46.085 21.454 50.636
45.898 20.618 51.815
47.07 19.968 52.533
46.92 18.886 53.097
48.231 20.614 52.519
49.426 20.085 53.181
49.312 20.237 54.683
48.785 21.239 55.172
50.676 20.818 52.708
50.841 20.674 51.31
49.823 19.248 55.409
49.829 19.286 56.869
50.766 20.362 57.419
50.565 20.848 58.534
50.213 17.926 57.428
51.786 20.72 56.64
52.725 21.774 57.011
52.026 23.128 57.127
52.152 23.815 58.144
53.853 21.852 55.978
55.059 22.669 56.405
55.845 22.007 57.518
55.651 22.308 58.698
56.729 21.089 57.149
51.281 23.488 56.089
50.559 24.751 56.06
49.472 24.768 57.114
49.368 25.732 57.869
49.967 25.032 54.668
48.998 26.211 54.685
51.097 25.306 53.689
48.671 23.71 57.179
47.602 23.631 58.186
48.119 23.782 59.618
47.438 24.356 60.473
46.814 22.328 58.047
45.94 22.288 56.803
45.118 21.007 56.716
43.902 21.024 57.638
42.906 22.083 57.296
49.323 23.264 59.859
49.994 23.389 61.146
50.453 24.805 61.402
50.232 25.347 62.487
51.081 25.408 60.397
51.566 26.783 60.513
50.445 27.772 60.843
50.597 28.626 61.717
52.262 27.207 59.229
52.974 28.506 59.355
52.364 29.715 59.106
54.235 28.792 59.748
53.227 30.691 59.317
54.37 30.158 59.711
49.326 27.629 60.141
48.162 28.453 60.36
47.644 28.385 61.776
47.086 29.358 62.277
47.804 27.241 62.424
47.412 27.117 63.812
48.227 28.068 64.638
47.676 28.8 65.456
47.622 25.69 64.312
47.128 25.415 65.724
45.655 25.762 65.897
45.065 25.135 67.156
45.555 25.753 68.426
49.537 28.07 64.404
50.457 28.903 65.177
50.15 30.399 65.046
49.935 31.079 66.057
51.906 28.601 64.797
52.371 27.235 65.266
53.8 26.955 64.831
54.184 25.495 65.02
53.438 24.546 64.137
50.092 30.879 63.802
49.716 32.262 63.499
48.457 32.634 64.232
48.425 33.605 64.973
49.419 32.472 62.017
48.835 33.853 61.757
50.675 32.289 61.21
47.411 31.856 64.024
46.137 32.158 64.635
46.236 32.24 66.16
45.561 33.06 66.776
45.1 31.139 64.219
47.085 31.417 66.762
47.284 31.482 68.2
48.068 32.701 68.657
47.721 33.307 69.678
47.936 30.202 68.706
46.975 29.005 68.676
45.762 29.184 68.382
47.437 27.874 68.958
49.103 33.076 67.905
49.863 34.307 68.188
48.984 35.552 68.16
49.168 36.45 68.968
51.01 34.466 67.203
48.051 35.598 67.215
47.073 36.668 67.156
46.103 36.647 68.328
45.637 37.707 68.754
46.251 36.578 65.889
46.905 37.032 64.61
46.004 36.637 63.457
47.138 38.533 64.636
45.759 35.452 68.819
44.897 35.323 70.005
45.578 35.907 71.24
44.962 36.666 72.001
44.511 33.863 70.299
44.198 33.186 69.078
43.297 33.818 71.217
46.85 35.55 71.415
47.69 36.144 72.449
47.749 37.674 72.35
47.604 38.362 73.356
49.107 35.575 72.381
49.98 36.041 73.532
49.51 36.198 74.664
51.262 36.262 73.25
47.954 38.201 71.148
47.995 39.648 70.949
46.731 40.31 71.437
46.808 41.357 72.073
48.217 40.001 69.49
45.574 39.713 71.152
44.296 40.321 71.545
44.123 40.338 73.063
43.5 41.258 73.603
43.094 39.652 70.854
41.771 40.19 71.386
43.152 39.919 69.365
44.687 39.337 73.739
44.701 39.293 75.208
45.392 40.506 75.843
44.883 41.069 76.814
45.363 38.01 75.697
46.54 40.895 75.288
47.328 42.024 75.788
47.275 43.199 74.805
48.311 43.78 74.476
48.803 41.609 75.991
48.993 40.332 76.748
48.807 40.239 78.11
49.391 39.104 76.338
49.06 39.003 78.504
49.416 38.294 77.447
46.086 43.584 74.352
45.981 44.638 73.324
46.49 46.023 73.787
46.621 46.942 72.978
44.536 44.739 72.766
43.622 45.527 73.7
44.517 45.346 71.37
46.782 46.155 75.083
47.25 47.404 75.687
48.784 47.523 75.769
49.321 48.625 75.64
46.642 47.54 77.092
45.115 47.373 77.1
44.447 47.831 76.145
44.585 46.783 78.068
49.475 46.403 75.993
50.942 46.375 76.115
51.535 45.353 75.132
52.15 44.345 75.51
51.333 46.056 77.562
52.833 46.152 77.803
53.43 47.203 77.478
53.413 45.169 78.317
51.354 45.649 73.855
51.579 44.681 72.791
53.045 44.398 72.453
53.373 43.255 72.154
50.818 45.123 71.545
50.506 44.013 70.568
49.624 44.709 69.157
47.991 44.901 69.863
53.92 45.427 72.462
55.344 45.217 72.173
56.111 44.29 73.1
57.134 43.744 72.688
55.926 46.617 72.281
54.821 47.468 71.808
53.604 46.864 72.435
55.653 44.115 74.331
56.28 43.134 75.209
55.82 41.719 74.866
56.65 40.81 74.734
56.016 43.475 76.671
56.742 44.737 77.103
57.922 44.929 76.792
56.042 45.605 77.821
54.506 41.547 74.707
53.911 40.245 74.37
54.5 39.64 73.101
54.927 38.491 73.102
52.401 40.373 74.228
54.55 40.437 72.039
55.017 39.99 70.726
56.536 40.124 70.508
56.994 40.262 69.371
54.278 40.783 69.643
52.769 40.643 69.55
52.278 41.506 68.403
52.386 39.188 69.325
57.327 40.047 71.573
58.742 40.381 71.471
59.581 39.302 70.796
60.546 39.624 70.116
59.316 40.685 72.843
60.696 40.996 72.736
59.228 38.038 71.0
59.913 36.931 70.323
59.614 36.871 68.833
60.449 36.404 68.049
59.53 35.604 70.956
58.41 37.302 68.46
58.006 37.292 67.068
58.68 38.381 66.303
59.151 38.155 65.188
56.507 37.442 66.935
55.694 36.283 67.47
54.254 36.485 67.037
56.2 34.94 66.965
58.726 39.564 66.89
59.487 40.622 66.298
60.912 40.173 66.055
61.45 40.39 64.985
59.495 41.842 67.18
60.522 42.724 66.754
61.516 39.527 67.04
62.888 39.05 66.893
63.055 38.089 65.736
64.122 38.029 65.145
63.392 38.393 68.186
63.557 39.401 69.344
63.374 40.626 69.125
63.863 38.966 70.483
62.001 37.346 65.416
62.023 36.363 64.33
61.731 36.993 62.979
62.544 36.856 62.061
61.007 35.258 64.606
61.275 33.92 63.936
60.426 32.875 64.639
60.95 33.926 62.46
60.572 37.648 62.84
60.194 38.203 61.556
61.102 39.379 61.175
61.316 39.599 60.0
58.714 38.586 61.493
57.755 37.427 61.53
57.173 37.012 62.695
57.218 36.643 60.551
56.334 36.02 62.446
56.317 35.774 61.144
61.679 40.103 62.133
62.427 41.342 61.815
63.933 41.203 61.723
64.517 41.744 60.793
62.084 42.461 62.795
64.565 40.542 62.692
66.023 40.39 62.68
66.455 39.28 61.758
67.285 39.497 60.883
66.586 40.111 64.061
66.335 41.205 65.044
65.109 41.403 65.645
67.157 42.161 65.542
65.184 42.435 66.469
66.416 42.914 66.424
65.896 38.092 61.956
66.361 36.9 61.264
65.811 36.808 59.844
66.579 36.793 58.885
65.987 35.662 62.065
66.575 34.374 61.516
66.378 33.206 62.481
64.984 32.586 62.384
64.812 31.704 61.189
64.489 36.755 59.714
63.841 36.563 58.409
63.842 37.768 57.494
63.894 37.6 56.28
62.393 36.128 58.584
62.222 34.713 59.088
60.741 34.428 59.266
62.861 33.739 58.109
63.733 38.963 58.067
63.693 40.207 57.309
62.584 40.177 56.261
62.823 40.256 55.061
65.067 40.517 56.716
66.133 40.674 57.793
67.502 41.062 57.252
68.047 40.002 56.391
68.911 39.044 56.751
69.399 38.964 57.993
69.3 38.145 55.842
61.364 40.026 56.749
60.184 40.116 55.915
59.986 41.596 55.78
60.154 42.321 56.771
58.935 39.484 56.58
57.708 39.588 55.677
59.203 38.028 56.916
59.65 42.051 54.571
59.417 43.479 54.349
57.969 43.779 54.508
57.13 42.914 54.257
59.887 43.95 52.982
58.975 43.545 51.887
58.661 42.324 51.85
58.599 44.443 51.078
57.661 45.018 54.884
56.391 45.207 55.539
55.17 45.185 54.589
54.033 45.045 55.06
56.58 46.554 56.254
58.034 46.858 56.122
58.382 46.283 54.808
55.42 45.298 53.283
54.416 45.036 52.248
53.709 43.706 52.378
52.511 43.624 52.103
55.077 45.069 50.861
54.272 44.349 49.772
55.303 46.521 50.493
54.432 42.664 52.761
53.835 41.349 52.798
52.927 41.192 53.976
52.114 40.283 53.979
54.889 40.275 52.85
55.876 40.366 51.707
57.013 39.925 51.843
55.459 40.957 50.58
53.059 42.052 54.986
52.088 42.085 56.077
50.752 42.591 55.631
49.734 42.073 56.051
52.598 42.891 57.238
53.569 42.144 58.024
53.132 41.276 58.997
54.913 42.209 57.719
54.026 40.507 59.708
55.821 41.431 58.412
55.38 40.583 59.42
50.756 43.57 54.744
49.527 44.074 54.192
48.74 43.089 53.355
47.561 43.324 53.123
49.791 45.314 53.38
50.084 46.507 54.267
50.695 47.672 53.494
49.767 48.213 52.401
50.41 49.32 51.633
49.353 42.006 52.896
48.632 41.017 52.103
48.088 39.915 52.993
46.989 39.425 52.751
49.524 40.424 51.022
50.317 41.435 50.191
51.477 40.77 49.47
49.396 42.145 49.214
48.838 39.505 54.01
48.306 38.537 54.953
47.204 39.13 55.812
46.341 38.387 56.274
49.371 38.009 55.892
48.935 36.863 56.819
48.282 35.737 56.045
50.126 36.306 57.558
47.237 40.441 56.049
46.178 41.107 56.789
44.945 41.249 55.985
43.862 41.197 56.53
46.604 42.484 57.204
47.686 42.402 58.122
45.104 41.461 54.687
43.969 41.461 53.744
43.297 40.105 53.611
42.072 40.003 53.605
44.438 41.874 52.359
43.373 41.801 51.316
42.284 42.647 51.31
43.234 40.99 50.24
41.522 42.363 50.269
42.074 41.36 49.607
44.109 39.07 53.483
43.588 37.737 53.344
42.993 37.156 54.601
42.241 36.212 54.503
44.654 36.829 52.782
44.896 37.165 51.014
43.302 37.696 55.769
42.535 37.343 56.957
41.175 37.959 56.981
40.261 37.322 57.482
43.202 37.778 58.24
44.174 36.768 58.806
45.072 37.441 59.843
43.391 35.613 59.406
41.025 39.192 56.506
39.705 39.839 56.538
38.762 39.24 55.536
37.594 39.053 55.841
39.783 41.343 56.333
40.613 42.013 57.435
40.609 43.524 57.217
40.155 41.637 58.858
39.255 38.913 54.354
38.438 38.187 53.405
37.933 36.888 54.033
36.754 36.581 53.935
39.192 37.94 52.087
38.589 36.779 51.296
39.207 39.219 51.254
38.813 36.153 54.693
38.443 34.902 55.331
37.393 35.052 56.42
36.461 34.264 56.461
39.67 34.222 55.938
40.59 33.916 54.887
39.309 32.923 56.624
37.527 36.027 57.305
36.474 36.263 58.286
35.167 36.648 57.644
34.134 36.131 58.036
36.836 37.363 59.265
37.963 37.004 60.222
38.155 38.152 61.202
37.691 35.694 60.945
35.187 37.541 56.665
33.942 37.953 56.01
33.24 36.794 55.3
32.017 36.778 55.2
34.197 39.085 55.031
34.008 35.826 54.821
33.439 34.642 54.201
32.978 33.578 55.202
32.513 32.521 54.777
34.444 34.042 53.228
33.131 33.817 56.507
32.729 32.845 57.535
31.946 33.352 58.75
31.301 32.552 59.421
33.962 32.093 58.002
34.44 31.084 57.014
35.172 31.426 55.899
34.266 29.744 56.954
35.435 30.339 55.198
34.901 29.303 55.819
31.999 34.651 59.034
31.248 35.256 60.128
30.486 36.431 59.568
30.755 37.574 59.933
32.197 35.745 61.226
33.117 34.716 61.878
34.039 35.435 62.856
32.327 33.608 62.568
29.528 36.169 58.673
28.912 37.28 57.947
28.164 38.263 58.841
28.163 39.462 58.561
27.942 36.58 56.985
28.328 35.133 57.01
28.844 34.901 58.389
27.552 37.751 59.907
26.765 38.571 60.828
27.616 39.492 61.709
27.207 40.616 62.014
25.895 37.676 61.697
28.795 39.014 62.106
29.694 39.766 62.991
30.56 40.808 62.278
31.302 41.535 62.934
30.601 38.789 63.761
29.847 37.801 64.651
29.045 38.471 65.767
29.54 39.455 66.365
27.918 38.007 66.057
30.448 40.899 60.954
31.359 41.683 60.132
30.679 42.988 59.693
30.54 43.274 58.504
31.817 40.822 58.936
33.089 41.295 58.299
34.317 41.084 58.932
33.067 41.966 57.068
35.498 41.54 58.356
34.246 42.421 56.487
35.463 42.206 57.132
30.258 43.779 60.674
29.694 45.099 60.412
30.832 46.058 60.123
31.967 45.782 60.512
28.938 45.662 61.635
29.831 45.784 62.757
27.763 44.767 62.008
30.541 47.203 59.476
31.573 48.21 59.218
32.441 48.571 60.404
33.653 48.639 60.25
30.763 49.407 58.751
29.67 48.757 57.984
29.274 47.578 58.825
31.848 48.766 61.572
32.63 49.128 62.756
33.625 48.048 63.186
34.708 48.358 63.682
31.711 49.476 63.911
33.254 46.794 62.999
34.179 45.7 63.225
35.264 45.652 62.143
36.432 45.447 62.468
33.428 44.361 63.299
34.393 43.175 63.3
32.545 44.353 64.546
34.878 45.817 60.875
35.828 45.898 59.762
36.842 46.981 60.081
38.042 46.743 60.005
35.1 46.232 58.455
35.935 46.109 57.209
35.367 45.966 55.961
37.278 46.112 57.007
36.319 45.891 55.047
37.488 45.972 55.655
36.358 48.153 60.474
37.22 49.298 60.766
38.195 49.056 61.898
39.359 49.445 61.796
36.389 50.513 61.093
37.73 48.435 62.976
38.599 48.121 64.107
39.583 47.022 63.785
40.766 47.192 64.011
37.778 47.705 65.307
36.81 48.696 65.601
39.102 45.904 63.252
39.98 44.776 62.936
41.08 45.126 61.97
42.123 44.482 61.995
39.214 43.576 62.376
38.764 42.531 63.402
37.722 41.58 62.831
39.955 41.727 63.905
40.854 46.124 61.122
41.886 46.616 60.212
43.029 47.344 60.927
44.2 47.106 60.619
41.262 47.539 59.176
42.212 47.854 58.026
42.227 47.098 57.014
42.936 48.877 58.137
42.68 48.236 61.857
43.669 48.912 62.727
44.463 47.966 63.613
45.662 48.153 63.816
43.002 49.935 63.637
42.579 51.174 62.896
41.804 52.14 63.795
42.669 53.241 64.421
41.843 54.333 65.033
43.774 46.981 64.169
44.398 46.028 65.042
45.492 45.309 64.3
46.633 45.331 64.755
43.398 45.01 65.559
44.047 43.886 66.287
44.821 44.142 67.421
43.946 42.577 65.819
45.463 43.106 68.089
44.593 41.542 66.485
45.351 41.808 67.622
45.147 44.672 63.173
46.123 43.925 62.343
47.289 44.773 61.891
48.421 44.296 61.808
45.468 43.351 61.107
44.584 42.155 61.395
43.754 41.822 60.167
45.408 40.955 61.825
46.993 46.038 61.603
48.007 47.021 61.235
48.999 47.331 62.355
50.187 47.498 62.09
47.342 48.295 60.765
48.512 47.433 63.588
49.396 47.593 64.745
50.317 46.404 64.875
51.531 46.563 64.993
48.61 47.755 66.054
48.035 49.049 66.125
49.727 45.224 64.851
50.479 44.01 65.004
51.582 43.956 63.938
52.731 43.627 64.255
49.542 42.774 64.954
50.298 41.454 64.786
48.696 42.724 66.207
51.249 44.302 62.695
52.221 44.258 61.592
53.434 45.147 61.836
54.553 44.802 61.468
51.562 44.703 60.288
50.446 43.883 59.959
53.187 46.29 62.463
54.226 47.261 62.805
55.178 46.825 63.94
56.377 47.104 63.888
53.568 48.608 63.151
52.803 49.058 62.014
54.62 49.658 63.523
54.653 46.147 64.949
55.501 45.564 65.984
56.407 44.493 65.397
57.591 44.471 65.706
54.673 44.951 67.131
55.542 44.138 68.086
53.955 46.054 67.892
55.871 43.607 64.57
56.695 42.537 64.041
57.701 42.963 62.975
58.559 42.175 62.638
55.851 41.41 63.462
54.759 40.759 64.307
54.204 39.564 63.561
55.259 40.307 65.649
57.618 44.164 62.42
58.596 44.581 61.397
59.574 45.663 61.891
60.012 46.53 61.114
57.884 45.096 60.126
56.941 46.124 60.474
57.168 43.991 59.443
59.929 45.607 63.17
60.83 46.589 63.748
61.792 45.972 64.74
61.5 44.925 65.317
60.03 47.683 64.417
59.119 47.136 65.342
62.95 46.606 64.875
63.99 46.147 65.772
64.082 46.951 67.051
64.692 48.009 67.092
65.345 46.204 65.073
65.492 45.239 63.916
66.856 45.383 63.269
67.04 44.409 62.121
68.373 44.579 61.481
63.432 46.443 68.084
63.436 47.056 69.395
63.721 45.957 70.41
63.323 44.806 70.207
62.095 47.721 69.681
60.979 46.739 69.93
60.457 45.981 68.897
60.454 46.564 71.198
59.443 45.077 69.118
59.44 45.66 71.428
58.939 44.922 70.384
57.928 44.022 70.608
64.407 46.303 71.495
65.109 45.318 72.317
65.822 44.288 71.445
65.955 43.12 71.803
64.16 44.62 73.303
62.915 45.413 73.665
61.972 44.59 74.526
60.702 45.271 74.767
60.584 46.563 75.059
61.661 47.33 75.146
59.385 47.09 75.265
66.279 44.608 70.35
45.414 42.264 30.971
45.692 41.328 32.103
45.424 39.875 31.676
44.387 39.574 31.08
44.899 41.725 33.379
43.394 41.756 33.132
45.244 40.808 34.545
46.372 38.989 31.978
46.353 37.617 31.466
45.485 36.699 32.317
45.91 36.246 33.383
47.775 37.053 31.401
48.689 37.825 30.503
48.623 37.747 29.129
49.694 38.689 30.784
49.547 38.53 28.601
50.211 39.113 29.583
44.269 36.43 31.842
43.378 35.46 32.477
43.214 34.238 31.577
43.108 34.364 30.354
42.004 36.077 32.78
41.871 36.865 34.089
42.423 38.274 33.94
40.422 36.917 34.544
43.201 33.06 32.197
42.877 31.816 31.506
41.354 31.687 31.376
40.622 32.36 32.107
43.412 30.599 32.277
42.875 30.593 33.606
44.928 30.645 32.35
40.867 30.822 30.459
39.411 30.629 30.296
38.653 30.084 31.517
37.435 30.25 31.594
39.316 29.631 29.138
40.583 29.811 28.384
41.62 30.084 29.428
39.361 29.441 32.446
38.764 28.957 33.693
38.559 30.103 34.68
37.525 30.176 35.346
39.632 27.871 34.338
39.659 26.547 33.578
40.61 26.521 32.385
41.192 27.57 32.03
40.773 25.433 31.792
39.556 30.98 34.781
39.453 32.18 35.613
38.387 33.132 35.08
37.548 33.613 35.842
40.804 32.9 35.718
41.833 32.162 36.572
43.108 32.961 36.818
43.41 33.89 36.036
43.819 32.65 37.799
38.415 33.385 33.775
37.423 34.252 33.139
35.998 33.685 33.237
35.039 34.452 33.326
37.792 34.528 31.678
37.031 35.692 31.059
37.433 35.92 29.61
36.498 36.904 28.92
36.804 37.062 27.47
35.859 32.358 33.227
34.557 31.722 33.467
34.071 31.961 34.9
32.889 32.243 35.12
34.6 30.214 33.173
35.428 29.518 34.088
34.988 31.847 35.862
34.678 32.088 37.273
34.298 33.546 37.529
33.3 33.82 38.197
35.854 31.686 38.15
35.096 34.464 36.99
34.838 35.894 37.114
33.432 36.221 36.622
32.642 36.792 37.361
35.887 36.72 36.332
35.451 38.166 36.144
37.234 36.678 37.035
33.126 35.839 35.386
31.835 36.169 34.765
30.631 35.498 35.426
29.538 36.069 35.436
31.818 35.802 33.267
32.316 34.466 33.091
32.67 36.786 32.464
30.834 34.292 35.961
29.765 33.538 36.628
29.343 34.199 37.941
28.16 34.482 38.147
30.202 32.102 36.879
30.317 34.441 38.817
30.051 35.115 40.088
29.772 36.586 39.925
29.205 37.175 40.827
31.187 34.936 41.097
31.049 33.678 41.955
31.388 32.429 41.141
31.908 33.777 43.216
30.175 37.196 38.813
29.76 38.571 38.537
28.317 38.621 38.083
27.606 39.58 38.382
30.625 39.246 37.484
30.32 40.694 37.419
29.527 41.327 36.514
30.75 41.685 38.342
29.461 42.667 36.799
30.205 42.912 37.921
31.561 41.661 39.478
30.439 44.103 38.601
31.795 42.848 40.154
31.233 44.051 39.713
27.899 37.6 37.34
26.505 37.452 36.931
25.506 37.381 38.08
24.367 37.832 37.934
25.928 36.825 39.217
25.071 36.713 40.406
25.034 37.964 41.304
24.242 38.012 42.249
25.501 35.505 41.246
25.422 34.177 40.512
25.727 33.014 41.442
25.462 31.68 40.762
25.725 30.523 41.663
25.872 38.963 41.015
25.969 40.179 41.835
24.685 40.982 41.709
24.188 41.183 40.599
27.144 41.091 41.385
27.116 42.445 42.089
28.484 40.419 41.628
24.158 41.443 42.839
23.066 42.409 42.828
23.664 43.8 42.635
24.171 44.409 43.58
22.261 42.34 44.124
21.083 43.3 44.136
20.623 43.771 43.091
20.581 43.59 45.331
23.568 44.311 41.408
24.265 45.549 41.012
23.613 46.861 41.49
23.893 47.927 40.936
24.501 45.598 39.477
25.457 44.489 39.056
23.188 45.525 38.694
22.749 46.783 42.501
22.226 47.961 43.188
22.962 48.226 44.506
23.381 49.357 44.773
20.736 47.773 43.471
20.091 49.02 44.052
19.93 50.007 43.303
19.745 49.012 45.254
23.109 47.181 45.32
23.558 47.317 46.707
25.071 47.219 46.896
25.622 47.848 47.799
22.864 46.253 47.568
22.838 46.555 49.063
22.096 47.84 49.419
21.117 48.189 48.722
22.493 48.503 50.404
25.73 46.44 46.047
27.156 46.169 46.194
27.994 47.443 46.139
28.782 47.699 47.053
27.629 45.149 45.142
29.149 45.045 45.085
27.026 43.795 45.466
27.82 48.237 45.084
28.501 49.535 44.967
28.248 50.474 46.146
29.152 51.192 46.591
27.011 50.464 46.642
26.63 51.235 47.812
27.321 50.766 49.07
27.717 51.584 49.897
27.455 49.453 49.223
28.165 48.894 50.365
29.634 49.158 50.25
30.235 49.65 51.203
27.936 47.394 50.495
26.601 47.054 51.142
26.283 45.561 51.169
27.13 44.745 50.738
25.173 45.201 51.63
30.213 48.845 49.09
31.661 48.991 48.891
32.124 50.41 49.183
32.985 50.631 50.029
32.071 48.58 47.492
31.523 51.372 48.516
31.85 52.755 48.775
31.474 53.215 50.213
32.097 54.123 50.767
31.164 53.632 47.746
31.679 55.062 47.788
33.031 55.136 47.086
30.655 55.996 47.183
30.45 52.616 50.802
30.112 52.901 52.183
31.233 52.446 53.103
31.632 53.195 54.005
31.748 51.229 52.889
32.822 50.711 53.744
34.069 51.537 53.612
34.741 51.776 54.614
33.137 49.244 53.475
32.259 48.371 54.325
32.318 46.895 53.985
31.187 46.231 54.656
31.145 45.857 55.94
32.189 46.015 56.739
30.043 45.292 56.428
34.364 51.994 52.389
35.555 52.804 52.135
35.582 53.995 53.04
36.598 54.236 53.673
35.628 53.291 50.698
36.994 53.909 50.361
37.99 52.786 50.054
36.941 54.931 49.225
34.466 54.709 53.122
34.395 55.92 53.947
34.463 55.708 55.437
34.774 56.647 56.165
33.141 56.729 53.679
33.317 57.709 52.537
33.633 56.991 51.23
32.021 58.499 52.408
34.168 54.504 55.9
34.275 54.169 57.333
35.669 53.635 57.741
36.195 53.971 58.797
33.185 53.135 57.674
33.354 52.577 59.082
31.82 53.776 57.465
36.243 52.808 56.888
37.517 52.181 57.154
38.748 53.054 56.826
39.804 52.865 57.457
37.592 50.864 56.382
38.969 50.209 56.493
36.505 49.947 56.912
38.65 53.987 55.869
39.791 54.864 55.532
39.393 56.337 55.59
39.451 57.053 54.591
40.362 54.478 54.176
40.823 53.04 54.121
41.741 52.561 55.061
40.344 52.139 53.134
42.181 51.246 55.038
40.779 50.81 53.101
41.705 50.375 54.061
42.189 49.082 54.113
39.014 56.803 56.789
38.306 58.077 57.034
38.727 59.257 56.166
37.859 60.011 55.696
38.648 58.4 58.484
38.935 57.08 59.113
39.448 56.166 58.047
40.035 59.43 55.958
40.51 60.561 55.145
39.871 60.617 53.771
39.955 61.647 53.119
42.022 60.573 54.977
42.511 59.411 54.27
42.603 59.229 52.897
42.956 58.209 54.866
43.105 57.975 52.622
43.326 57.324 53.811
43.083 57.783 56.187
43.808 56.039 54.048
43.574 56.497 56.422
43.934 55.642 55.352
39.296 59.506 53.304
38.605 59.501 52.029
37.365 60.346 52.059
36.936 60.807 51.007
38.161 58.107 51.618
37.489 57.506 52.727
39.357 57.269 51.177
36.779 60.55 53.233
35.625 61.433 53.32
35.857 62.819 52.798
34.945 63.403 52.22
35.116 61.555 54.733
34.246 60.365 55.088
34.187 60.141 56.575
34.545 61.038 57.369
33.745 58.942 56.977
37.054 63.352 52.985
37.349 64.68 52.498
36.908 64.868 51.043
36.486 65.965 50.688
38.828 64.97 52.664
39.304 66.286 52.094
40.816 66.306 51.994
41.283 67.565 51.427
41.276 68.743 52.067
41.732 69.826 51.432
40.82 68.873 53.329
36.977 63.828 50.21
36.539 63.966 48.816
35.025 64.121 48.655
34.58 64.87 47.789
37.038 62.818 47.947
38.525 62.709 47.906
39.296 63.747 47.386
39.173 61.582 48.412
40.692 63.66 47.363
40.565 61.486 48.388
41.329 62.527 47.862
34.239 63.434 49.475
32.788 63.48 49.352
32.109 64.389 50.387
30.964 64.133 50.742
32.21 62.071 49.509
32.866 61.041 48.663
32.547 60.929 47.329
33.785 60.153 49.202
33.148 59.96 46.526
34.395 59.18 48.403
34.079 59.085 47.062
32.755 65.448 50.873
32.104 66.31 51.892
30.823 67.012 51.395
30.003 67.46 52.201
33.084 67.33 52.486
33.516 68.464 51.557
34.718 69.248 52.087
35.002 69.194 53.307
35.387 69.928 51.276
30.664 67.089 50.072
29.416 67.512 49.428
28.214 66.541 49.547
27.11 66.896 49.127
29.689 67.772 47.945
30.173 66.598 47.308
28.417 65.338 50.095
27.325 64.379 50.32
26.688 64.5 51.71
26.066 63.548 52.188
27.808 62.924 50.141
28.218 62.542 48.738
28.118 63.417 47.647
28.681 61.247 48.507
28.498 63.006 46.374
29.061 60.838 47.239
28.967 61.713 46.169
26.822 65.647 52.367
26.125 65.865 53.63
26.743 65.089 54.779
27.97 65.051 54.914
25.902 64.459 55.598
26.359 63.88 56.861
27.069 62.547 56.663
26.533 61.643 56.024
25.185 63.698 57.826
25.639 63.425 59.256
26.444 64.22 59.791
25.187 62.419 59.845
28.299 62.447 57.16
29.074 61.208 57.091
29.703 60.828 58.443
30.597 59.99 58.504
30.151 61.312 56.012
29.678 61.75 54.628
30.702 62.662 53.979
29.411 60.543 53.748
29.221 61.437 59.52
29.789 61.237 60.861
29.773 59.855 61.54
30.77 59.459 62.143
29.173 62.255 61.824
27.816 61.943 62.079
28.67 59.122 61.451
28.587 57.822 62.12
28.363 56.678 61.146
27.549 56.792 60.234
27.48 57.806 63.189
27.402 56.503 63.78
26.139 58.157 62.574
29.081 55.562 61.331
28.849 54.508 60.348
27.421 54.396 59.82
27.236 54.139 58.63
29.219 53.246 61.119
30.333 53.692 62.0
30.09 55.141 62.323
26.43 54.585 60.687
25.022 54.476 60.282
24.561 55.593 59.331
23.667 55.379 58.505
24.115 54.418 61.516
24.361 53.178 62.37
24.696 52.107 61.815
24.21 53.274 63.606
25.182 56.766 59.442
24.885 57.895 58.565
25.462 57.67 57.176
24.85 58.069 56.188
25.434 59.186 59.153
26.638 57.045 57.108
27.296 56.752 55.835
26.551 55.657 55.093
26.344 55.759 53.888
28.775 56.356 56.028
29.403 55.856 54.731
29.566 57.54 56.553
26.158 54.609 55.799
25.378 53.549 55.176
23.954 54.007 54.857
23.371 53.55 53.872
25.372 52.291 56.054
26.744 51.629 56.202
27.418 50.971 54.655
29.048 50.429 55.153
23.408 54.915 55.671
22.061 55.47 55.455
21.911 56.601 54.434
20.788 57.012 54.132
23.026 57.102 53.902
23.019 58.224 52.963
22.55 57.745 51.579
23.075 56.75 51.076
24.431 58.807 52.862
24.466 60.197 52.262
23.517 60.656 51.627
25.583 60.88 52.464
21.562 58.434 50.962
21.144 58.069 49.59
22.153 58.369 48.47
22.242 57.599 47.506
19.87 58.896 49.374
19.382 59.215 50.741
20.613 59.383 51.573
22.878 59.484 48.589
23.872 59.887 47.583
25.041 58.922 47.507
25.587 58.691 46.422
24.417 61.281 47.872
23.398 62.387 47.72
24.037 63.732 48.003
23.012 64.851 47.994
23.65 66.18 48.201
25.425 58.374 48.659
26.492 57.393 48.709
26.066 56.19 47.894
26.777 55.797 46.972
26.868 57.005 50.151
27.851 55.831 50.182
27.474 58.211 50.856
24.896 55.633 48.193
24.412 54.483 47.431
24.257 54.83 45.956
24.578 54.015 45.094
23.098 53.943 47.987
22.733 52.577 47.417
21.471 51.99 48.039
20.181 52.549 47.437
19.782 53.898 47.94
23.784 56.041 45.68
23.626 56.514 44.31
24.951 56.561 43.556
25.061 56.023 42.446
22.979 57.886 44.304
25.944 57.204 44.166
27.279 57.306 43.576
27.969 55.948 43.457
28.684 55.693 42.492
28.157 58.248 44.387
29.54 58.37 43.848
29.878 59.3 42.893
30.66 57.651 44.091
31.154 59.159 42.582
31.653 58.167 43.298
27.759 55.095 44.451
28.241 53.733 44.409
27.803 53.003 43.158
28.61 52.322 42.529
26.537 53.158 42.779
26.009 52.478 41.597
26.827 52.771 40.331
27.024 51.874 39.504
24.542 52.834 41.369
23.87 51.973 40.303
22.423 52.376 40.039
21.428 51.687 40.971
21.453 52.185 42.377
27.297 54.012 40.189
28.15 54.393 39.052
29.521 53.716 39.077
30.027 53.299 38.034
28.303 55.918 38.963
27.04 56.596 38.46
27.146 58.116 38.409
26.915 58.762 39.774
26.781 60.247 39.704
30.102 53.608 40.27
31.432 53.042 40.438
31.421 51.611 39.991
32.265 51.215 39.205
31.917 53.094 41.9
33.177 52.266 42.094
32.181 54.529 42.331
30.469 50.835 40.49
30.385 49.426 40.114
30.048 49.243 38.624
30.512 48.288 37.991
29.383 48.672 40.988
29.644 47.16 41.035
30.91 46.847 41.822
28.453 46.424 41.628
29.254 50.161 38.072
29.059 50.245 36.624
30.379 50.343 35.87
30.598 49.619 34.897
31.264 51.224 36.333
32.591 51.391 35.725
33.498 50.173 35.874
34.325 49.947 35.004
33.287 52.628 36.272
33.373 49.416 36.965
34.087 48.139 37.081
33.551 47.137 36.088
34.321 46.364 35.528
33.973 47.519 38.468
35.032 47.965 39.418
36.255 47.316 39.465
34.799 49.033 40.291
37.235 47.734 40.36
35.771 49.454 41.191
36.992 48.803 41.226
32.231 47.133 35.895
31.584 46.204 34.959
32.044 46.45 33.524
32.362 45.505 32.799
30.06 46.32 35.037
29.601 46.35 36.377
32.086 47.725 33.138
32.613 48.156 31.836
34.055 47.676 31.616
34.386 47.13 30.564
32.546 49.693 31.734
32.845 50.216 30.33
32.166 49.79 29.37
33.746 51.072 30.193
34.894 47.875 32.628
36.298 47.474 32.587
36.529 45.981 32.666
37.603 45.507 32.315
35.538 45.243 33.152
35.58 43.781 33.155
35.157 43.202 31.799
35.528 42.073 31.462
34.695 43.242 34.277
34.934 41.798 34.73
34.688 41.713 36.232
34.068 40.803 33.961
34.386 43.972 31.029
34.061 43.614 29.642
35.312 43.604 28.755
35.598 42.61 28.085
33.019 44.569 29.07
36.054 44.709 28.783
37.224 44.906 27.928
38.541 44.723 28.685
39.284 45.687 28.888
37.18 46.313 27.327
35.967 46.579 26.499
34.827 47.158 27.014
35.718 46.354 25.187
33.926 47.276 26.055
34.441 46.795 24.937
38.84 43.491 29.091
40.092 43.204 29.811
41.345 43.415 28.95
42.393 43.821 29.456
40.081 41.781 30.372
39.043 41.49 31.458
39.076 40.013 31.821
39.263 42.352 32.696
41.226 43.125 27.658
42.298 43.374 26.684
42.824 44.818 26.673
44.036 45.039 26.689
41.854 42.953 25.261
40.525 43.599 24.81
39.878 44.315 25.608
40.123 43.375 23.648
41.904 45.78 26.665
42.222 47.195 26.499
41.624 47.962 27.669
40.486 48.437 27.604
41.665 47.701 25.155
41.974 49.171 24.888
42.876 49.761 25.49
41.222 49.767 23.967
42.398 48.069 28.743
41.958 48.777 29.941
42.333 50.256 29.908
41.549 51.098 30.35
42.514 48.1 31.195
41.758 46.843 31.639
42.579 46.034 32.634
40.407 47.199 32.24
43.518 50.569 29.386
43.99 51.959 29.301
43.108 52.833 28.391
42.898 54.018 28.673
45.449 52.007 28.831
46.438 51.411 29.823
47.869 51.525 29.319
48.869 51.005 30.342
50.277 51.128 29.87
42.601 52.244 27.31
41.656 52.922 26.427
40.298 53.147 27.065
39.648 54.163 26.807
39.867 52.195 27.889
38.579 52.272 28.573
38.542 53.406 29.602
37.681 54.289 29.542
38.272 50.938 29.281
38.349 49.867 28.333
36.887 50.958 29.922
39.495 53.372 30.53
39.572 54.32 31.639
40.486 55.482 31.275
41.505 55.717 31.927
40.105 53.61 32.888
39.212 52.52 33.396
38.035 52.84 34.059
39.547 51.179 33.235
37.195 51.855 34.546
38.708 50.184 33.718
37.534 50.523 34.375
40.128 56.206 30.225
40.955 57.305 29.752
40.486 58.596 30.392
41.267 59.293 31.029
40.889 57.405 28.243
39.203 58.901 30.221
38.605 60.122 30.765
38.555 60.113 32.299
38.61 61.175 32.93
37.178 60.343 30.207
37.201 60.261 28.775
36.619 61.708 30.624
38.45 58.924 32.892
38.425 58.809 34.346
39.794 59.062 34.953
39.901 59.8 35.934
37.869 57.454 34.79
36.355 57.259 34.624
35.947 55.902 35.166
35.519 58.336 35.307
40.839 58.482 34.37
42.195 58.787 34.824
42.47 60.288 34.781
43.126 60.808 35.67
43.259 58.011 34.039
43.028 58.059 32.645
41.941 60.977 33.769
42.034 62.439 33.681
41.2 63.075 34.785
41.648 64.008 35.455
41.52 62.952 32.33
42.247 62.425 31.09
43.526 63.168 30.738
43.725 64.317 31.191
44.337 62.591 29.978
39.981 62.568 34.952
39.037 63.099 35.931
39.568 63.014 37.354
39.63 64.026 38.057
37.694 62.356 35.843
36.624 62.691 36.894
36.39 64.191 36.994
35.324 61.964 36.59
39.922 61.797 37.77
40.369 61.552 39.13
41.75 62.222 39.37
42.014 62.647 40.487
40.388 60.047 39.459
39.034 59.404 39.672
38.473 58.563 38.743
38.19 59.372 40.745
37.325 58.083 39.199
37.129 58.53 40.432
42.592 62.38 38.342
43.917 63.048 38.5
43.956 64.583 38.391
44.474 65.266 39.287
44.938 62.498 37.489
46.586 63.281 37.54
43.476 65.113 37.271
43.7 66.522 36.943
42.768 67.486 37.671
43.057 68.682 37.73
43.62 66.761 35.42
44.883 66.309 34.674
46.011 66.551 35.166
44.746 65.729 33.575
41.667 66.983 38.222
40.674 67.839 38.858
40.524 67.534 40.349
40.697 68.418 41.186
39.341 67.695 38.115
38.348 68.828 38.35
37.209 68.433 39.285
36.144 67.613 38.564
34.967 67.295 39.427
40.213 66.282 40.671
39.927 65.864 42.047
41.168 65.702 42.926
41.09 65.918 44.135
39.15 64.553 42.021
37.779 64.679 41.36
37.296 63.332 40.847
36.782 65.3 42.333
42.288 65.31 42.309
43.58 65.077 42.978
43.572 63.872 43.925
44.228 63.901 44.962
44.074 66.323 43.743
44.141 67.574 42.92
45.216 67.872 42.107
43.293 68.626 42.822
45.016 69.044 41.529
43.856 69.521 41.944
42.839 62.818 43.573
42.803 61.584 44.37
44.11 60.867 44.087
44.355 60.515 42.942
41.599 60.679 43.964
41.701 59.283 44.558
40.269 61.31 44.353
44.949 60.656 45.104
46.266 59.99 44.897
46.155 58.465 44.732
45.328 57.831 45.389
47.264 60.322 46.01
46.771 59.911 47.394
45.538 59.815 47.596
47.618 59.704 48.29
47.007 57.87 43.884
46.729 56.537 43.364
46.813 55.346 44.33
46.405 54.239 43.953
47.773 56.369 42.254
48.336 57.721 42.03
48.297 58.345 43.384
47.341 55.547 45.537
47.225 54.536 46.585
45.763 54.262 46.948
45.417 53.141 47.318
48.016 54.952 47.833
47.848 54.057 49.081
48.168 52.561 48.877
48.951 52.207 47.957
47.644 51.732 49.666
44.906 55.272 46.835
43.502 55.11 47.187
42.749 54.192 46.253
41.767 53.606 46.677
42.809 56.454 47.249
43.397 57.368 48.313
44.064 56.929 49.256
43.146 58.658 48.164
43.209 54.031 45.01
42.549 53.121 44.06
42.715 51.686 44.464
41.73 50.951 44.482
43.017 53.325 42.62
42.832 54.729 42.143
41.572 55.322 42.173
43.912 55.487 41.726
41.387 56.643 41.783
43.738 56.808 41.33
42.473 57.39 41.358
43.927 51.281 44.822
44.114 49.909 45.283
43.472 49.599 46.653
43.321 48.423 46.997
45.586 49.503 45.251
46.441 50.022 46.391
47.624 49.103 46.679
47.242 47.846 47.353
46.968 47.696 48.661
46.991 48.73 49.513
46.652 46.483 49.128
43.124 50.638 47.425
42.296 50.481 48.625
40.877 50.16 48.259
40.332 49.207 48.803
42.286 51.724 49.516
43.528 52.014 50.375
43.338 53.262 51.241
43.88 50.82 51.252
40.272 50.929 47.352
38.876 50.667 46.94
38.682 49.284 46.369
37.706 48.621 46.691
38.38 51.659 45.903
36.884 51.54 45.587
36.055 51.93 46.801
36.507 52.403 44.403
39.611 48.876 45.51
39.686 47.509 44.991
39.671 46.419 46.05
38.977 45.42 45.887
40.418 46.6 47.133
40.431 45.608 48.203
39.175 45.603 49.046
38.798 44.544 49.54
41.648 45.774 49.099
42.909 45.198 48.471
43.007 45.08 47.239
43.891 44.836 49.315
38.528 46.754 49.224
37.258 46.797 49.945
36.187 46.096 49.155
35.374 45.378 49.72
36.796 48.218 50.226
35.377 48.234 50.777
37.724 48.862 51.242
36.191 46.295 47.845
35.289 45.565 46.95
35.333 44.063 47.144
34.294 43.434 47.332
35.61 45.855 45.491
34.561 45.383 44.497
33.191 45.948 44.815
34.977 45.854 43.122
36.535 43.501 47.099
36.723 42.064 47.272
36.265 41.563 48.632
35.83 40.433 48.732
38.179 41.655 46.972
38.519 40.261 47.494
38.41 41.71 45.466
36.336 42.391 49.666
35.766 42.02 50.967
34.254 42.002 50.963
33.667 41.129 51.59
36.237 42.946 52.071
37.934 42.613 52.584
33.631 42.952 50.275
32.174 42.96 50.12
31.641 41.74 49.37
30.58 41.221 49.705
31.703 44.249 49.416
30.267 44.144 48.889
31.825 45.411 50.386
32.364 41.302 48.349
31.956 40.141 47.583
32.036 38.864 48.406
31.071 38.107 48.442
32.766 40.023 46.3
32.431 41.146 45.308
33.436 41.169 44.162
31.007 41.023 44.77
33.144 38.628 49.092
33.229 37.485 50.004
32.161 37.515 51.111
31.698 36.468 51.545
34.603 37.4 50.624
31.769 38.698 51.563
30.666 38.828 52.516
29.346 38.323 51.962
28.595 37.673 52.678
30.482 40.29 52.899
29.629 40.508 54.107
28.865 41.642 54.276
29.436 39.754 55.215
28.234 41.575 55.434
28.563 40.439 56.024
29.058 38.652 50.703
27.808 38.236 50.056
27.806 36.775 49.65
26.866 36.051 49.98
27.487 39.08 48.816
26.839 40.39 49.126
26.563 41.326 48.152
26.422 40.93 50.296
25.994 42.381 48.707
25.898 42.167 50.007
28.833 36.343 48.927
28.868 34.971 48.404
29.412 33.908 49.367
29.46 32.729 48.998
29.645 34.901 47.089
29.151 35.836 46.022
27.818 36.265 45.969
30.033 36.264 45.033
27.395 37.122 44.972
29.616 37.118 44.033
28.294 37.549 44.003
29.812 34.301 50.579
30.196 33.344 51.621
31.188 32.309 51.122
32.279 32.66 50.676
30.796 31.038 51.155
31.695 29.943 50.771
31.816 29.711 49.259
32.693 28.962 48.819
31.287 28.65 51.481
31.605 28.665 52.972
31.308 27.333 53.654
32.276 26.218 53.26
33.702 26.508 53.59
30.949 30.348 48.472
31.056 30.315 47.006
32.304 31.066 46.488
32.828 30.751 45.411
29.783 30.895 46.383
29.594 30.585 44.904
28.291 31.133 44.336
27.511 31.776 45.077
28.045 30.92 43.129
32.761 32.048 47.268
33.984 32.813 46.999
35.22 32.02 47.471
35.714 32.208 48.588
33.871 34.177 47.702
34.792 35.213 47.163
34.517 35.831 45.956
35.934 35.571 47.859
35.374 36.789 45.446
36.798 36.519 47.358
36.518 37.131 46.149
35.693 31.117 46.609
36.822 30.216 46.916
38.151 30.878 46.588
38.16 31.899 45.902
36.746 28.916 46.094
36.841 29.211 44.693
35.442 28.2 46.359
39.278 30.309 47.066
40.582 30.873 46.717
40.87 31.072 45.224
41.37 32.141 44.856
41.569 29.923 47.392
40.848 29.532 48.625
39.391 29.429 48.24
40.536 30.09 44.366
40.725 30.292 42.905
39.981 31.492 42.295
40.524 32.198 41.434
40.184 28.993 42.307
40.354 27.984 43.395
40.111 28.711 44.676
38.746 31.683 42.742
37.934 32.82 42.351
38.595 34.09 42.862
38.764 35.039 42.1
36.503 32.715 42.925
35.712 34.004 42.718
35.771 31.54 42.3
38.967 34.108 44.141
39.595 35.288 44.722
40.799 35.702 43.905
40.908 36.86 43.513
40.031 35.074 46.17
40.398 36.396 46.827
41.253 36.254 48.051
41.301 35.193 48.662
41.943 37.341 48.425
41.684 34.746 43.649
42.891 34.99 42.863
42.596 35.654 41.52
43.346 36.537 41.089
43.652 33.697 42.643
41.513 35.234 40.867
41.063 35.863 39.624
40.688 37.333 39.819
41.311 38.204 39.223
39.892 35.092 39.053
39.696 37.595 40.673
39.268 38.962 40.984
40.371 39.877 41.499
40.308 41.082 41.268
38.145 38.981 42.009
36.786 38.781 41.416
36.07 39.847 40.881
36.2 37.525 41.393
34.804 39.663 40.339
34.938 37.326 40.854
34.246 38.396 40.333
32.999 38.181 39.806
41.356 39.342 42.211
42.483 40.174 42.634
43.23 40.715 41.437
43.678 41.857 41.483
43.462 39.428 43.547
42.979 39.242 44.977
42.847 40.546 45.733
43.531 41.533 45.432
41.963 40.559 46.725
43.366 39.907 40.38
44.056 40.343 39.152
43.266 41.388 38.373
43.852 42.294 37.785
44.391 39.16 38.247
45.424 38.216 38.851
45.611 36.934 38.038
46.207 37.179 36.648
47.552 37.836 36.651
41.945 41.261 38.374
41.089 42.263 37.768
41.273 43.587 38.497
41.806 44.521 37.912
39.604 41.825 37.726
38.684 42.99 37.381
39.424 40.693 36.721
40.881 43.671 39.765
40.95 44.967 40.474
42.357 45.569 40.591
42.487 46.761 40.889
40.29 44.974 41.879
38.803 44.658 41.783
41.019 44.042 42.842
43.395 44.764 40.377
44.743 45.307 40.209
44.793 46.079 38.911
45.1 47.268 38.909
45.803 44.208 40.208
44.474 45.397 37.814
44.481 46.013 36.486
43.757 47.348 36.458
44.333 48.366 36.067
42.515 47.323 36.934
41.622 48.467 36.901
42.186 49.616 37.68
42.077 50.739 37.244
40.255 48.118 37.49
39.405 49.37 37.72
39.549 47.117 36.582
42.774 49.338 38.836
43.439 50.372 39.63
44.729 50.855 38.969
44.961 52.056 38.852
43.732 49.846 41.016
45.554 49.907 38.528
46.829 50.211 37.86
46.649 50.935 36.547
47.57 51.611 36.099
47.655 48.938 37.61
48.298 48.387 38.887
48.973 49.117 39.625
48.101 47.089 39.145
45.478 50.776 35.929
45.134 51.444 34.669
44.422 52.764 34.845
44.53 53.62 34.001
44.268 50.531 33.831
43.676 52.919 35.926
42.938 54.15 36.179
43.828 55.225 36.743
43.382 56.342 36.948
41.798 53.877 37.143
40.684 54.9 37.338
39.342 54.183 37.303
40.823 55.669 38.645
45.081 54.894 37.012
46.037 55.883 37.417
47.328 55.652 36.672
48.326 55.213 37.251
46.247 55.793 38.908
47.282 55.902 35.366
48.494 56.047 34.553
48.669 57.466 33.994
49.695 57.75 33.373
48.547 55.005 33.42
47.591 55.269 32.296
47.711 56.351 31.449
46.51 54.577 31.868
46.734 56.324 30.561
45.992 55.256 30.792
47.687 58.347 34.197
47.833 59.739 33.791
48.829 60.485 34.694
49.398 61.503 34.29
46.469 60.442 33.763
46.473 61.862 33.2
47.082 61.96 31.802
47.232 63.403 31.349
47.897 63.498 30.019
49.05 59.963 35.9
50.055 60.496 36.822
51.469 60.216 36.307
52.313 61.116 36.285
49.894 59.885 38.223
48.569 60.181 38.896
48.414 61.302 39.717
47.469 59.332 38.724
47.2 61.571 40.339
46.255 59.594 39.336
46.124 60.71 40.142
44.915 60.956 40.74
51.709 58.968 35.895
53.021 58.515 35.406
52.9 57.868 34.019
52.579 58.555 33.048
53.692 57.565 36.42
52.843 56.398 36.831
52.847 55.199 36.15
51.971 56.245 37.856
52.01 54.36 36.735
51.466 54.97 37.773
53.115 56.671 33.805
59.289 49.277 67.162
58.589 50.514 67.604
59.575 51.696 67.685
59.537 52.582 66.835
57.857 50.285 68.948
57.109 51.552 69.368
56.92 49.084 68.839
60.45 51.684 68.694
61.524 52.671 68.87
62.486 52.114 69.908
62.125 52.017 71.086
60.974 54.007 69.375
60.728 55.15 68.39
60.009 56.279 69.109
62.02 55.658 67.764
63.69 51.732 69.491
64.666 51.182 70.435
65.168 52.264 71.393
65.071 53.456 71.076
65.843 50.515 69.708
66.373 51.34 68.689
65.687 51.861 72.573
66.241 52.854 73.503
67.476 53.599 72.968
67.721 54.74 73.377
66.587 52.021 74.743
66.744 50.633 74.239
65.731 50.504 73.148
68.233 52.961 72.071
69.302 53.638 71.325
68.773 54.722 70.359
69.383 55.787 70.226
70.143 52.621 70.572
67.651 54.444 69.692
67.004 55.424 68.818
66.428 56.603 69.584
66.474 57.721 69.085
65.896 54.778 67.969
66.439 53.858 66.862
67.668 53.833 66.614
65.621 53.148 66.235
65.884 56.37 70.777
65.367 57.469 71.604
66.469 58.428 72.013
66.259 59.638 72.034
64.688 56.958 72.863
63.396 56.206 72.614
62.912 55.519 73.887
61.737 54.585 73.625
60.475 55.311 73.289
67.638 57.891 72.346
68.801 58.719 72.649
69.191 59.566 71.444
69.26 60.792 71.544
70.001 57.859 73.07
69.66 57.118 74.251
71.238 58.728 73.34
69.433 58.899 70.317
69.8 59.567 69.067
68.872 60.705 68.681
69.339 61.754 68.246
69.839 58.572 67.899
71.111 57.754 67.858
71.118 56.626 67.359
72.202 58.321 68.362
67.57 60.495 68.817
66.612 61.536 68.491
66.807 62.714 69.432
66.873 63.852 68.976
65.158 61.021 68.529
64.136 62.162 68.489
64.929 60.086 67.357
66.92 62.448 70.73
67.101 63.529 71.704
68.362 64.345 71.44
68.314 65.581 71.403
67.112 62.983 73.131
65.723 62.614 73.601
65.715 61.989 74.981
64.321 61.474 75.313
63.26 62.525 75.229
69.47 63.638 71.237
70.765 64.254 70.962
70.759 65.071 69.673
71.118 66.247 69.686
71.841 63.184 70.888
70.343 64.445 68.576
70.349 65.095 67.266
69.35 66.239 67.154
69.636 67.221 66.478
70.096 64.084 66.165
68.188 66.119 67.793
67.22 67.222 67.814
67.65 68.326 68.782
67.251 69.481 68.622
65.819 66.735 68.158
64.802 67.758 67.871
64.198 68.592 68.767
64.289 68.1 66.595
63.319 69.43 68.124
63.357 69.151 66.787
64.52 67.621 65.303
62.664 69.736 65.737
63.834 68.205 64.248
62.91 69.255 64.474
68.453 67.971 69.784
69.148 68.965 70.608
70.083 69.888 69.827
70.14 71.088 70.101
70.804 69.329 68.853
71.758 70.097 68.038
71.074 71.049 67.064
71.662 72.056 66.677
72.698 69.168 67.262
73.551 68.252 68.132
74.608 69.002 68.933
75.45 68.045 69.769
74.656 67.323 70.807
69.85 70.722 66.656
69.022 71.647 65.883
68.798 72.872 66.752
69.162 73.986 66.373
67.662 71.019 65.485
66.687 72.073 64.965
67.864 69.92 64.452
68.209 72.637 67.922
68.06 73.652 68.956
67.198 74.838 68.571
65.987 74.701 68.379
67.84 75.996 68.438
67.149 77.28 68.331
66.901 77.777 66.902
66.316 78.846 66.725
67.917 78.33 69.114
67.333 77.02 65.894
66.997 77.324 64.498
65.769 76.53 64.042
65.558 76.337 62.84
68.191 77.021 63.588
69.409 77.825 63.909
70.428 77.347 64.705
69.769 79.079 63.547
71.365 78.272 64.817
70.989 79.332 64.124
64.947 76.097 64.997
63.824 75.226 64.706
62.808 75.95 63.84
62.286 75.372 62.894
63.186 74.734 65.994
62.553 77.217 64.146
61.681 78.037 63.321
62.085 78.032 61.862
61.265 77.771 60.983
63.36 78.294 61.611
63.853 78.422 60.248
63.829 77.097 59.502
63.445 77.064 58.333
65.266 79.002 60.244
65.763 79.444 58.872
67.185 79.993 58.896
67.789 80.099 59.99
67.706 80.322 57.808
64.239 76.017 60.163
64.221 74.701 59.529
62.807 74.256 59.224
62.567 73.676 58.166
64.934 73.639 60.368
66.425 73.867 60.563
67.171 74.727 59.721
67.111 73.201 61.585
68.535 74.923 59.919
68.476 73.386 61.787
69.183 74.247 60.957
70.534 74.435 61.163
61.874 74.537 60.129
60.467 74.239 59.905
59.917 74.949 58.689
59.13 74.38 57.943
60.337 76.188 58.487
59.858 76.985 57.374
60.373 76.451 56.062
59.622 76.307 55.105
60.299 78.427 57.538
61.668 76.175 56.022
62.321 75.677 54.821
61.765 74.318 54.406
61.6 74.064 53.218
63.821 75.57 55.064
64.649 75.239 53.831
66.121 74.986 54.148
66.578 75.337 55.263
66.826 74.436 53.27
61.479 73.457 55.385
60.797 72.183 55.138
59.455 72.379 54.423
59.259 71.831 53.337
60.609 71.407 56.434
58.553 73.17 54.999
57.299 73.501 54.315
57.51 74.045 52.92
56.749 73.709 52.023
56.463 74.516 55.085
55.813 73.988 56.355
55.027 75.086 57.049
54.909 72.799 56.06
58.529 74.871 52.729
58.759 75.493 51.436
59.2 74.501 50.357
58.746 74.596 49.219
59.78 76.607 51.578
59.835 77.548 50.383
60.913 78.619 50.521
61.192 79.067 51.663
61.483 79.019 49.478
60.09 73.575 50.711
60.511 72.508 49.803
59.336 71.654 49.442
59.148 71.351 48.271
61.556 71.597 50.437
62.938 72.194 50.494
63.863 71.4 51.399
65.151 72.08 51.519
66.108 72.091 50.589
67.235 72.761 50.817
65.967 71.434 49.435
58.559 71.249 50.448
57.383 70.422 50.226
56.388 71.058 49.237
56.032 70.407 48.267
56.693 70.082 51.54
55.524 69.105 51.378
54.543 68.676 52.849
54.008 70.28 53.502
55.957 72.304 49.443
55.056 72.961 48.477
55.614 73.012 47.055
54.857 72.823 46.113
54.688 74.391 48.871
53.876 74.493 50.122
52.695 73.804 50.254
54.285 75.301 51.169
51.949 73.891 51.426
53.552 75.393 52.345
52.378 74.691 52.474
56.911 73.281 46.882
57.533 73.27 45.528
57.609 71.904 44.897
57.3 71.76 43.722
58.956 73.815 45.546
59.048 75.324 45.456
60.414 75.79 45.945
58.782 75.776 44.023
58.055 70.922 45.673
58.31 69.577 45.162
57.025 68.823 44.828
56.95 68.169 43.785
59.139 68.758 46.158
60.435 69.308 46.317
56.028 68.914 45.706
54.795 68.135 45.587
53.596 69.07 45.656
52.887 69.12 46.659
54.711 67.121 46.714
55.969 66.382 46.937
56.33 65.367 46.073
56.801 66.703 48.012
57.507 64.668 46.271
57.981 66.014 48.22
58.335 64.989 47.348
53.342 69.804 44.583
52.4 70.921 44.648
50.93 70.594 44.933
50.175 71.5 45.284
52.558 71.578 43.285
53.021 70.466 42.398
53.899 69.609 43.239
50.525 69.336 44.813
49.18 68.929 45.253
48.969 68.972 46.768
47.835 68.866 47.236
48.852 67.504 44.795
49.922 66.622 45.171
48.663 67.476 43.286
50.06 69.089 47.524
49.993 69.299 48.96
49.452 70.692 49.34
49.054 70.9 50.481
51.376 69.082 49.606
51.222 68.839 51.006
52.279 70.288 49.406
49.461 71.643 48.404
48.986 72.998 48.68
47.522 73.036 49.03
47.106 73.838 49.863
49.208 73.911 47.484
50.654 74.28 47.25
50.786 75.138 46.005
52.247 75.328 45.629
52.43 75.824 44.234
46.747 72.151 48.422
45.29 72.186 48.551
44.738 72.155 49.988
43.592 72.55 50.212
44.631 71.044 47.751
45.032 69.775 48.279
45.014 71.133 46.273
45.533 71.681 50.943
45.152 71.748 52.351
45.247 73.158 52.884
44.556 73.477 53.843
45.998 70.801 53.204
45.713 69.373 52.867
44.656 68.698 53.455
46.463 68.712 51.927
44.372 67.387 53.135
46.188 67.406 51.587
45.14 66.738 52.191
44.877 65.422 51.844
46.094 73.989 52.277
46.229 75.389 52.645
45.638 76.286 51.556
46.378 76.89 50.774
47.693 75.746 52.795
48.434 74.916 53.779
48.624 75.362 55.074
48.996 73.715 53.399
49.336 74.61 55.989
49.711 72.954 54.304
49.881 73.404 55.602
44.304 76.4 51.492
43.711 77.209 50.423
43.861 78.724 50.632
43.961 79.475 49.663
42.242 76.819 50.503
42.026 76.597 51.963
43.28 75.927 52.441
43.905 79.144 51.892
43.797 80.55 52.273
45.154 81.202 52.584
45.218 82.413 52.803
42.85 80.687 53.476
43.315 79.956 54.697
43.056 78.618 54.907
44.039 80.371 55.764
43.598 78.241 56.051
44.199 79.286 56.592
46.226 80.412 52.614
47.57 80.949 52.808
48.052 81.623 51.532
47.552 81.349 50.437
48.563 79.837 53.18
48.607 79.488 54.651
47.536 79.753 55.512
49.736 78.843 55.171
47.605 79.402 56.854
49.807 78.492 56.512
48.74 78.769 57.354
49.043 82.495 51.7
49.762 83.128 50.587
51.076 82.374 50.382
52.074 82.644 51.051
49.992 84.642 50.823
50.452 84.985 52.253
50.462 84.093 53.129
50.797 86.161 52.498
51.068 81.424 49.453
52.18 80.492 49.294
53.2 80.964 48.263
53.619 80.196 47.391
51.646 79.117 48.909
50.625 78.51 49.862
50.138 77.207 49.261
51.221 78.281 51.244
53.609 82.226 48.378
54.679 82.781 47.557
56.011 82.548 48.27
56.061 81.886 49.313
54.434 84.276 47.313
54.556 85.033 48.507
57.088 83.079 47.703
58.397 83.008 48.338
58.507 84.035 49.47
58.343 85.238 49.247
59.496 83.242 47.302
60.879 83.068 47.843
61.392 81.837 48.19
61.856 83.969 48.1
62.626 81.987 48.637
62.932 83.271 48.592
58.905 83.56 50.65
59.091 84.394 51.831
57.918 85.044 52.548
58.068 86.126 53.112
56.758 84.397 52.534
55.563 84.925 53.195
55.677 84.772 54.697
56.204 83.77 55.186
54.313 84.192 52.722
54.149 84.336 51.324
55.166 85.76 55.424
55.159 85.721 56.884
54.223 84.644 57.432
54.423 84.157 58.547
54.774 87.08 57.444
53.203 84.286 56.652
52.264 83.231 57.022
52.964 81.878 57.138
52.839 81.191 58.154
51.137 83.153 55.989
49.931 82.336 56.416
49.144 82.996 57.529
49.339 82.695 58.709
48.259 83.914 57.161
53.711 81.519 56.1
54.433 80.257 56.07
55.52 80.239 57.125
55.624 79.274 57.879
55.026 79.977 54.679
55.995 78.798 54.695
53.897 79.703 53.699
56.321 81.296 57.19
57.389 81.375 58.198
56.871 81.223 59.63
57.552 80.648 60.484
58.177 82.679 58.061
59.05 82.721 56.816
59.87 84.003 56.731
61.086 83.987 57.652
62.083 82.928 57.311
55.667 81.741 59.871
54.996 81.615 61.158
54.538 80.199 61.412
54.758 79.657 62.497
53.912 79.596 60.406
53.427 78.221 60.52
54.548 77.232 60.851
54.395 76.377 61.723
52.732 77.797 59.235
52.02 76.498 59.361
52.63 75.29 59.112
50.759 76.212 59.753
51.768 74.313 59.323
50.624 74.846 59.716
55.667 77.375 60.149
56.832 76.552 60.368
57.35 76.62 61.785
57.907 75.647 62.286
57.19 77.764 62.433
57.581 77.888 63.821
56.765 76.935 64.646
57.316 76.202 65.463
57.37 79.314 64.322
57.864 79.589 65.734
59.337 79.243 65.908
59.925 79.869 67.168
59.434 79.251 68.437
55.455 76.933 64.411
54.535 76.099 65.184
54.843 74.604 65.052
55.058 73.924 66.063
53.086 76.401 64.803
52.62 77.767 65.272
51.192 78.046 64.838
50.807 79.506 65.029
51.552 80.457 64.147
54.903 74.125 63.808
55.279 72.741 63.505
56.538 72.368 64.238
56.569 71.397 64.978
55.576 72.532 62.022
56.161 71.152 61.763
54.32 72.714 61.215
57.584 73.146 64.03
58.857 72.844 64.642
58.757 72.762 66.167
59.432 71.943 66.783
59.895 73.863 64.226
57.909 73.586 66.769
57.709 73.52 68.208
56.925 72.299 68.663
57.273 71.693 69.683
57.056 74.799 68.714
58.016 75.997 68.685
59.229 75.819 68.391
57.554 77.128 68.969
55.891 71.925 67.91
55.131 70.694 68.192
56.011 69.45 68.164
55.827 68.551 68.971
53.985 70.535 67.206
56.944 69.405 67.219
57.922 68.335 67.16
58.893 68.356 68.332
59.359 67.295 68.758
58.745 68.425 65.894
58.092 67.971 64.614
58.994 68.366 63.462
57.86 66.47 64.64
59.235 69.55 68.824
60.097 69.678 70.011
59.416 69.094 71.245
60.032 68.335 72.006
60.483 71.138 70.306
60.796 71.816 69.084
61.697 71.184 71.223
58.143 69.45 71.42
57.303 68.855 72.453
57.246 67.325 72.354
57.39 66.637 73.359
55.886 69.424 72.386
55.014 68.957 73.537
55.483 68.8 74.669
53.731 68.735 73.254
57.042 66.8 71.151
57.001 65.353 70.952
58.265 64.691 71.439
58.188 63.644 72.074
56.779 65.001 69.492
59.422 65.288 71.155
60.7 64.681 71.548
60.873 64.662 73.066
61.496 63.742 73.605
61.902 65.35 70.857
63.225 64.812 71.389
61.844 65.084 69.368
60.309 65.663 73.743
60.294 65.706 75.212
59.603 64.492 75.846
60.113 63.929 76.817
59.632 66.989 75.702
58.456 64.103 75.29
57.668 62.974 75.789
57.722 61.8 74.805
56.686 61.219 74.476
56.193 63.389 75.992
56.002 64.665 76.75
56.188 64.756 78.112
55.604 65.893 76.341
55.934 65.992 78.507
55.578 66.702 77.451
58.911 61.416 74.353
59.017 60.362 73.325
58.508 58.976 73.786
58.378 58.058 72.976
60.462 60.262 72.766
61.376 59.474 73.7
60.482 59.656 71.37
58.217 58.843 75.082
57.749 57.594 75.685
56.215 57.474 75.767
55.679 56.372 75.637
58.357 57.457 77.09
59.884 57.625 77.099
60.552 57.168 76.144
60.413 58.215 78.067
55.523 58.593 75.992
54.057 58.621 76.114
53.463 59.644 75.131
52.847 60.65 75.51
53.665 58.938 77.561
52.164 58.842 77.801
51.569 57.79 77.476
51.584 59.824 78.316
53.645 59.348 73.854
53.42 60.317 72.791
51.953 60.599 72.452
51.625 61.742 72.154
54.18 59.876 71.544
54.492 60.987 70.568
55.375 60.292 69.157
57.008 60.1 69.863
51.079 59.57 72.461
49.655 59.779 72.171
48.888 60.705 73.098
47.866 61.252 72.686
49.073 58.379 72.279
50.178 57.529 71.806
51.396 58.133 72.433
49.345 60.879 74.33
48.717 61.86 75.208
49.177 63.275 74.867
48.348 64.185 74.739
48.981 61.517 76.67
48.255 60.255 77.101
47.076 60.062 76.79
48.955 59.387 77.819
50.491 63.448 74.708
51.085 64.75 74.371
50.493 65.356 73.104
50.065 66.505 73.105
52.595 64.624 74.228
50.441 64.559 72.042
49.97 65.006 70.73
48.449 64.87 70.513
47.991 64.74 69.375
50.713 64.217 69.644
52.222 64.357 69.553
52.716 63.495 68.406
52.606 65.812 69.329
47.658 64.938 71.582
46.234 64.602 71.488
45.399 65.683 70.816
44.43 65.363 70.141
45.675 64.286 72.859
45.765 66.947 71.004
45.082 68.058 70.326
45.382 68.12 68.836
44.546 68.589 68.053
45.467 69.385 70.96
46.586 67.691 68.463
46.99 67.704 67.071
46.317 66.615 66.305
45.846 66.842 65.19
48.489 67.557 66.936
49.302 68.717 67.472
50.742 68.515 67.04
48.795 70.059 66.966
46.269 65.433 66.893
45.51 64.375 66.3
44.085 64.824 66.057
43.549 64.61 64.985
45.502 63.155 67.182
44.476 62.272 66.755
43.48 65.469 67.042
42.108 65.946 66.894
41.941 66.907 65.736
40.875 66.967 65.145
41.604 66.603 68.185
41.434 65.594 69.342
41.617 64.369 69.122
41.128 66.029 70.481
42.995 67.651 65.417
42.973 68.634 64.331
43.265 68.004 62.98
42.452 68.141 62.062
43.989 69.74 64.608
43.719 71.078 63.938
44.566 72.124 64.642
44.046 71.072 62.463
44.425 67.351 62.84
44.804 66.797 61.556
43.896 65.619 61.175
43.681 65.397 60.001
46.284 66.415 61.493
47.242 67.574 61.531
47.824 67.988 62.696
47.78 68.358 60.552
48.664 68.98 62.447
48.681 69.227 61.146
43.319 64.897 62.134
42.572 63.659 61.817
41.065 63.799 61.724
40.481 63.267 60.79
42.913 62.542 62.801
40.433 64.455 62.695
38.974 64.608 62.681
38.542 65.717 61.759
37.712 65.5 60.884
38.41 64.884 64.062
38.661 63.79 65.044
39.888 63.592 65.645
37.84 62.832 65.54
39.813 62.559 66.467
38.582 62.079 66.422
39.1 66.905 61.957
38.636 68.097 61.265
39.186 68.189 59.845
38.418 68.203 58.885
39.009 69.335 62.066
38.42 70.622 61.518
38.615 71.79 62.484
40.009 72.41 62.387
40.182 73.293 61.193
40.507 68.243 59.715
41.156 68.436 58.41
41.156 67.23 57.494
41.104 67.398 56.28
42.603 68.872 58.586
42.774 70.286 59.09
44.255 70.573 59.268
42.134 71.26 58.111
41.264 66.035 58.068
41.306 64.79 57.31
42.415 64.82 56.263
42.176 64.74 55.062
39.933 64.48 56.717
38.867 64.322 57.793
37.498 63.935 57.251
36.953 64.995 56.39
36.088 65.953 56.75
35.599 66.032 57.992
35.698 66.852 55.841
43.635 64.972 56.751
44.815 64.885 55.916
45.013 63.405 55.781
44.85 62.681 56.772
46.064 65.518 56.581
47.291 65.415 55.678
45.794 66.974 56.917
45.347 62.95 54.572
45.581 61.523 54.349
47.03 61.224 54.508
47.868 62.09 54.257
45.113 61.053 52.981
46.025 61.46 51.886
46.339 62.68 51.85
46.401 60.562 51.077
47.339 59.985 54.883
48.61 59.796 55.537
49.831 59.819 54.587
50.968 59.96 55.058
48.421 58.449 56.252
46.965 58.148 56.124
46.616 58.721 54.81
49.582 59.707 53.281
50.586 59.97 52.246
51.292 61.301 52.378
52.49 61.384 52.104
49.924 59.939 50.86
50.729 60.659 49.771
49.699 58.488 50.49
50.568 62.342 52.761
51.165 63.657 52.799
52.072 63.814 53.978
52.885 64.723 53.982
50.109 64.731 52.852
49.123 64.638 51.708
47.985 65.079 51.843
49.541 64.048 50.581
51.94 62.952 54.987
52.911 62.918 56.078
54.247 62.413 55.632
55.266 62.932 56.053
52.402 62.111 57.238
51.43 62.858 58.025
51.868 63.726 58.999
50.087 62.794 57.72
50.973 64.495 59.709
49.179 63.572 58.412
49.62 64.419 59.421
54.244 61.436 54.745
55.474 60.934 54.192
56.261 61.92 53.355
57.44 61.686 53.123
55.211 59.695 53.379
54.919 58.502 54.266
54.309 57.336 53.493
55.239 56.797 52.399
54.595 55.691 51.629
55.648 63.003 52.897
56.368 63.992 52.105
56.912 65.094 52.997
58.011 65.584 52.756
55.475 64.584 51.024
54.683 63.573 50.194
53.523 64.236 49.472
55.605 62.864 49.218
56.16 65.503 54.014
56.691 66.471 54.957
57.793 65.878 55.815
58.656 66.622 56.278
55.626 66.998 55.896
56.061 68.144 56.823
56.714 69.271 56.049
54.869 68.699 57.561
57.761 64.566 56.05
58.82 63.9 56.789
60.054 63.757 55.986
61.137 63.809 56.532
58.395 62.522 57.204
57.314 62.605 58.123
59.896 63.546 54.688
61.031 63.547 53.745
61.702 64.906 53.613
62.928 65.008 53.609
60.562 63.135 52.36
61.626 63.208 51.317
62.716 62.363 51.312
61.764 64.018 50.241
63.477 62.646 50.27
62.924 63.648 49.607
60.89 65.94 53.487
61.411 67.272 53.349
62.005 67.852 54.606
62.759 68.795 54.51
60.345 68.18 52.786
60.102 67.84 51.019
61.696 67.311 55.774
62.461 67.663 56.963
63.822 67.049 56.986
64.735 67.687 57.488
61.793 67.227 58.245
60.822 68.238 58.811
59.923 67.565 59.846
61.604 69.393 59.412
63.973 65.817 56.509
65.294 65.172 56.54
66.238 65.77 55.539
67.405 65.958 55.846
65.216 63.668 56.334
64.388 62.997 57.438
64.393 61.486 57.219
64.844 63.373 58.861
65.746 66.096 54.357
66.563 66.825 53.41
67.066 68.125 54.04
68.245 68.433 53.944
65.81 67.072 52.091
66.412 68.233 51.301
65.795 65.792 51.259
66.184 68.859 54.699
66.552 70.11 55.338
67.602 69.958 56.425
68.535 70.747 56.468
65.325 70.789 55.944
64.405 71.094 54.893
65.685 72.088 56.631
67.469 68.982 57.309
68.521 68.746 58.291
69.828 68.362 57.65
70.861 68.881 58.044
68.159 67.645 59.269
67.033 68.004 60.227
66.842 66.856 61.206
67.306 69.314 60.951
69.81 67.47 56.671
71.056 67.061 56.015
71.758 68.221 55.305
72.981 68.238 55.206
70.803 65.929 55.035
70.991 69.188 54.825
71.559 70.373 54.208
72.018 71.438 55.211
72.482 72.496 54.787
70.556 70.972 53.233
71.865 71.197 56.516
72.265 72.169 57.544
73.048 71.661 58.757
73.694 72.461 59.429
71.031 72.92 58.01
70.554 73.93 57.022
69.822 73.589 55.907
70.728 75.27 56.964
69.559 74.676 55.206
70.093 75.711 55.828
72.995 70.362 59.042
73.745 69.758 60.136
74.509 68.583 59.574
74.24 67.44 59.939
72.797 69.267 61.233
71.877 70.296 61.886
70.955 69.577 62.865
72.668 71.404 62.578
75.467 68.847 58.68
76.084 67.736 57.955
76.833 66.754 58.848
76.834 65.555 58.568
77.054 68.437 56.994
76.668 69.885 57.019
76.15 70.116 58.398
77.445 67.265 59.914
78.232 66.446 60.835
77.381 65.523 61.715
77.79 64.399 62.018
79.102 67.341 61.705
76.202 66.001 62.113
75.304 65.248 62.998
74.439 64.206 62.285
73.697 63.478 62.94
74.397 66.224 63.768
75.15 67.213 64.659
75.952 66.542 65.775
75.457 65.557 66.372
77.079 67.007 66.066
74.551 64.115 60.96
73.64 63.331 60.138
74.319 62.027 59.698
74.458 61.742 58.509
73.182 64.192 58.943
71.91 63.717 58.305
70.682 63.926 58.938
71.933 63.048 57.073
69.502 63.47 58.362
70.754 62.593 56.491
69.537 62.805 57.137
74.741 61.235 60.678
75.307 59.916 60.416
74.169 58.957 60.126
73.034 59.233 60.515
76.063 59.352 61.638
75.17 59.229 62.76
77.237 60.248 62.012
74.461 57.812 59.479
73.43 56.803 59.22
72.56 56.44 60.405
71.349 56.372 60.251
74.24 55.607 58.753
75.334 56.259 57.987
75.729 57.437 58.829
73.153 56.244 61.573
72.371 55.883 62.756
71.376 56.963 63.187
70.292 56.653 63.682
73.29 55.535 63.911
71.747 58.218 63.001
70.822 59.31 63.228
69.736 59.357 62.146
68.568 59.562 62.471
71.572 60.65 63.303
70.606 61.836 63.304
72.455 60.659 64.549
70.122 59.192 60.878
69.172 59.111 59.764
68.159 58.029 60.082
66.96 58.267 60.006
69.9 58.777 58.457
69.066 58.899 57.211
69.634 59.041 55.962
67.723 58.894 57.008
68.682 59.114 55.048
67.512 59.033 55.656
68.643 56.857 60.474
67.78 55.711 60.764
66.806 55.951 61.898
65.643 55.561 61.796
68.61 54.494 61.088
67.27 56.573 62.976
66.401 56.886 64.107
65.417 57.985 63.785
64.234 57.814 64.01
67.221 57.302 65.308
68.19 56.312 65.601
65.898 59.104 63.253
65.02 60.232 62.937
63.92 59.882 61.972
62.876 60.525 61.998
65.786 61.432 62.378
66.235 62.477 63.405
67.276 63.428 62.834
65.043 63.28 63.908
64.147 58.884 61.123
63.115 58.392 60.213
61.972 57.663 60.926
60.802 57.9 60.618
63.74 57.47 59.177
62.791 57.155 58.026
62.775 57.912 57.014
62.067 56.132 58.136
62.321 56.771 61.856
61.331 56.094 62.725
60.538 57.04 63.613
59.338 56.852 63.816
61.997 55.07 63.634
62.422 53.832 62.892
63.198 52.867 63.791
62.334 51.765 64.417
63.161 50.674 65.03
61.226 58.024 64.17
60.602 58.977 65.043
59.507 59.695 64.3
58.367 59.671 64.755
61.601 59.995 65.56
60.952 61.119 66.288
60.176 60.862 67.421
61.051 62.427 65.82
59.534 61.897 68.09
60.404 63.462 66.487
59.646 63.195 67.623
59.853 60.332 63.173
58.877 61.079 62.343
57.712 60.231 61.891
56.58 60.708 61.808
59.532 61.654 61.108
60.415 62.851 61.397
61.245 63.184 60.169
59.589 64.05 61.827
58.008 58.967 61.603
56.994 57.984 61.234
56.003 57.672 62.353
54.815 57.504 62.087
57.66 56.711 60.762
56.489 57.571 63.586
55.604 57.409 64.743
54.682 58.598 64.874
53.469 58.439 64.991
56.39 57.246 66.052
56.966 55.953 66.123
55.272 59.778 64.852
54.519 60.992 65.005
53.417 61.045 63.938
52.268 61.374 64.256
55.456 62.228 64.955
54.7 63.548 64.786
56.302 62.279 66.208
53.75 60.7 62.695
52.779 60.744 61.592
51.566 59.856 61.835
50.447 60.201 61.467
53.439 60.3 60.288
54.554 61.12 59.96
51.813 58.713 62.461
50.775 57.74 62.802
49.823 58.175 63.937
48.624 57.894 63.885
51.434 56.394 63.148
52.2 55.943 62.011
50.383 55.342 63.519
50.346 58.852 64.947
49.498 59.435 65.982
48.591 60.506 65.396
47.407 60.527 65.704
50.326 60.049 67.129
49.457 60.861 68.083
51.044 58.945 67.89
49.127 61.393 64.57
48.303 62.464 64.041
47.297 62.038 62.975
46.438 62.823 62.639
49.147 63.592 63.463
50.239 64.242 64.308
50.794 65.437 63.562
49.741 64.693 65.65
47.384 60.838 62.418
46.406 60.42 61.398
45.436 59.335 61.896
45.006 58.461 61.122
47.116 59.906 60.125
48.059 58.878 60.469
47.829 61.012 59.44
45.075 59.393 63.172
44.172 58.409 63.747
43.21 59.024 64.737
43.499 60.072 65.314
44.971 57.314 64.414
45.881 57.859 65.341
42.051 58.39 64.871
41.011 58.849 65.768
40.919 58.047 67.048
40.31 56.988 67.09
39.656 58.791 65.069
39.508 59.755 63.91
38.144 59.609 63.264
37.96 60.582 62.115
36.626 60.411 61.475
41.567 58.556 68.081
41.562 57.946 69.393
41.277 59.046 70.407
41.673 60.196 70.203
42.903 57.28 69.68
44.019 58.262 69.929
44.541 59.02 68.896
44.544 58.437 71.197
45.555 59.924 69.118
45.558 59.341 71.428
46.059 60.079 70.383
47.071 60.978 70.608
40.592 58.7 71.493
39.892 59.684 72.316
39.177 60.714 71.445
39.045 61.883 71.803
40.842 60.384 73.3
42.088 59.591 73.66
43.028 60.412 74.526
44.297 59.731 74.77
44.416 58.438 75.059
43.339 57.67 75.14
45.615 57.912 75.267
38.717 60.394 70.351
59.594 62.749 30.972
59.315 63.685 32.103
59.582 65.137 31.676
60.62 65.439 31.082
60.107 63.287 33.38
61.612 63.257 33.135
59.761 64.204 34.546
58.634 66.023 31.979
58.652 67.395 31.466
59.52 68.314 32.318
59.094 68.766 33.384
57.231 67.959 31.4
56.317 67.186 30.502
56.384 67.265 29.128
55.313 66.322 30.781
55.462 66.481 28.599
54.798 65.898 29.581
60.736 68.582 31.844
61.627 69.554 32.48
61.79 70.776 31.58
61.897 70.649 30.357
63.0 68.936 32.784
63.132 68.149 34.093
62.581 66.74 33.944
64.581 68.097 34.548
61.803 71.954 32.199
62.127 73.198 31.51
63.649 73.327 31.38
64.382 72.654 32.112
61.59 74.415 32.28
62.126 74.42 33.609
60.074 74.368 32.352
64.137 74.192 30.464
65.593 74.386 30.303
66.35 74.931 31.524
67.568 74.765 31.602
65.689 75.384 29.145
64.422 75.204 28.39
63.385 74.93 29.433
65.641 75.573 32.452
66.237 76.058 33.7
66.441 74.912 34.686
67.474 74.839 35.354
65.368 77.143 34.344
65.341 78.468 33.584
64.391 78.494 32.391
63.809 77.444 32.035
64.228 79.581 31.797
65.445 74.034 34.786
65.547 72.834 35.619
66.614 71.883 35.087
67.452 71.402 35.85
64.196 72.114 35.723
63.167 72.851 36.576
61.892 72.052 36.822
61.59 71.123 36.039
61.18 72.363 37.802
66.587 71.629 33.782
67.58 70.763 33.147
69.005 71.331 33.246
69.964 70.564 33.335
67.212 70.487 31.686
67.974 69.324 31.067
67.574 69.096 29.618
68.51 68.112 28.928
68.205 67.955 27.477
69.143 72.658 33.236
70.445 73.295 33.477
70.929 73.055 34.911
72.111 72.774 35.131
70.401 74.802 33.183
69.573 75.499 34.098
70.012 73.169 35.871
70.321 72.928 37.282
70.701 71.471 37.538
71.699 71.196 38.208
69.144 73.329 38.159
69.905 70.552 36.998
70.163 69.122 37.123
71.569 68.794 36.632
72.359 68.223 37.371
69.115 68.295 36.34
69.551 66.85 36.153
67.767 68.337 37.042
71.876 69.176 35.396
73.168 68.848 34.776
74.371 69.519 35.439
75.464 68.948 35.449
73.185 69.215 33.279
72.687 70.55 33.102
72.334 68.23 32.476
74.168 70.725 35.973
75.236 71.479 36.641
75.656 70.818 37.954
76.839 70.535 38.162
74.798 72.915 36.891
74.681 70.576 38.83
74.945 69.902 40.101
75.225 68.432 39.938
75.791 67.843 40.841
73.809 70.082 41.109
73.947 71.341 41.968
73.608 72.59 41.153
73.086 71.241 43.228
74.824 67.822 38.825
75.24 66.447 38.55
76.684 66.398 38.097
77.395 65.439 38.396
74.377 65.773 37.495
74.682 64.324 37.43
75.476 63.691 36.525
74.251 63.331 38.352
75.541 62.351 36.809
74.796 62.105 37.931
73.438 63.355 39.487
74.561 60.913 38.609
73.204 62.167 40.161
73.766 60.964 39.72
77.103 67.418 37.354
78.497 67.567 36.947
79.495 67.637 38.096
80.634 67.187 37.952
79.072 68.194 39.233
79.928 68.307 40.422
79.966 67.055 41.32
80.757 67.007 42.265
79.496 69.514 41.262
79.575 70.843 40.529
79.27 72.006 41.459
79.534 73.34 40.779
79.27 74.496 41.68
79.128 66.055 41.029
79.031 64.84 41.849
80.314 64.037 41.724
80.813 63.835 40.615
77.856 63.927 41.399
77.884 62.573 42.102
76.515 64.599 41.641
80.841 63.576 42.854
81.934 62.611 42.845
81.336 61.22 42.651
80.828 60.611 43.596
82.737 62.681 44.141
83.915 61.721 44.155
84.376 61.249 43.11
84.417 61.431 45.35
81.433 60.708 41.425
80.736 59.47 41.029
81.388 58.158 41.507
81.11 57.092 40.953
80.501 59.421 39.493
79.545 60.53 39.072
81.815 59.494 38.711
82.251 58.237 42.519
82.774 57.059 43.205
82.038 56.793 44.523
81.618 55.662 44.79
84.264 57.247 43.49
84.909 56.001 44.072
85.071 55.014 43.323
85.254 56.009 45.274
81.89 57.838 45.337
81.44 57.702 46.724
79.927 57.799 46.91
79.375 57.17 47.812
82.133 58.766 47.586
82.157 58.465 49.081
82.9 57.181 49.438
83.88 56.832 48.742
82.502 56.517 50.422
79.268 58.576 46.059
77.843 58.847 46.204
77.005 57.573 46.149
76.215 57.318 47.062
77.37 59.868 45.152
75.85 59.971 45.094
77.972 61.221 45.477
77.181 56.779 45.095
76.501 55.481 44.978
76.753 54.541 46.157
75.849 53.824 46.601
77.989 54.551 46.655
78.368 53.78 47.825
77.676 54.249 49.083
77.278 53.432 49.908
77.542 55.562 49.236
76.833 56.121 50.377
75.363 55.855 50.26
74.762 55.364 51.212
77.061 57.622 50.507
78.394 57.964 51.158
78.711 59.457 51.184
77.864 60.272 50.752
79.821 59.817 51.646
74.787 56.166 49.098
73.339 56.022 48.897
72.874 54.604 49.19
72.01 54.385 50.033
72.931 56.433 47.498
73.477 53.642 48.525
73.149 52.259 48.785
73.526 51.798 50.222
72.903 50.89 50.776
73.835 51.383 47.755
73.319 49.953 47.797
71.969 49.878 47.093
74.344 49.018 47.193
74.549 52.398 50.813
74.883 52.112 52.195
73.761 52.568 53.113
73.359 51.819 54.014
73.247 53.785 52.899
72.173 54.304 53.752
70.928 53.477 53.618
70.254 53.238 54.62
71.86 55.771 53.481
72.738 56.644 54.331
72.679 58.121 53.993
73.808 58.784 54.666
73.849 59.157 55.95
72.804 58.999 56.747
74.95 59.722 56.44
70.636 53.017 52.396
69.445 52.206 52.14
69.415 51.016 53.044
68.398 50.775 53.676
69.373 51.718 50.703
68.006 51.101 50.368
67.011 52.223 50.059
68.059 50.079 49.233
70.531 50.302 53.129
70.6 49.091 53.955
70.533 49.303 55.445
70.221 48.365 56.173
71.852 48.28 53.688
71.678 47.301 52.544
71.365 48.021 51.238
72.974 46.512 52.415
70.829 50.507 55.908
70.719 50.841 57.341
69.323 51.375 57.745
68.793 51.035 58.798
71.807 51.876 57.683
71.635 52.433 59.092
73.173 51.236 57.476
68.752 52.204 56.892
67.478 52.83 57.156
66.248 51.955 56.83
65.19 52.145 57.461
67.402 54.146 56.384
66.025 54.8 56.492
68.488 55.064 56.916
66.347 51.022 55.875
65.205 50.146 55.536
65.601 48.672 55.597
65.551 47.959 54.595
64.636 50.533 54.178
64.173 51.971 54.123
63.253 52.449 55.063
64.652 52.873 53.137
62.811 53.763 55.04
64.215 54.201 53.104
63.287 54.636 54.064
62.802 55.928 54.115
65.965 48.202 56.8
66.684 46.934 57.042
66.26 45.753 56.181
67.128 45.0 55.708
66.369 46.611 58.496
66.036 47.92 59.124
65.518 48.83 58.058
64.954 45.578 55.977
64.483 44.45 55.159
65.123 44.394 53.781
65.038 43.363 53.128
62.971 44.438 54.991
62.484 45.598 54.281
62.392 45.779 52.905
62.04 46.8 54.876
61.891 47.033 52.63
61.67 47.685 53.819
61.914 47.226 56.196
61.189 48.971 54.055
61.425 48.508 56.432
61.064 49.367 55.36
65.7 45.503 53.312
66.391 45.507 52.035
67.631 44.663 52.065
68.063 44.205 51.013
66.836 46.901 51.621
67.505 47.505 52.731
65.64 47.737 51.177
68.217 44.46 53.239
69.373 43.58 53.327
69.145 42.194 52.804
70.058 41.612 52.229
69.881 43.457 54.741
70.754 44.646 55.098
70.809 44.872 56.585
70.448 43.977 57.378
71.25 46.071 56.987
67.947 41.66 52.989
67.654 40.332 52.501
68.094 40.143 51.047
68.516 39.046 50.693
66.175 40.04 52.669
65.699 38.725 52.097
64.187 38.706 51.996
63.72 37.448 51.429
63.726 36.27 52.069
63.269 35.187 51.433
64.181 36.14 53.331
68.025 41.182 50.213
68.463 41.044 48.82
69.977 40.89 48.66
70.424 40.141 47.796
67.965 42.191 47.95
66.477 42.301 47.909
65.706 41.264 47.387
65.83 43.428 48.415
64.31 41.351 47.364
64.437 43.523 48.391
63.673 42.483 47.864
70.763 41.578 49.48
72.214 41.533 49.358
72.893 40.625 50.393
74.037 40.882 50.75
72.79 42.942 49.514
72.133 43.971 48.669
72.453 44.083 47.335
71.214 44.859 49.208
71.851 45.052 46.533
70.603 45.832 48.409
70.919 45.927 47.068
72.247 39.566 50.879
72.897 38.705 51.9
74.178 38.002 51.404
74.997 37.555 52.211
71.917 37.685 52.494
71.487 36.551 51.565
70.284 35.767 52.094
69.999 35.821 53.314
69.616 35.086 51.283
74.339 37.926 50.082
75.588 37.504 49.439
76.789 38.476 49.559
77.894 38.121 49.14
75.316 37.243 47.955
74.832 38.417 47.319
76.586 39.679 50.107
77.678 40.638 50.333
78.314 40.517 51.723
78.937 41.468 52.201
77.193 42.092 50.154
76.783 42.474 48.75
76.884 41.599 47.66
76.319 43.768 48.519
76.504 42.009 46.387
75.94 44.178 47.251
76.035 43.302 46.181
78.179 39.371 52.381
78.875 39.153 53.644
78.255 39.929 54.793
77.028 39.966 54.927
79.096 40.558 55.613
78.637 41.137 56.876
77.926 42.469 56.676
78.462 43.374 56.037
79.81 41.321 57.841
79.355 41.593 59.27
78.55 40.797 59.805
79.807 42.599 59.861
76.695 42.567 57.169
75.917 43.805 57.098
75.288 44.182 58.45
74.392 45.019 58.511
74.842 43.698 56.018
75.318 43.253 54.637
74.299 42.33 53.994
75.577 44.455 53.748
75.772 43.574 59.527
75.205 43.772 60.868
75.217 45.154 61.547
74.22 45.546 62.152
75.825 42.756 61.83
77.184 43.064 62.073
76.317 45.891 61.457
76.396 47.192 62.126
76.621 48.336 61.152
77.429 48.221 60.236
77.501 47.209 63.198
77.594 48.518 63.77
78.839 46.832 62.591
75.908 49.455 61.343
76.141 50.508 60.36
77.569 50.621 59.834
77.755 50.878 58.644
75.77 51.77 61.13
74.656 51.324 62.011
74.899 49.875 62.335
78.56 50.432 60.701
79.968 50.542 60.298
80.43 49.425 59.348
81.326 49.64 58.523
80.874 50.6 61.532
80.627 51.841 62.387
80.292 52.912 61.831
80.776 51.744 63.623
79.809 48.252 59.456
80.108 47.123 58.58
79.532 47.346 57.19
80.146 46.948 56.203
79.56 45.832 59.167
78.356 47.97 57.12
77.7 48.262 55.845
78.445 49.359 55.105
78.654 49.257 53.901
76.22 48.657 56.037
75.594 49.157 54.739
75.429 47.473 56.562
78.836 50.407 55.811
79.615 51.469 55.19
81.04 51.011 54.872
81.623 51.467 53.887
79.62 52.727 56.068
78.248 53.388 56.215
77.574 54.043 54.667
75.945 54.588 55.164
81.585 50.104 55.688
82.933 49.55 55.473
83.084 48.419 54.452
84.208 48.008 54.152
81.97 47.918 53.919
81.979 46.795 52.98
82.448 47.274 51.597
81.923 48.269 51.093
80.566 46.212 52.878
80.533 44.822 52.277
81.483 44.364 51.642
79.416 44.138 52.477
83.436 46.585 50.98
83.856 46.95 49.608
82.847 46.65 48.487
82.76 47.421 47.523
85.129 46.123 49.393
85.616 45.804 50.76
84.385 45.636 51.592
82.123 45.535 48.606
81.129 45.133 47.598
79.959 46.097 47.521
79.415 46.328 46.436
80.584 43.738 47.886
81.605 42.633 47.735
80.966 41.288 48.019
81.992 40.17 48.01
81.354 38.84 48.217
79.573 46.644 48.673
78.506 47.623 48.722
78.934 48.827 47.908
78.223 49.22 46.985
78.128 48.012 50.163
77.145 49.185 50.193
77.523 46.805 50.868
80.103 49.384 48.208
80.589 50.534 47.446
80.744 50.188 45.972
80.425 51.004 45.11
81.902 51.075 48.004
82.267 52.441 47.434
83.527 53.03 48.057
84.818 52.472 47.456
85.218 51.123 47.961
81.217 48.977 45.696
81.377 48.505 44.326
80.053 48.457 43.57
79.944 48.994 42.46
82.025 47.133 44.322
79.06 47.813 44.179
77.725 47.711 43.587
77.035 49.069 43.468
76.321 49.325 42.501
76.848 46.768 44.396
75.465 46.646 43.857
75.126 45.716 42.903
74.345 47.365 44.1
73.85 45.857 42.592
73.352 46.849 43.307
77.243 49.922 44.462
76.759 51.283 44.42
77.199 52.014 43.169
76.393 52.697 42.541
78.465 51.859 42.791
78.995 52.538 41.611
78.178 52.246 40.344
77.983 53.143 39.516
80.462 52.182 41.383
81.135 53.045 40.319
82.583 52.643 40.057
83.576 53.333 40.989
83.55 52.836 42.395
77.707 51.006 40.202
76.855 50.625 39.064
75.483 51.3 39.088
74.977 51.716 38.044
76.702 49.1 38.975
77.966 48.422 38.473
77.859 46.902 38.422
78.092 46.257 39.787
78.226 44.771 39.717
74.9 51.407 40.279
73.57 51.973 40.446
73.582 53.405 40.0
72.739 53.801 39.213
73.084 51.919 41.906
71.823 52.747 42.1
72.819 50.484 42.336
74.533 54.181 40.501
74.617 55.591 40.126
74.955 55.773 38.636
74.492 56.729 38.003
75.619 56.345 41.001
75.357 57.858 41.047
74.091 58.171 41.832
76.548 58.594 41.641
75.75 54.856 38.085
75.947 54.773 36.637
74.628 54.675 35.881
74.409 55.399 34.909
73.743 53.793 36.343
72.415 53.626 35.733
71.507 54.842 35.882
70.681 55.068 35.011
71.72 52.388 36.279
71.631 55.6 36.973
70.916 56.876 37.088
71.453 57.877 36.096
70.684 58.65 35.534
71.028 57.496 38.475
69.969 57.048 39.424
68.745 57.697 39.47
70.202 55.98 40.297
67.765 57.278 40.364
69.23 55.558 41.195
68.008 56.208 41.23
72.774 57.882 35.904
73.422 58.812 34.97
72.963 58.567 33.535
72.647 59.512 32.81
74.946 58.697 35.049
75.405 58.667 36.389
72.922 57.292 33.148
72.395 56.861 31.846
70.953 57.34 31.625
70.623 57.886 30.573
72.464 55.324 31.744
72.166 54.802 30.341
72.846 55.227 29.381
71.266 53.945 30.202
70.114 57.141 32.636
68.71 57.542 32.594
68.478 59.035 32.672
67.404 59.508 32.32
69.468 59.773 33.16
69.426 61.235 33.164
69.849 61.814 31.808
69.478 62.943 31.471
70.31 61.774 34.286
70.071 63.217 34.739
70.316 63.302 36.241
70.937 64.213 33.971
70.622 61.044 31.038
70.948 61.403 29.652
69.698 61.412 28.764
69.412 62.406 28.094
71.991 60.448 29.081
68.956 60.307 28.791
67.787 60.109 27.935
66.47 60.292 28.691
65.726 59.328 28.893
67.832 58.703 27.334
69.046 58.437 26.507
70.185 57.858 27.022
69.296 58.662 25.196
71.087 57.741 26.064
70.573 58.222 24.946
66.17 61.524 29.097
64.917 61.81 29.816
63.665 61.598 28.954
62.617 61.192 29.459
64.927 63.234 30.377
65.964 63.525 31.464
65.93 65.002 31.827
65.743 62.662 32.702
63.785 61.888 27.662
62.713 61.64 26.687
62.187 60.195 26.676
60.976 59.975 26.692
63.158 62.061 25.265
64.488 61.415 24.815
65.134 60.7 25.613
64.891 61.639 23.652
63.108 59.234 26.668
62.79 57.819 26.502
63.388 57.051 27.673
64.526 56.577 27.608
63.348 57.314 25.159
63.041 55.843 24.891
62.139 55.253 25.492
63.793 55.248 23.97
62.613 56.944 28.746
63.053 56.236 29.945
62.679 54.758 29.911
63.463 53.916 30.354
62.495 56.913 31.198
63.251 58.17 31.644
62.428 58.978 32.638
64.601 57.814 32.246
61.494 54.444 29.388
61.023 53.054 29.302
61.906 52.181 28.393
62.116 50.996 28.675
59.564 53.006 28.831
58.574 53.601 29.822
57.143 53.487 29.317
56.143 54.007 30.34
54.735 53.884 29.866
62.413 52.769 27.312
63.359 52.092 26.43
64.717 51.867 27.069
65.368 50.851 26.812
65.147 52.82 27.893
66.434 52.743 28.579
66.47 51.608 29.607
67.331 50.725 29.547
66.74 54.077 29.287
66.663 55.148 28.339
68.125 54.058 29.928
65.516 51.643 30.534
65.439 50.695 31.644
64.525 49.532 31.279
63.506 49.297 31.93
64.904 51.404 32.892
65.797 52.494 33.402
66.973 52.175 34.064
65.462 53.835 33.24
67.813 53.16 34.552
66.3 54.831 33.723
67.474 54.491 34.381
64.884 48.808 30.23
64.058 47.709 29.756
64.527 46.417 30.395
63.745 45.72 31.032
64.125 47.61 28.247
65.81 46.113 30.224
66.408 44.892 30.77
66.457 44.901 32.303
66.401 43.839 32.934
67.835 44.671 30.212
67.814 44.753 28.78
68.395 43.307 30.63
66.561 46.09 32.897
66.585 46.204 34.35
65.217 45.951 34.956
65.109 45.214 35.938
67.142 47.559 34.795
68.657 47.754 34.631
69.062 49.112 35.173
69.494 46.678 35.313
64.171 46.53 34.372
62.815 46.225 34.826
62.541 44.724 34.783
61.885 44.204 35.672
61.751 46.999 34.039
61.985 46.952 32.645
63.071 44.036 33.772
62.979 42.574 33.684
63.812 41.937 34.788
63.363 41.006 35.458
63.494 42.061 32.334
62.768 42.588 31.093
61.489 41.845 30.739
61.291 40.695 31.192
60.68 42.421 29.979
65.031 42.445 34.956
65.975 41.913 35.934
65.442 41.998 37.357
65.38 40.986 38.06
67.318 42.657 35.847
68.388 42.323 36.899
68.622 40.823 36.999
69.687 43.051 36.595
65.086 43.214 37.773
64.638 43.459 39.133
63.258 42.788 39.372
62.993 42.362 40.488
64.617 44.962 39.461
65.971 45.605 39.674
66.532 46.446 38.743
66.816 45.637 40.746
67.68 46.926 39.199
67.876 46.478 40.432
62.416 42.631 38.343
61.092 41.964 38.5
61.053 40.429 38.391
60.535 39.746 39.287
60.072 42.513 37.488
58.424 41.73 37.538
61.535 39.9 37.272
61.312 38.49 36.944
62.244 37.526 37.672
61.954 36.33 37.731
61.394 38.251 35.421
60.131 38.703 34.674
59.003 38.461 35.165
60.269 39.284 33.576
63.344 38.029 38.224
64.337 37.174 38.861
64.486 37.479 40.352
64.312 36.594 41.189
65.67 37.318 38.119
66.664 36.185 38.355
67.802 36.582 39.291
68.868 37.403 38.571
70.044 37.721 39.434
64.796 38.73 40.674
65.081 39.149 42.051
63.839 39.309 42.928
63.916 39.091 44.137
65.857 40.46 42.024
67.229 40.334 41.363
67.712 41.681 40.851
68.225 39.713 42.337
62.719 39.702 42.311
61.427 39.936 42.979
61.433 41.14 43.925
60.776 41.112 44.962
60.933 38.69 43.744
60.866 37.438 42.921
59.792 37.139 42.109
61.715 36.387 42.824
59.993 35.968 41.53
61.153 35.491 41.946
62.166 42.194 43.575
62.201 43.428 44.372
60.893 44.143 44.087
60.649 44.494 42.942
63.405 44.334 43.966
63.304 45.729 44.561
64.735 43.701 44.355
60.054 44.354 45.104
58.737 45.02 44.897
58.847 46.545 44.732
59.673 47.18 45.39
57.739 44.688 46.009
58.231 45.099 47.394
59.464 45.196 47.596
57.384 45.306 48.289
57.995 47.14 43.883
58.273 48.473 43.363
58.188 49.664 44.33
58.597 50.771 43.954
57.229 48.641 42.253
56.668 47.288 42.028
56.706 46.663 43.381
57.66 49.462 45.537
57.775 50.473 46.585
59.237 50.747 46.948
59.583 51.868 47.319
56.984 50.057 47.832
57.15 50.953 49.08
56.83 52.449 48.875
56.048 52.803 47.954
57.353 53.278 49.665
60.094 49.737 46.834
61.498 49.899 47.186
62.251 50.818 46.253
63.234 51.403 46.678
62.191 48.554 47.248
61.604 47.64 48.312
60.936 48.079 49.255
61.855 46.351 48.164
61.792 50.978 45.01
62.451 51.89 44.062
62.285 53.325 44.466
63.269 54.06 44.486
61.985 51.686 42.622
62.17 50.281 42.146
63.431 49.689 42.175
61.091 49.523 41.728
63.616 48.369 41.786
61.267 48.201 41.332
62.531 47.62 41.36
61.072 53.728 44.824
60.884 55.1 45.285
61.525 55.41 46.655
61.677 56.586 47.0
59.413 55.505 45.253
58.557 54.987 46.393
57.374 55.906 46.68
57.755 57.164 47.353
58.029 57.315 48.661
58.006 56.281 49.513
58.344 58.528 49.128
61.874 54.37 47.426
62.702 54.527 48.626
64.12 54.849 48.262
64.665 55.801 48.807
62.712 53.283 49.517
61.47 52.994 50.375
61.659 51.746 51.241
61.117 54.188 51.254
64.726 54.081 47.355
66.121 54.344 46.943
66.315 55.728 46.372
67.29 56.392 46.696
66.618 53.352 45.906
68.115 53.471 45.592
68.943 53.082 46.807
68.494 52.607 44.409
65.388 56.136 45.511
65.311 57.503 44.994
65.326 58.592 46.054
66.021 59.591 45.893
64.578 58.409 47.137
64.563 59.4 48.208
65.819 59.406 49.051
66.196 60.465 49.545
63.346 59.232 49.102
62.086 59.809 48.474
61.988 59.927 47.242
61.104 60.172 49.318
66.467 58.254 49.227
67.738 58.212 49.948
68.809 58.914 49.16
69.621 59.634 49.727
68.2 56.791 50.228
69.619 56.775 50.779
67.273 56.146 51.243
68.806 58.716 47.85
69.708 59.447 46.957
69.662 60.95 47.151
70.701 61.58 47.343
69.387 59.157 45.497
70.437 59.628 44.504
71.807 59.064 44.823
70.022 59.158 43.13
68.46 61.512 47.105
68.272 62.948 47.278
68.73 63.448 48.638
69.166 64.578 48.739
66.816 63.356 46.978
66.475 64.749 47.5
66.585 63.299 45.472
68.658 62.619 49.672
69.226 62.988 50.973
70.738 63.009 50.971
71.324 63.883 51.599
68.756 62.06 52.076
67.058 62.388 52.587
71.362 62.06 50.282
72.819 62.053 50.127
73.353 63.273 49.378
74.414 63.792 49.715
73.291 60.765 49.423
74.727 60.87 48.897
73.169 59.603 50.394
72.631 63.712 48.357
73.04 64.873 47.593
72.957 66.15 48.417
73.922 66.908 48.454
72.231 64.991 46.31
72.566 63.867 45.318
71.562 63.845 44.171
73.991 63.989 44.782
71.848 66.385 49.101
71.762 67.526 50.014
72.83 67.498 51.12
73.292 68.545 51.554
70.387 67.609 50.634
73.223 66.314 51.572
74.325 66.185 52.525
75.645 66.691 51.974
76.395 67.341 52.691
74.51 64.723 52.908
75.363 64.506 54.117
76.127 63.372 54.288
75.554 65.26 55.225
76.757 63.44 55.447
76.426 64.576 56.036
75.934 66.363 50.715
77.184 66.781 50.068
77.186 68.242 49.663
78.126 68.967 49.993
77.506 65.938 48.829
78.154 64.628 49.14
78.432 63.693 48.166
78.57 64.088 50.31
79.0 62.638 48.722
79.095 62.851 50.022
76.158 68.674 48.94
76.124 70.046 48.418
75.578 71.11 49.38
75.531 72.289 49.012
75.347 70.116 47.102
75.843 69.181 46.036
77.176 68.752 45.985
74.962 68.753 45.046
77.6 67.895 44.988
75.38 67.899 44.046
76.702 67.468 44.017
75.177 70.717 50.593
74.792 71.673 51.634
73.8 72.708 51.134
72.709 72.357 50.687
74.192 73.979 51.168
73.294 75.074 50.783
73.173 75.305 49.271
72.296 76.053 48.83
73.7 76.367 51.494
73.381 76.353 52.984
73.677 77.684 53.666
72.708 78.799 53.272
71.282 78.508 53.601
74.04 74.668 48.484
73.935 74.701 47.018
72.688 73.95 46.499
72.166 74.264 45.422
75.208 74.121 46.397
75.398 74.432 44.918
76.702 73.885 44.351
77.482 73.243 45.093
76.948 74.098 43.144
72.23 72.967 47.279
71.009 72.202 47.008
69.771 72.993 47.479
69.276 72.805 48.595
71.123 70.837 47.711
70.203 69.8 47.172
70.479 69.181 45.965
69.06 69.441 47.867
69.624 68.223 45.455
68.197 68.491 47.365
68.479 67.88 46.157
69.299 73.897 46.616
68.17 74.797 46.923
66.841 74.135 46.593
66.833 73.115 45.908
68.246 76.097 46.1
68.152 75.802 44.699
69.55 76.814 46.367
65.714 74.703 47.073
64.411 74.138 46.723
64.123 73.94 45.229
63.623 72.872 44.86
63.422 75.088 47.398
64.143 75.479 48.631
65.6 75.582 48.247
64.459 74.923 44.372
64.27 74.721 42.911
65.014 73.521 42.3
64.471 72.815 41.44
64.812 76.02 42.313
64.64 77.028 43.401
64.883 76.302 44.682
66.249 73.329 42.748
67.061 72.192 42.356
66.401 70.921 42.866
66.233 69.973 42.105
68.493 72.297 42.93
69.283 71.008 42.722
69.225 73.473 42.306
66.029 70.903 44.145
65.401 69.722 44.726
64.198 69.308 43.908
64.09 68.151 43.516
64.965 69.935 46.174
64.598 68.614 46.831
63.741 68.755 48.055
63.693 69.816 48.666
63.051 67.668 48.427
63.312 70.263 43.653
62.105 70.019 42.867
62.401 69.356 41.524
61.652 68.473 41.093
61.344 71.312 42.646
63.485 69.777 40.872
63.935 69.149 39.628
64.311 67.678 39.822
63.689 66.809 39.225
65.106 69.921 39.058
65.302 67.415 40.676
65.731 66.048 40.985
64.629 65.133 41.501
64.692 63.928 41.27
66.853 66.028 42.012
68.213 66.23 41.421
68.93 65.165 40.886
68.797 67.486 41.398
70.196 65.35 40.346
70.061 67.687 40.861
70.754 66.617 40.34
72.001 66.833 39.815
63.643 65.667 42.213
62.517 64.835 42.636
61.77 64.294 41.439
61.322 63.152 41.485
61.536 65.58 43.548
62.02 65.767 44.979
62.151 64.463 45.734
61.467 63.477 45.433
63.034 64.45 46.727
61.633 65.102 40.382
60.944 64.667 39.154
61.734 63.622 38.375
61.148 62.716 37.788
60.608 65.85 38.249
59.575 66.795 38.852
59.389 68.077 38.04
58.794 67.833 36.65
57.45 67.176 36.651
63.055 63.749 38.377
63.912 62.747 37.77
63.729 61.423 38.498
63.196 60.49 37.913
65.397 63.186 37.728
66.317 62.021 37.383
65.577 64.317 36.722
64.121 61.339 39.767
64.052 60.043 40.476
62.646 59.44 40.592
62.516 58.248 40.89
64.71 60.035 41.881
66.198 60.352 41.788
63.98 60.967 42.844
61.608 60.245 40.379
60.259 59.701 40.211
60.21 58.93 38.913
59.902 57.742 38.911
59.198 60.8 40.211
60.528 59.612 37.817
60.521 58.997 36.489
61.246 57.662 36.46
60.672 56.644 36.069
62.488 57.687 36.935
63.382 56.543 36.902
62.819 55.394 37.681
62.931 54.271 37.246
64.749 56.892 37.49
65.599 55.64 37.722
65.456 57.894 36.583
62.23 55.672 38.836
61.566 54.637 39.631
60.275 54.154 38.97
60.043 52.953 38.853
61.272 55.163 41.017
59.45 55.102 38.529
58.175 54.798 37.86
58.356 54.074 36.547
57.435 53.398 36.099
57.349 56.071 37.61
56.706 56.623 38.886
56.03 55.894 39.623
56.903 57.921 39.144
59.527 54.233 35.93
59.871 53.566 34.67
60.583 52.247 34.846
60.476 51.39 34.002
60.736 54.479 33.832
61.329 52.091 35.926
62.069 50.86 36.179
61.18 49.785 36.743
61.626 48.668 36.949
63.209 51.133 37.144
64.323 50.11 37.34
65.665 50.827 37.305
64.183 49.342 38.647
59.927 50.115 37.011
58.97 49.126 37.417
57.68 49.356 36.671
56.681 49.794 37.249
58.76 49.218 38.907
57.727 49.108 35.365
56.515 48.964 34.551
56.342 47.545 33.991
55.316 47.261 33.369
56.463 50.007 33.418
57.42 49.743 32.294
57.302 48.66 31.447
58.501 50.436 31.866
58.279 48.688 30.56
59.02 49.757 30.791
57.324 46.665 34.195
57.179 45.272 33.788
56.182 44.526 34.691
55.615 43.508 34.286
58.543 44.571 33.762
58.541 43.15 33.198
57.933 43.053 31.8
57.784 41.609 31.347
57.12 41.514 30.017
55.961 45.048 35.897
54.955 44.515 36.818
53.541 44.794 36.302
52.698 43.894 36.279
55.115 45.126 38.219
56.44 44.83 38.893
56.595 43.709 39.714
57.539 45.679 38.722
57.808 43.44 40.337
58.753 45.418 39.335
58.884 44.302 40.141
60.093 44.056 40.74
53.302 46.042 35.89
51.99 46.495 35.4
52.112 47.142 34.013
52.433 46.454 33.043
51.318 47.445 36.414
52.166 48.612 36.825
52.162 49.811 36.145
53.037 48.765 37.851
52.998 50.65 36.73
53.542 50.041 37.768
51.896 48.338 33.799
56.814 31.995 61.724
53.153 34.655 63.376
53.073 37.233 59.281
56.572 34.416 57.53
55.831 32.516 62.509
55.57 32.133 63.834
54.556 32.875 64.289
54.154 33.724 63.256
53.929 32.818 65.649
56.331 31.133 64.628
56.047 29.726 64.154
57.338 28.945 64.19
58.136 29.075 65.162
57.605 28.172 63.231
52.836 35.584 62.394
51.832 36.544 62.585
51.758 37.283 61.483
52.785 36.744 60.559
50.964 36.788 63.784
50.752 38.359 61.407
50.415 39.048 60.316
54.03 36.696 58.413
54.238 37.072 57.083
55.234 36.264 56.579
55.615 35.381 57.616
53.516 38.174 56.375
55.798 36.199 55.219
55.22 36.703 54.129
56.901 33.561 58.581
57.969 32.558 58.433
58.027 31.906 59.582
57.001 32.482 60.445
58.864 32.257 57.257
59.0 30.805 59.88
58.454 29.473 59.373
59.517 28.387 59.506
59.669 27.559 58.569
60.244 28.298 60.541
54.944 33.504 62.162
53.372 35.73 61.198
54.852 35.642 58.699
56.341 33.478 59.802
54.929 34.546 60.472
33.792 60.05 40.271
34.807 55.475 39.068
38.064 55.275 42.669
36.45 59.524 44.279
33.836 58.853 39.622
33.092 58.533 38.469
33.375 57.255 38.126
34.274 56.755 39.083
32.808 56.499 36.953
32.184 59.471 37.716
30.931 59.805 38.527
30.665 61.286 38.389
30.304 61.745 37.277
30.817 62.05 39.374
35.803 55.027 39.948
36.434 53.754 39.834
37.362 53.642 40.813
37.297 54.945 41.552
36.183 52.664 38.826
38.194 52.414 40.932
39.219 52.199 41.756
37.902 56.416 43.457
38.508 56.637 44.707
38.058 57.859 45.183
37.148 58.357 44.2
39.49 55.72 45.376
38.389 58.558 46.451
39.162 58.107 47.437
35.603 59.972 43.273
34.999 61.309 43.365
34.273 61.465 42.257
34.437 60.228 41.478
35.149 62.325 44.474
33.464 62.697 41.934
32.301 62.8 42.926
31.218 63.72 42.419
30.057 63.608 42.894
31.468 64.589 41.542
34.536 57.745 40.005
36.347 55.7 40.964
37.052 57.453 43.193
35.251 59.363 42.125
35.773 57.633 41.561
48.184 73.007 61.724
51.845 70.346 63.375
51.924 67.767 59.281
48.425 70.584 57.531
49.167 72.486 62.509
49.427 72.868 63.834
50.442 72.126 64.289
50.844 71.278 63.256
51.069 72.182 65.649
48.667 73.868 64.63
48.954 75.275 64.16
47.661 76.053 64.184
47.389 76.808 63.212
46.865 75.937 65.159
52.161 69.417 62.393
53.165 68.457 62.584
53.239 67.718 61.483
52.212 68.257 60.559
54.033 68.213 63.784
54.246 66.642 61.407
54.583 65.953 60.316
50.968 68.304 58.414
50.759 67.927 57.084
49.763 68.735 56.579
49.382 69.619 57.616
51.481 66.824 56.377
49.199 68.799 55.22
49.776 68.294 54.13
48.097 71.439 58.582
47.029 72.443 58.433
46.971 73.095 59.582
47.998 72.519 60.445
46.133 72.744 57.257
45.998 74.197 59.88
46.547 75.529 59.377
45.483 76.615 59.507
45.337 77.445 58.57
44.751 76.703 60.537
50.053 71.498 62.161
51.625 69.271 61.198
50.145 69.359 58.699
48.656 71.523 59.802
50.069 70.455 60.472
71.207 44.955 40.271
70.193 49.53 39.069
66.936 49.728 42.67
68.55 45.479 44.28
71.163 46.152 39.623
71.907 46.472 38.469
71.623 47.749 38.126
70.725 48.249 39.084
72.193 48.502 36.953
72.815 45.535 37.715
74.067 45.2 38.526
74.33 43.718 38.395
74.685 43.252 37.284
74.179 42.958 39.385
69.196 49.979 39.948
68.564 51.252 39.835
67.636 51.362 40.814
67.702 50.06 41.552
68.814 52.342 38.826
66.803 52.59 40.934
65.781 52.806 41.76
67.098 48.586 43.458
66.491 48.365 44.707
66.941 47.144 45.184
67.852 46.645 44.201
65.508 49.282 45.375
66.61 46.444 46.451
65.835 46.896 47.435
69.397 45.033 43.273
70.001 43.696 43.364
70.726 43.54 42.256
70.563 44.778 41.478
69.85 42.681 44.473
71.534 42.309 41.931
72.704 42.212 42.915
73.763 41.255 42.428
74.914 41.317 42.937
73.506 40.404 41.535
70.464 47.259 40.008
68.653 49.307 40.965
67.949 47.549 43.194
69.75 45.645 42.126
69.225 47.375 41.562
45.203 49.301 56.928
45.57 45.452 54.476
53.06 39.157 42.62
70.075 47.324 60.618
59.92 41.744 48.803
45.033 45.349 57.555
40.092 46.162 53.511
40.489 52.046 60.293
43.474 47.201 51.267
47.473 51.039 42.039
44.899 45.585 44.107
38.257 53.825 62.216
59.802 55.694 56.929
59.414 59.533 54.46
65.226 58.423 53.336
34.924 57.677 60.618
51.939 65.842 42.619
45.078 63.251 48.793
59.954 59.649 57.553
64.518 52.936 60.299
61.527 57.794 51.266
57.525 53.96 42.04
60.099 59.418 44.108
66.745 51.174 62.217
