../output/holeyII_statistiscs/output3_2018-12-03_10_100.txt
Read data from 100 trials.
Results for 100 trials:
------------------------------
 num_vertices:                              998.4 	+- 34.852351
 num_edges:                                 7397.6 	+- 265.594193
 num_triangles:                             12730.7 	+- 462.287934
 num_tetrahedra:                            6330.5 	+- 231.321832
 num_simplices:                             27458.3 	+- 993.653970
 
 standard_density_R:                        0.007 	+- 0.000002
 standard_density_U:                        0.039 	+- 0.000019
 standard_density_C:                        0.017 	+- 0.000006
 standard_density_Q:                        0.011 	+- 0.000005
 standard_density_V:                        0.039 	+- 0.000019
 standard_density_D:                        0.024 	+- 0.000010
 exhaustive_density_R:                      0.026 	+- 0.000011
 exhaustive_density_U:                      0.078 	+- 0.000052
 exhaustive_density_C:                      0.009 	+- 0.000004
 exhaustive_density_Q:                      0.019 	+- 0.000006
 exhaustive_density_V:                      0.065 	+- 0.000037
 exhaustive_density_D:                      0.005 	+- 0.000002
 
 dimall_size_canonical_cycle_avg:           19.7 	+- 0.958287
 dimall_size_canonical_chain_avg:           23.2 	+- 2.078858
 dimall_size_canonical_cocycle_avg:         19.7 	+- 0.958287
 dimall_size_canonical_cochain_avg:         16.3 	+- 1.259458
 dimall_size_negative_row_U_avg:            41.8 	+- 2.811307
 dimall_size_positive_row_U_avg:            1.0 	+- 0.000000
 dim-1_size_canonical_cycle_avg:            1.0 	+- 0.000000
 dim-1_size_canonical_chain_avg:            1.0 	+- 0.000000
 dim-1_size_canonical_cocycle_avg:          998.4 	+- 34.852351
 dim-1_size_canonical_cochain_avg:          1.0 	+- 0.000000
 dim-1_size_negative_row_U_avg:             998.4 	+- 34.852351
 dim-1_size_positive_row_U_avg:             1.0 	+- 0.000000
 dim0_size_canonical_cycle_avg:             2.0 	+- 0.000000
 dim0_size_canonical_chain_avg:             8.3 	+- 1.069053
 dim0_size_canonical_cocycle_avg:           135.2 	+- 12.218234
 dim0_size_canonical_cochain_avg:           7.3 	+- 1.176625
 dim0_size_negative_row_U_avg:              142.5 	+- 12.601578
 dim0_size_positive_row_U_avg:              1.0 	+- 0.000000
 dim0_size_canonical_cycle_maxpers:         2.0 	+- 0.000000
 dim0_size_canonical_chain_maxpers:         59.3 	+- 24.590494
 dim0_size_canonical_cocycle_maxpers:       26.9 	+- 10.810268
 dim0_size_canonical_cochain_maxpers:       1.5 	+- 1.052806
 dim1_size_canonical_cycle_avg:             21.9 	+- 1.895365
 dim1_size_canonical_chain_avg:             35.7 	+- 4.363071
 dim1_size_canonical_cocycle_avg:           19.9 	+- 0.845719
 dim1_size_canonical_cochain_avg:           20.3 	+- 2.237745
 dim1_size_negative_row_U_avg:              54.6 	+- 4.670838
 dim1_size_positive_row_U_avg:              1.0 	+- 0.000000
 dim1_size_canonical_cycle_maxpers:         59.0 	+- 25.639025
 dim1_size_canonical_chain_maxpers:         221.1 	+- 134.761495
 dim1_size_canonical_cocycle_maxpers:       44.8 	+- 16.603189
 dim1_size_canonical_cochain_maxpers:       223.4 	+- 219.710339
 dim2_size_canonical_cycle_avg:             20.1 	+- 0.846986
 dim2_size_canonical_chain_avg:             12.9 	+- 0.700411
 dim2_size_canonical_cocycle_avg:           1.0 	+- 0.000000
 dim2_size_canonical_cochain_avg:           13.7 	+- 0.918734
 dim2_size_negative_row_U_avg:              12.9 	+- 0.700411
 dim2_size_positive_row_U_avg:              1.0 	+- 0.000000
 dim2_size_canonical_cycle_maxpers:         294.9 	+- 161.241795
 dim2_size_canonical_chain_maxpers:         399.7 	+- 266.814275
 dim2_size_canonical_cocycle_maxpers:       1.0 	+- 0.000000
 dim2_size_canonical_cochain_maxpers:       26.6 	+- 10.929863
 
 dimall_num_birth_simplices:                13729.1 	+- 496.826985
 dimall_num_death_simplices:                13729.1 	+- 496.826985
 dimall_num_coboundary_dependences_birth_total: 59982.9 	+- 2182.004341
 dimall_num_coboundary_dependences_death_total: 19324.9 	+- 696.861494
 dimall_num_BD_dependences_total:           13729.1 	+- 496.826985
 dimall_num_DB_dependences_total:           203714.9 	+- 11675.193047
 dimall_num_BB_dependences_total:           3319.8 	+- 188.014027
 dimall_num_DD_dependences_total:           17591.7 	+- 681.357990
 dimall_num_all_dependences_total:          317663.3 	+- 15294.559669
 dimall_num_boundary_dependences_birth_total: 32789.3 	+- 1190.397253
 dimall_num_boundary_dependences_death_total: 46518.5 	+- 1687.215413
 dimall_num_BD_T_dependences_total:         13729.1 	+- 496.826985
 dimall_num_DB_T_dependences_total:         203714.9 	+- 11675.193047
 dimall_num_BB_T_dependences_total:         3319.8 	+- 188.014027
 dimall_num_DD_T_dependences_total:         17591.7 	+- 681.357990
 dimall_num_all_T_dependences_total:        317663.3 	+- 15294.559669
 dimall_num_coboundary_dependences_birth_avg: 4.4 	+- 0.002737
 dimall_num_coboundary_dependences_death_avg: 1.4 	+- 0.002737
 dimall_num_BD_dependences_avg:             1.0 	+- 0.000000
 dimall_num_DB_dependences_avg:             14.8 	+- 0.513859
 dimall_num_BB_dependences_avg:             0.2 	+- 0.009153
 dimall_num_DD_dependences_avg:             1.3 	+- 0.012668
 dimall_num_all_dependences_avg:            11.6 	+- 0.258602
 dimall_num_boundary_dependences_birth_avg: 2.4 	+- 0.000675
 dimall_num_boundary_dependences_death_avg: 3.4 	+- 0.000675
 dimall_num_BD_T_dependences_avg:           1.0 	+- 0.000000
 dimall_num_DB_T_dependences_avg:           14.8 	+- 0.513859
 dimall_num_BB_T_dependences_avg:           0.2 	+- 0.009153
 dimall_num_DD_T_dependences_avg:           1.3 	+- 0.012668
 dimall_num_all_T_dependences_avg:          11.6 	+- 0.258602
 dim-1_num_birth_simplices:                 1.0 	+- 0.000000
 dim-1_num_death_simplices:                 0.0 	+- 0.000000
 dim-1_num_coboundary_dependences_birth_total: 998.4 	+- 34.852351
 dim-1_num_coboundary_dependences_death_total: 0.0 	+- 0.000000
 dim-1_num_BD_dependences_total:            1.0 	+- 0.000000
 dim-1_num_DB_dependences_total:            0.0 	+- 0.000000
 dim-1_num_BB_dependences_total:            0.0 	+- 0.000000
 dim-1_num_DD_dependences_total:            0.0 	+- 0.000000
 dim-1_num_all_dependences_total:           999.4 	+- 34.852351
 dim-1_num_boundary_dependences_birth_total: 0.0 	+- 0.000000
 dim-1_num_boundary_dependences_death_total: 0.0 	+- 0.000000
 dim-1_num_BD_T_dependences_total:          0.0 	+- 0.000000
 dim-1_num_DB_T_dependences_total:          0.0 	+- 0.000000
 dim-1_num_BB_T_dependences_total:          0.0 	+- 0.000000
 dim-1_num_DD_T_dependences_total:          0.0 	+- 0.000000
 dim-1_num_all_T_dependences_total:         0.0 	+- 0.000000
 dim-1_num_coboundary_dependences_birth_avg: 998.4 	+- 34.852351
 dim-1_num_coboundary_dependences_death_avg: nan 	+- nan
 dim-1_num_BD_dependences_avg:              1.0 	+- 0.000000
 dim-1_num_DB_dependences_avg:              nan 	+- nan
 dim-1_num_BB_dependences_avg:              0.0 	+- 0.000000
 dim-1_num_DD_dependences_avg:              nan 	+- nan
 dim-1_num_all_dependences_avg:             999.4 	+- 34.852351
 dim-1_num_boundary_dependences_birth_avg:  0.0 	+- 0.000000
 dim-1_num_boundary_dependences_death_avg:  nan 	+- nan
 dim-1_num_BD_T_dependences_avg:            nan 	+- nan
 dim-1_num_DB_T_dependences_avg:            0.0 	+- 0.000000
 dim-1_num_BB_T_dependences_avg:            0.0 	+- 0.000000
 dim-1_num_DD_T_dependences_avg:            nan 	+- nan
 dim-1_num_all_T_dependences_avg:           0.0 	+- 0.000000
 dim0_num_birth_simplices:                  997.4 	+- 34.852351
 dim0_num_death_simplices:                  1.0 	+- 0.000000
 dim0_num_coboundary_dependences_birth_total: 14780.4 	+- 531.232834
 dim0_num_coboundary_dependences_death_total: 14.8 	+- 3.570378
 dim0_num_BD_dependences_total:             997.4 	+- 34.852351
 dim0_num_DB_dependences_total:             997.4 	+- 34.852351
 dim0_num_BB_dependences_total:             908.6 	+- 45.514757
 dim0_num_DD_dependences_total:             0.0 	+- 0.000000
 dim0_num_all_dependences_total:            17698.8 	+- 631.455103
 dim0_num_boundary_dependences_birth_total: 997.4 	+- 34.852351
 dim0_num_boundary_dependences_death_total: 1.0 	+- 0.000000
 dim0_num_BD_T_dependences_total:           1.0 	+- 0.000000
 dim0_num_DB_T_dependences_total:           997.4 	+- 34.852351
 dim0_num_BB_T_dependences_total:           908.6 	+- 45.514757
 dim0_num_DD_T_dependences_total:           0.0 	+- 0.000000
 dim0_num_all_T_dependences_total:          2905.5 	+- 105.173713
 dim0_num_coboundary_dependences_birth_avg: 14.8 	+- 0.063282
 dim0_num_coboundary_dependences_death_avg: 14.8 	+- 3.570378
 dim0_num_BD_dependences_avg:               1.0 	+- 0.000000
 dim0_num_DB_dependences_avg:               997.4 	+- 34.852351
 dim0_num_BB_dependences_avg:               0.9 	+- 0.034281
 dim0_num_DD_dependences_avg:               0.0 	+- 0.000000
 dim0_num_all_dependences_avg:              17.7 	+- 0.076732
 dim0_num_boundary_dependences_birth_avg:   1.0 	+- 0.000000
 dim0_num_boundary_dependences_death_avg:   1.0 	+- 0.000000
 dim0_num_BD_T_dependences_avg:             1.0 	+- 0.000000
 dim0_num_DB_T_dependences_avg:             1.0 	+- 0.000000
 dim0_num_BB_T_dependences_avg:             0.9 	+- 0.034281
 dim0_num_DD_T_dependences_avg:             0.0 	+- 0.000000
 dim0_num_all_T_dependences_avg:            2.9 	+- 0.034246
 dim1_num_birth_simplices:                  6400.2 	+- 231.020232
 dim1_num_death_simplices:                  997.4 	+- 34.852351
 dim1_num_coboundary_dependences_birth_total: 31629.2 	+- 1154.019418
 dim1_num_coboundary_dependences_death_total: 6562.8 	+- 235.844852
 dim1_num_BD_dependences_total:             6400.2 	+- 231.020232
 dim1_num_DB_dependences_total:             104524.5 	+- 7674.861556
 dim1_num_BB_dependences_total:             1952.0 	+- 143.455460
 dim1_num_DD_dependences_total:             1319.3 	+- 73.180786
 dim1_num_all_dependences_total:            152388.1 	+- 8887.316009
 dim1_num_boundary_dependences_birth_total: 12800.4 	+- 462.040464
 dim1_num_boundary_dependences_death_total: 1994.9 	+- 69.704703
 dim1_num_BD_T_dependences_total:           997.4 	+- 34.852351
 dim1_num_DB_T_dependences_total:           104524.5 	+- 7674.861556
 dim1_num_BB_T_dependences_total:           1952.0 	+- 143.455460
 dim1_num_DD_T_dependences_total:           1319.3 	+- 73.180786
 dim1_num_all_T_dependences_total:          123588.5 	+- 8138.098042
 dim1_num_coboundary_dependences_birth_avg: 4.9 	+- 0.006578
 dim1_num_coboundary_dependences_death_avg: 6.6 	+- 0.053223
 dim1_num_BD_dependences_avg:               1.0 	+- 0.000000
 dim1_num_DB_dependences_avg:               104.8 	+- 6.153882
 dim1_num_BB_dependences_avg:               0.3 	+- 0.017638
 dim1_num_DD_dependences_avg:               1.3 	+- 0.061594
 dim1_num_all_dependences_avg:              20.6 	+- 0.819409
 dim1_num_boundary_dependences_birth_avg:   2.0 	+- 0.000000
 dim1_num_boundary_dependences_death_avg:   2.0 	+- 0.000000
 dim1_num_BD_T_dependences_avg:             1.0 	+- 0.000000
 dim1_num_DB_T_dependences_avg:             16.3 	+- 0.941830
 dim1_num_BB_T_dependences_avg:             0.3 	+- 0.017638
 dim1_num_DD_T_dependences_avg:             1.3 	+- 0.061594
 dim1_num_all_T_dependences_avg:            16.7 	+- 0.818392
 dim2_num_birth_simplices:                  6330.5 	+- 231.321832
 dim2_num_death_simplices:                  6400.2 	+- 231.020232
 dim2_num_coboundary_dependences_birth_total: 12574.8 	+- 462.794842
 dim2_num_coboundary_dependences_death_total: 12747.2 	+- 462.677909
 dim2_num_BD_dependences_total:             6330.5 	+- 231.321832
 dim2_num_DB_dependences_total:             98192.9 	+- 5498.080888
 dim2_num_BB_dependences_total:             459.2 	+- 33.099057
 dim2_num_DD_dependences_total:             10028.1 	+- 423.619714
 dim2_num_all_dependences_total:            140332.8 	+- 6875.656536
 dim2_num_boundary_dependences_birth_total: 18991.5 	+- 693.965496
 dim2_num_boundary_dependences_death_total: 19200.5 	+- 693.060696
 dim2_num_BD_T_dependences_total:           6400.2 	+- 231.020232
 dim2_num_DB_T_dependences_total:           98192.9 	+- 5498.080888
 dim2_num_BB_T_dependences_total:           459.2 	+- 33.099057
 dim2_num_DD_T_dependences_total:           10028.1 	+- 423.619714
 dim2_num_all_T_dependences_total:          153272.5 	+- 7296.165531
 dim2_num_coboundary_dependences_birth_avg: 2.0 	+- 0.001561
 dim2_num_coboundary_dependences_death_avg: 2.0 	+- 0.001396
 dim2_num_BD_dependences_avg:               1.0 	+- 0.000000
 dim2_num_DB_dependences_avg:               15.3 	+- 0.482404
 dim2_num_BB_dependences_avg:               0.1 	+- 0.004167
 dim2_num_DD_dependences_avg:               1.6 	+- 0.026644
 dim2_num_all_dependences_avg:              11.0 	+- 0.240045
 dim2_num_boundary_dependences_birth_avg:   3.0 	+- 0.000000
 dim2_num_boundary_dependences_death_avg:   3.0 	+- 0.000000
 dim2_num_BD_T_dependences_avg:             1.0 	+- 0.000000
 dim2_num_DB_T_dependences_avg:             15.5 	+- 0.480320
 dim2_num_BB_T_dependences_avg:             0.1 	+- 0.004167
 dim2_num_DD_T_dependences_avg:             1.6 	+- 0.026644
 dim2_num_all_T_dependences_avg:            12.0 	+- 0.239307
 dim3_num_birth_simplices:                  0.0 	+- 0.000000
 dim3_num_death_simplices:                  6330.5 	+- 231.321832
 dim3_num_coboundary_dependences_birth_total: 0.0 	+- 0.000000
 dim3_num_coboundary_dependences_death_total: 0.0 	+- 0.000000
 dim3_num_BD_dependences_total:             0.0 	+- 0.000000
 dim3_num_DB_dependences_total:             0.0 	+- 0.000000
 dim3_num_BB_dependences_total:             0.0 	+- 0.000000
 dim3_num_DD_dependences_total:             6244.3 	+- 231.578394
 dim3_num_all_dependences_total:            6244.3 	+- 231.578394
 dim3_num_boundary_dependences_birth_total: 0.0 	+- 0.000000
 dim3_num_boundary_dependences_death_total: 25322.0 	+- 925.287327
 dim3_num_BD_T_dependences_total:           6330.5 	+- 231.321832
 dim3_num_DB_T_dependences_total:           0.0 	+- 0.000000
 dim3_num_BB_T_dependences_total:           0.0 	+- 0.000000
 dim3_num_DD_T_dependences_total:           6244.3 	+- 231.578394
 dim3_num_all_T_dependences_total:          37896.8 	+- 1388.032015
 dim3_num_coboundary_dependences_birth_avg: nan 	+- nan
 dim3_num_coboundary_dependences_death_avg: 0.0 	+- 0.000000
 dim3_num_BD_dependences_avg:               nan 	+- nan
 dim3_num_DB_dependences_avg:               0.0 	+- 0.000000
 dim3_num_BB_dependences_avg:               nan 	+- nan
 dim3_num_DD_dependences_avg:               1.0 	+- 0.001567
 dim3_num_all_dependences_avg:              1.0 	+- 0.001567
 dim3_num_boundary_dependences_birth_avg:   nan 	+- nan
 dim3_num_boundary_dependences_death_avg:   4.0 	+- 0.000000
 dim3_num_BD_T_dependences_avg:             1.0 	+- 0.000000
 dim3_num_DB_T_dependences_avg:             nan 	+- nan
 dim3_num_BB_T_dependences_avg:             nan 	+- nan
 dim3_num_DD_T_dependences_avg:             1.0 	+- 0.001567
 dim3_num_all_T_dependences_avg:            6.0 	+- 0.001567
 
 dimall_num_lock_dependences_avg:           374.4 	+- 52.597048
 dimall_num_fill_dependences_avg:           493.2 	+- 67.905410
 dimall_num_unlock_dependences_avg:         436.4 	+- 60.298670
 dimall_num_unfill_dependences_avg:         431.2 	+- 59.704099
 dim-1_num_lock_dependences_avg:            0.0 	+- 0.000000
 dim-1_num_fill_dependences_avg:            1.0 	+- 0.000000
 dim-1_num_unlock_dependences_avg:          27457.3 	+- 993.653970
 dim-1_num_unfill_dependences_avg:          27456.3 	+- 993.653970
 dim0_num_lock_dependences_avg:             5.0 	+- 0.686950
 dim0_num_fill_dependences_avg:             34.4 	+- 8.092890
 dim0_num_unlock_dependences_avg:           3570.2 	+- 557.172267
 dim0_num_unfill_dependences_avg:           3536.4 	+- 550.158582
 dim0_num_lock_dependences_maxpair:         2.0 	+- 0.000000
 dim0_num_fill_dependences_maxpair:         261.6 	+- 120.530454
 dim0_num_unlock_dependences_maxpair:       194.9 	+- 200.386146
 dim0_num_unfill_dependences_maxpair:       192.0 	+- 199.100402
 dim1_num_lock_dependences_avg:             176.0 	+- 35.741591
 dim1_num_fill_dependences_avg:             382.8 	+- 55.187268
 dim1_num_unlock_dependences_avg:           362.7 	+- 61.420449
 dim1_num_unfill_dependences_avg:           357.8 	+- 60.703227
 dim1_num_lock_dependences_maxpair:         283.1 	+- 110.746167
 dim1_num_fill_dependences_maxpair:         1593.9 	+- 866.414521
 dim1_num_unlock_dependences_maxpair:       1805.1 	+- 1902.376006
 dim1_num_unfill_dependences_maxpair:       546.1 	+- 473.340683
 dim2_num_lock_dependences_avg:             633.2 	+- 89.133550
 dim2_num_fill_dependences_avg:             677.2 	+- 91.717487
 dim2_num_unlock_dependences_avg:           13.0 	+- 0.698972
 dim2_num_unfill_dependences_avg:           11.9 	+- 0.700411
 dim2_num_lock_dependences_maxpair:         2235.7 	+- 885.656968
 dim2_num_fill_dependences_maxpair:         3654.1 	+- 1564.734216
 dim2_num_unlock_dependences_maxpair:       43.9 	+- 20.111101
 dim2_num_unfill_dependences_maxpair:       7.9 	+- 3.073369
 
 co_dimall_num_birth_simplices:             13729.1 	+- 496.826985
 co_dimall_num_death_simplices:             13729.1 	+- 496.826985
 co_dimall_num_coboundary_dependences_birth_total: 59982.9 	+- 2182.004341
 co_dimall_num_coboundary_dependences_death_total: 19324.9 	+- 696.861494
 co_dimall_num_BD_dependences_total:        13729.1 	+- 496.826985
 co_dimall_num_DB_dependences_total:        147354.6 	+- 7087.229036
 co_dimall_num_BB_dependences_total:        16579.9 	+- 635.149414
 co_dimall_num_DD_dependences_total:        4263.4 	+- 203.561846
 co_dimall_num_all_dependences_total:       261234.9 	+- 11075.436227
 co_dimall_num_boundary_dependences_birth_total: 32789.3 	+- 1190.397253
 co_dimall_num_boundary_dependences_death_total: 46518.5 	+- 1687.215413
 co_dimall_num_BD_T_dependences_total:      13729.1 	+- 496.826985
 co_dimall_num_DB_T_dependences_total:      147354.6 	+- 7087.229036
 co_dimall_num_BB_T_dependences_total:      16579.9 	+- 635.149414
 co_dimall_num_DD_T_dependences_total:      4263.4 	+- 203.561846
 co_dimall_num_all_T_dependences_total:     261234.9 	+- 11075.436227
 co_dimall_num_coboundary_dependences_birth_avg: 4.4 	+- 0.002737
 co_dimall_num_coboundary_dependences_death_avg: 1.4 	+- 0.002737
 co_dimall_num_BD_dependences_avg:          1.0 	+- 0.000000
 co_dimall_num_DB_dependences_avg:          10.7 	+- 0.214296
 co_dimall_num_BB_dependences_avg:          1.2 	+- 0.007289
 co_dimall_num_DD_dependences_avg:          0.3 	+- 0.008576
 co_dimall_num_all_dependences_avg:         9.5 	+- 0.109079
 co_dimall_num_boundary_dependences_birth_avg: 2.4 	+- 0.000675
 co_dimall_num_boundary_dependences_death_avg: 3.4 	+- 0.000675
 co_dimall_num_BD_T_dependences_avg:        1.0 	+- 0.000000
 co_dimall_num_DB_T_dependences_avg:        10.7 	+- 0.214296
 co_dimall_num_BB_T_dependences_avg:        1.2 	+- 0.007289
 co_dimall_num_DD_T_dependences_avg:        0.3 	+- 0.008576
 co_dimall_num_all_T_dependences_avg:       9.5 	+- 0.109079
 co_dim-1_num_birth_simplices:              1.0 	+- 0.000000
 co_dim-1_num_death_simplices:              0.0 	+- 0.000000
 co_dim-1_num_coboundary_dependences_birth_total: 998.4 	+- 34.852351
 co_dim-1_num_coboundary_dependences_death_total: 0.0 	+- 0.000000
 co_dim-1_num_BD_dependences_total:         1.0 	+- 0.000000
 co_dim-1_num_DB_dependences_total:         0.0 	+- 0.000000
 co_dim-1_num_BB_dependences_total:         0.0 	+- 0.000000
 co_dim-1_num_DD_dependences_total:         0.0 	+- 0.000000
 co_dim-1_num_all_dependences_total:        999.4 	+- 34.852351
 co_dim-1_num_boundary_dependences_birth_total: 0.0 	+- 0.000000
 co_dim-1_num_boundary_dependences_death_total: 0.0 	+- 0.000000
 co_dim-1_num_BD_T_dependences_total:       0.0 	+- 0.000000
 co_dim-1_num_DB_T_dependences_total:       0.0 	+- 0.000000
 co_dim-1_num_BB_T_dependences_total:       0.0 	+- 0.000000
 co_dim-1_num_DD_T_dependences_total:       0.0 	+- 0.000000
 co_dim-1_num_all_T_dependences_total:      0.0 	+- 0.000000
 co_dim-1_num_coboundary_dependences_birth_avg: 998.4 	+- 34.852351
 co_dim-1_num_coboundary_dependences_death_avg: nan 	+- nan
 co_dim-1_num_BD_dependences_avg:           1.0 	+- 0.000000
 co_dim-1_num_DB_dependences_avg:           nan 	+- nan
 co_dim-1_num_BB_dependences_avg:           0.0 	+- 0.000000
 co_dim-1_num_DD_dependences_avg:           nan 	+- nan
 co_dim-1_num_all_dependences_avg:          999.4 	+- 34.852351
 co_dim-1_num_boundary_dependences_birth_avg: 0.0 	+- 0.000000
 co_dim-1_num_boundary_dependences_death_avg: nan 	+- nan
 co_dim-1_num_BD_T_dependences_avg:         nan 	+- nan
 co_dim-1_num_DB_T_dependences_avg:         0.0 	+- 0.000000
 co_dim-1_num_BB_T_dependences_avg:         0.0 	+- 0.000000
 co_dim-1_num_DD_T_dependences_avg:         nan 	+- nan
 co_dim-1_num_all_T_dependences_avg:        0.0 	+- 0.000000
 co_dim0_num_birth_simplices:               997.4 	+- 34.852351
 co_dim0_num_death_simplices:               1.0 	+- 0.000000
 co_dim0_num_coboundary_dependences_birth_total: 14780.4 	+- 531.232834
 co_dim0_num_coboundary_dependences_death_total: 14.8 	+- 3.570378
 co_dim0_num_BD_dependences_total:          997.4 	+- 34.852351
 co_dim0_num_DB_dependences_total:          1004.2 	+- 35.791813
 co_dim0_num_BB_dependences_total:          990.7 	+- 34.405434
 co_dim0_num_DD_dependences_total:          0.0 	+- 0.000000
 co_dim0_num_all_dependences_total:         17787.6 	+- 635.138541
 co_dim0_num_boundary_dependences_birth_total: 997.4 	+- 34.852351
 co_dim0_num_boundary_dependences_death_total: 1.0 	+- 0.000000
 co_dim0_num_BD_T_dependences_total:        1.0 	+- 0.000000
 co_dim0_num_DB_T_dependences_total:        1004.2 	+- 35.791813
 co_dim0_num_BB_T_dependences_total:        990.7 	+- 34.405434
 co_dim0_num_DD_T_dependences_total:        0.0 	+- 0.000000
 co_dim0_num_all_T_dependences_total:       2994.3 	+- 104.557054
 co_dim0_num_coboundary_dependences_birth_avg: 14.8 	+- 0.063282
 co_dim0_num_coboundary_dependences_death_avg: 14.8 	+- 3.570378
 co_dim0_num_BD_dependences_avg:            1.0 	+- 0.000000
 co_dim0_num_DB_dependences_avg:            1004.2 	+- 35.791813
 co_dim0_num_BB_dependences_avg:            1.0 	+- 0.004148
 co_dim0_num_DD_dependences_avg:            0.0 	+- 0.000000
 co_dim0_num_all_dependences_avg:           17.8 	+- 0.063506
 co_dim0_num_boundary_dependences_birth_avg: 1.0 	+- 0.000000
 co_dim0_num_boundary_dependences_death_avg: 1.0 	+- 0.000000
 co_dim0_num_BD_T_dependences_avg:          1.0 	+- 0.000000
 co_dim0_num_DB_T_dependences_avg:          1.0 	+- 0.004148
 co_dim0_num_BB_T_dependences_avg:          1.0 	+- 0.004148
 co_dim0_num_DD_T_dependences_avg:          0.0 	+- 0.000000
 co_dim0_num_all_T_dependences_avg:         3.0 	+- 0.000035
 co_dim1_num_birth_simplices:               6400.2 	+- 231.020232
 co_dim1_num_death_simplices:               997.4 	+- 34.852351
 co_dim1_num_coboundary_dependences_birth_total: 31629.2 	+- 1154.019418
 co_dim1_num_coboundary_dependences_death_total: 6562.8 	+- 235.844852
 co_dim1_num_BD_dependences_total:          6400.2 	+- 231.020232
 co_dim1_num_DB_dependences_total:          53016.6 	+- 2970.549001
 co_dim1_num_BB_dependences_total:          8739.2 	+- 344.642928
 co_dim1_num_DD_dependences_total:          982.6 	+- 45.251797
 co_dim1_num_all_dependences_total:         107330.6 	+- 4716.201561
 co_dim1_num_boundary_dependences_birth_total: 12800.4 	+- 462.040464
 co_dim1_num_boundary_dependences_death_total: 1994.9 	+- 69.704703
 co_dim1_num_BD_T_dependences_total:        997.4 	+- 34.852351
 co_dim1_num_DB_T_dependences_total:        53016.6 	+- 2970.549001
 co_dim1_num_BB_T_dependences_total:        8739.2 	+- 344.642928
 co_dim1_num_DD_T_dependences_total:        982.6 	+- 45.251797
 co_dim1_num_all_T_dependences_total:       78531.0 	+- 3764.289487
 co_dim1_num_coboundary_dependences_birth_avg: 4.9 	+- 0.006578
 co_dim1_num_coboundary_dependences_death_avg: 6.6 	+- 0.053223
 co_dim1_num_BD_dependences_avg:            1.0 	+- 0.000000
 co_dim1_num_DB_dependences_avg:            53.1 	+- 1.878851
 co_dim1_num_BB_dependences_avg:            1.4 	+- 0.012436
 co_dim1_num_DD_dependences_avg:            1.0 	+- 0.036315
 co_dim1_num_all_dependences_avg:           14.5 	+- 0.251761
 co_dim1_num_boundary_dependences_birth_avg: 2.0 	+- 0.000000
 co_dim1_num_boundary_dependences_death_avg: 2.0 	+- 0.000000
 co_dim1_num_BD_T_dependences_avg:          1.0 	+- 0.000000
 co_dim1_num_DB_T_dependences_avg:          8.3 	+- 0.288439
 co_dim1_num_BB_T_dependences_avg:          1.4 	+- 0.012436
 co_dim1_num_DD_T_dependences_avg:          1.0 	+- 0.036315
 co_dim1_num_all_T_dependences_avg:         10.6 	+- 0.251690
 co_dim2_num_birth_simplices:               6330.5 	+- 231.321832
 co_dim2_num_death_simplices:               6400.2 	+- 231.020232
 co_dim2_num_coboundary_dependences_birth_total: 12574.8 	+- 462.794842
 co_dim2_num_coboundary_dependences_death_total: 12747.2 	+- 462.677909
 co_dim2_num_BD_dependences_total:          6330.5 	+- 231.321832
 co_dim2_num_DB_dependences_total:          93333.9 	+- 4585.559219
 co_dim2_num_BB_dependences_total:          6850.0 	+- 262.582443
 co_dim2_num_DD_dependences_total:          1932.3 	+- 102.591528
 co_dim2_num_all_dependences_total:         133768.7 	+- 5974.139041
 co_dim2_num_boundary_dependences_birth_total: 18991.5 	+- 693.965496
 co_dim2_num_boundary_dependences_death_total: 19200.5 	+- 693.060696
 co_dim2_num_BD_T_dependences_total:        6400.2 	+- 231.020232
 co_dim2_num_DB_T_dependences_total:        93333.9 	+- 4585.559219
 co_dim2_num_BB_T_dependences_total:        6850.0 	+- 262.582443
 co_dim2_num_DD_T_dependences_total:        1932.3 	+- 102.591528
 co_dim2_num_all_T_dependences_total:       146708.4 	+- 6410.568557
 co_dim2_num_coboundary_dependences_birth_avg: 2.0 	+- 0.001561
 co_dim2_num_coboundary_dependences_death_avg: 2.0 	+- 0.001396
 co_dim2_num_BD_dependences_avg:            1.0 	+- 0.000000
 co_dim2_num_DB_dependences_avg:            14.6 	+- 0.328975
 co_dim2_num_BB_dependences_avg:            1.1 	+- 0.007926
 co_dim2_num_DD_dependences_avg:            0.3 	+- 0.010484
 co_dim2_num_all_dependences_avg:           10.5 	+- 0.164704
 co_dim2_num_boundary_dependences_birth_avg: 3.0 	+- 0.000000
 co_dim2_num_boundary_dependences_death_avg: 3.0 	+- 0.000000
 co_dim2_num_BD_T_dependences_avg:          1.0 	+- 0.000000
 co_dim2_num_DB_T_dependences_avg:          14.7 	+- 0.325605
 co_dim2_num_BB_T_dependences_avg:          1.1 	+- 0.007926
 co_dim2_num_DD_T_dependences_avg:          0.3 	+- 0.010484
 co_dim2_num_all_T_dependences_avg:         11.5 	+- 0.163991
 co_dim3_num_birth_simplices:               0.0 	+- 0.000000
 co_dim3_num_death_simplices:               6330.5 	+- 231.321832
 co_dim3_num_coboundary_dependences_birth_total: 0.0 	+- 0.000000
 co_dim3_num_coboundary_dependences_death_total: 0.0 	+- 0.000000
 co_dim3_num_BD_dependences_total:          0.0 	+- 0.000000
 co_dim3_num_DB_dependences_total:          0.0 	+- 0.000000
 co_dim3_num_BB_dependences_total:          0.0 	+- 0.000000
 co_dim3_num_DD_dependences_total:          1348.6 	+- 94.004168
 co_dim3_num_all_dependences_total:         1348.6 	+- 94.004168
 co_dim3_num_boundary_dependences_birth_total: 0.0 	+- 0.000000
 co_dim3_num_boundary_dependences_death_total: 25322.0 	+- 925.287327
 co_dim3_num_BD_T_dependences_total:        6330.5 	+- 231.321832
 co_dim3_num_DB_T_dependences_total:        0.0 	+- 0.000000
 co_dim3_num_BB_T_dependences_total:        0.0 	+- 0.000000
 co_dim3_num_DD_T_dependences_total:        1348.6 	+- 94.004168
 co_dim3_num_all_T_dependences_total:       33001.1 	+- 1220.150431
 co_dim3_num_coboundary_dependences_birth_avg: nan 	+- nan
 co_dim3_num_coboundary_dependences_death_avg: 0.0 	+- 0.000000
 co_dim3_num_BD_dependences_avg:            nan 	+- nan
 co_dim3_num_DB_dependences_avg:            0.0 	+- 0.000000
 co_dim3_num_BB_dependences_avg:            nan 	+- nan
 co_dim3_num_DD_dependences_avg:            0.2 	+- 0.011421
 co_dim3_num_all_dependences_avg:           0.2 	+- 0.011421
 co_dim3_num_boundary_dependences_birth_avg: nan 	+- nan
 co_dim3_num_boundary_dependences_death_avg: 4.0 	+- 0.000000
 co_dim3_num_BD_T_dependences_avg:          1.0 	+- 0.000000
 co_dim3_num_DB_T_dependences_avg:          nan 	+- nan
 co_dim3_num_BB_T_dependences_avg:          nan 	+- nan
 co_dim3_num_DD_T_dependences_avg:          0.2 	+- 0.011421
 co_dim3_num_all_T_dependences_avg:         5.2 	+- 0.011422
 co_dimall_num_lock_dependences_avg:        298.5 	+- 38.480748
 co_dimall_num_fill_dependences_avg:        301.0 	+- 38.592985
 co_dimall_num_unlock_dependences_avg:      347.7 	+- 45.637806
 co_dimall_num_unfill_dependences_avg:      251.8 	+- 31.764716
 co_dim-1_num_lock_dependences_avg:         0.0 	+- 0.000000
 co_dim-1_num_fill_dependences_avg:         1.0 	+- 0.000000
 co_dim-1_num_unlock_dependences_avg:       27457.3 	+- 993.653970
 co_dim-1_num_unfill_dependences_avg:       27456.3 	+- 993.653970
 co_dim0_num_lock_dependences_avg:          8.3 	+- 1.176624
 co_dim0_num_fill_dependences_avg:          14.2 	+- 1.601845
 co_dim0_num_unlock_dependences_avg:        3072.6 	+- 433.983096
 co_dim0_num_unfill_dependences_avg:        2947.7 	+- 414.773967
 co_dim0_num_lock_dependences_maxpair:      8.2 	+- 2.543128
 co_dim0_num_fill_dependences_maxpair:      20.9 	+- 44.357560
 co_dim0_num_unlock_dependences_maxpair:    173.6 	+- 77.141141
 co_dim0_num_unfill_dependences_maxpair:    170.7 	+- 73.772247
 co_dim1_num_lock_dependences_avg:          226.5 	+- 32.566803
 co_dim1_num_fill_dependences_avg:          229.4 	+- 32.743031
 co_dim1_num_unlock_dependences_avg:        235.1 	+- 33.558181
 co_dim1_num_unfill_dependences_avg:        76.1 	+- 6.370704
 co_dim1_num_lock_dependences_maxpair:      454.5 	+- 228.151722
 co_dim1_num_fill_dependences_maxpair:      1081.3 	+- 666.127681
 co_dim1_num_unlock_dependences_maxpair:    1951.0 	+- 2105.123991
 co_dim1_num_unfill_dependences_maxpair:    91.1 	+- 35.756258
 co_dim2_num_lock_dependences_avg:          417.0 	+- 50.859976
 co_dim2_num_fill_dependences_avg:          418.7 	+- 50.861815
 co_dim2_num_unlock_dependences_avg:        28.0 	+- 2.087926
 co_dim2_num_unfill_dependences_avg:        0.3 	+- 0.017318
 co_dim2_num_lock_dependences_maxpair:      2465.3 	+- 1147.711387
 co_dim2_num_fill_dependences_maxpair:      2724.4 	+- 1233.404591
 co_dim2_num_unlock_dependences_maxpair:    53.7 	+- 23.002009
 co_dim2_num_unfill_dependences_maxpair:    0.0 	+- 0.000000