<?xml version="1.0" encoding="UTF-8" standalone="no"?>
<svg
   xmlns:dc="http://purl.org/dc/elements/1.1/"
   xmlns:cc="http://creativecommons.org/ns#"
   xmlns:rdf="http://www.w3.org/1999/02/22-rdf-syntax-ns#"
   xmlns:svg="http://www.w3.org/2000/svg"
   xmlns="http://www.w3.org/2000/svg"
   xmlns:sodipodi="http://sodipodi.sourceforge.net/DTD/sodipodi-0.dtd"
   xmlns:inkscape="http://www.inkscape.org/namespaces/inkscape"
   width="176.389mm"
   height="176.389mm"
   viewBox="0 0 500 500"
   version="1.2"
   id="svg560"
   sodipodi:docname="illustrate_background1_birthsimplex.svg"
   inkscape:export-filename="C:\Users\koelsboe\Documents\Thesis Project Iso-Geometry\Code\wrap_2_3\screenshots\thesis\illustrate_background1_birthsimplex.png"
   inkscape:export-xdpi="454"
   inkscape:export-ydpi="454"
   inkscape:version="0.92.1 r15371">
  <metadata
     id="metadata564">
    <rdf:RDF>
      <cc:Work
         rdf:about="">
        <dc:format>image/svg+xml</dc:format>
        <dc:type
           rdf:resource="http://purl.org/dc/dcmitype/StillImage" />
      </cc:Work>
    </rdf:RDF>
  </metadata>
  <sodipodi:namedview
     pagecolor="#ffffff"
     bordercolor="#666666"
     borderopacity="1"
     objecttolerance="10"
     gridtolerance="10"
     guidetolerance="10"
     inkscape:pageopacity="0"
     inkscape:pageshadow="2"
     inkscape:window-width="1920"
     inkscape:window-height="1123"
     id="namedview562"
     showgrid="false"
     inkscape:zoom="1.415999"
     inkscape:cx="299.39578"
     inkscape:cy="242.136"
     inkscape:window-x="-9"
     inkscape:window-y="-9"
     inkscape:window-maximized="1"
     inkscape:current-layer="g558" />
  <title
     id="title2">Wrap2 Example</title>
  <desc
     id="desc4">Generated with Qt</desc>
  <defs
     id="defs6" />
  <g
     id="g558"
     style="fill:none;fill-rule:evenodd;stroke:#000000;stroke-width:1;stroke-linecap:square;stroke-linejoin:bevel">
    <g
       transform="matrix(1.75404,0,0,-1.75404,16.5198,357.379)"
       font-size="11"
       font-weight="400"
       font-style="normal"
       id="g232"
       style="font-style:normal;font-weight:400;font-size:11px;font-family:Ubuntu;fill:none;stroke:#008000;stroke-width:2.99992969;stroke-linecap:butt;stroke-linejoin:round;stroke-miterlimit:4;stroke-dasharray:2.99992969,2.99992969;stroke-dashoffset:0.89997891;stroke-opacity:1">
      <polyline
         points="87,3 33,5 "
         id="polyline230"
         style="vector-effect:none;fill:none;stroke-width:2.99992969;stroke-linecap:butt;stroke-miterlimit:4;stroke-dasharray:2.99992969,2.99992969;stroke-dashoffset:0.89997891" />
    </g>
    <g
       font-size="11"
       font-weight="400"
       font-style="normal"
       id="g8"
       style="font-style:normal;font-weight:400;font-size:11px;font-family:Ubuntu;fill:none;stroke:#000000;stroke-width:1;stroke-linecap:square;stroke-linejoin:bevel;stroke-opacity:1" />
    <g
       font-size="11"
       font-weight="400"
       font-style="normal"
       id="g10"
       style="font-style:normal;font-weight:400;font-size:11px;font-family:Ubuntu;fill:none;stroke:#000000;stroke-width:1;stroke-linecap:square;stroke-linejoin:bevel;stroke-opacity:1" />
    <g
       transform="matrix(1.75404,0,0,-1.75404,16.5198,357.379)"
       font-size="11"
       font-weight="400"
       font-style="normal"
       id="g12"
       style="font-style:normal;font-weight:400;font-size:11px;font-family:Ubuntu;fill:none;stroke:#000000;stroke-width:1;stroke-linecap:square;stroke-linejoin:bevel;stroke-opacity:1" />
    <g
       transform="matrix(1.75404,0,0,-1.75404,16.5198,357.379)"
       font-size="11"
       font-weight="400"
       font-style="normal"
       id="g16"
       style="font-style:normal;font-weight:400;font-size:11px;font-family:Ubuntu;fill:#96beff;fill-opacity:1;stroke:#003296;stroke-width:3;stroke-linecap:round;stroke-linejoin:round;stroke-opacity:1">
      <path
         d="m 143,69 8,-29 -33,-8 25,37"
         id="path14"
         inkscape:connector-curvature="0"
         style="vector-effect:none;fill-rule:evenodd" />
    </g>
    <g
       transform="matrix(1.75404,0,0,-1.75404,16.5198,357.379)"
       font-size="11"
       font-weight="400"
       font-style="normal"
       id="g18"
       style="font-style:normal;font-weight:400;font-size:11px;font-family:Ubuntu;fill:none;stroke:#000000;stroke-width:1;stroke-linecap:square;stroke-linejoin:bevel;stroke-opacity:1" />
    <g
       transform="matrix(1.75404,0,0,-1.75404,16.5198,357.379)"
       font-size="11"
       font-weight="400"
       font-style="normal"
       id="g20"
       style="font-style:normal;font-weight:400;font-size:11px;font-family:Ubuntu;fill:none;stroke:#000000;stroke-width:1;stroke-linecap:square;stroke-linejoin:bevel;stroke-opacity:1" />
    <g
       transform="matrix(1.75404,0,0,-1.75404,16.5198,357.379)"
       font-size="11"
       font-weight="400"
       font-style="normal"
       id="g24"
       style="font-style:normal;font-weight:400;font-size:11px;font-family:Ubuntu;fill:#96beff;fill-opacity:1;stroke:#003296;stroke-width:3;stroke-linecap:round;stroke-linejoin:round;stroke-opacity:1">
      <path
         d="m 143,69 18,12 -10,-41 -8,29"
         id="path22"
         inkscape:connector-curvature="0"
         style="vector-effect:none;fill-rule:evenodd" />
    </g>
    <g
       transform="matrix(1.75404,0,0,-1.75404,16.5198,357.379)"
       font-size="11"
       font-weight="400"
       font-style="normal"
       id="g26"
       style="font-style:normal;font-weight:400;font-size:11px;font-family:Ubuntu;fill:none;stroke:#000000;stroke-width:1;stroke-linecap:square;stroke-linejoin:bevel;stroke-opacity:1" />
    <g
       transform="matrix(1.75404,0,0,-1.75404,16.5198,357.379)"
       font-size="11"
       font-weight="400"
       font-style="normal"
       id="g28"
       style="font-style:normal;font-weight:400;font-size:11px;font-family:Ubuntu;fill:none;stroke:#000000;stroke-width:1;stroke-linecap:square;stroke-linejoin:bevel;stroke-opacity:1" />
    <g
       transform="matrix(1.75404,0,0,-1.75404,16.5198,357.379)"
       font-size="11"
       font-weight="400"
       font-style="normal"
       id="g32"
       style="font-style:normal;font-weight:400;font-size:11px;font-family:Ubuntu;fill:#96beff;fill-opacity:1;stroke:#003296;stroke-width:3;stroke-linecap:round;stroke-linejoin:round;stroke-opacity:1">
      <path
         d="m 125,86 18,-17 18,12 -36,5"
         id="path30"
         inkscape:connector-curvature="0"
         style="vector-effect:none;fill-rule:evenodd" />
    </g>
    <g
       transform="matrix(1.75404,0,0,-1.75404,16.5198,357.379)"
       font-size="11"
       font-weight="400"
       font-style="normal"
       id="g34"
       style="font-style:normal;font-weight:400;font-size:11px;font-family:Ubuntu;fill:none;stroke:#000000;stroke-width:1;stroke-linecap:square;stroke-linejoin:bevel;stroke-opacity:1" />
    <g
       transform="matrix(1.75404,0,0,-1.75404,16.5198,357.379)"
       font-size="11"
       font-weight="400"
       font-style="normal"
       id="g36"
       style="font-style:normal;font-weight:400;font-size:11px;font-family:Ubuntu;fill:none;stroke:#000000;stroke-width:1;stroke-linecap:square;stroke-linejoin:bevel;stroke-opacity:1" />
    <g
       transform="matrix(1.75404,0,0,-1.75404,16.5198,357.379)"
       font-size="11"
       font-weight="400"
       font-style="normal"
       id="g40"
       style="font-style:normal;font-weight:400;font-size:11px;font-family:Ubuntu;fill:none;stroke:#003296;stroke-width:3;stroke-linecap:round;stroke-linejoin:round;stroke-opacity:1">
      <polyline
         points="196,116 237,103 "
         id="polyline38"
         style="vector-effect:none;fill:none" />
    </g>
    <g
       transform="matrix(1.75404,0,0,-1.75404,16.5198,357.379)"
       font-size="11"
       font-weight="400"
       font-style="normal"
       id="g42"
       style="font-style:normal;font-weight:400;font-size:11px;font-family:Ubuntu;fill:none;stroke:#000000;stroke-width:1;stroke-linecap:square;stroke-linejoin:bevel;stroke-opacity:1" />
    <g
       transform="matrix(1.75404,0,0,-1.75404,16.5198,357.379)"
       font-size="11"
       font-weight="400"
       font-style="normal"
       id="g44"
       style="font-style:normal;font-weight:400;font-size:11px;font-family:Ubuntu;fill:none;stroke:#000000;stroke-width:1;stroke-linecap:square;stroke-linejoin:bevel;stroke-opacity:1" />
    <g
       transform="matrix(1.75404,0,0,-1.75404,16.5198,357.379)"
       font-size="11"
       font-weight="400"
       font-style="normal"
       id="g48"
       style="font-style:normal;font-weight:400;font-size:11px;font-family:Ubuntu;fill:none;stroke:#003296;stroke-width:3;stroke-linecap:round;stroke-linejoin:round;stroke-opacity:1">
      <polyline
         points="9,80 30,108 "
         id="polyline46"
         style="vector-effect:none;fill:none" />
    </g>
    <g
       transform="matrix(1.75404,0,0,-1.75404,16.5198,357.379)"
       font-size="11"
       font-weight="400"
       font-style="normal"
       id="g50"
       style="font-style:normal;font-weight:400;font-size:11px;font-family:Ubuntu;fill:none;stroke:#000000;stroke-width:1;stroke-linecap:square;stroke-linejoin:bevel;stroke-opacity:1" />
    <g
       transform="matrix(1.75404,0,0,-1.75404,16.5198,357.379)"
       font-size="11"
       font-weight="400"
       font-style="normal"
       id="g52"
       style="font-style:normal;font-weight:400;font-size:11px;font-family:Ubuntu;fill:none;stroke:#000000;stroke-width:1;stroke-linecap:square;stroke-linejoin:bevel;stroke-opacity:1" />
    <g
       transform="matrix(1.75404,0,0,-1.75404,16.5198,357.379)"
       font-size="11"
       font-weight="400"
       font-style="normal"
       id="g56"
       style="font-style:normal;font-weight:400;font-size:11px;font-family:Ubuntu;fill:none;stroke:#003296;stroke-width:3;stroke-linecap:round;stroke-linejoin:round;stroke-opacity:1">
      <polyline
         points="4,36 9,80 "
         id="polyline54"
         style="vector-effect:none;fill:none" />
    </g>
    <g
       transform="matrix(1.75404,0,0,-1.75404,16.5198,357.379)"
       font-size="11"
       font-weight="400"
       font-style="normal"
       id="g58"
       style="font-style:normal;font-weight:400;font-size:11px;font-family:Ubuntu;fill:none;stroke:#000000;stroke-width:1;stroke-linecap:square;stroke-linejoin:bevel;stroke-opacity:1" />
    <g
       transform="matrix(1.75404,0,0,-1.75404,16.5198,357.379)"
       font-size="11"
       font-weight="400"
       font-style="normal"
       id="g60"
       style="font-style:normal;font-weight:400;font-size:11px;font-family:Ubuntu;fill:none;stroke:#000000;stroke-width:1;stroke-linecap:square;stroke-linejoin:bevel;stroke-opacity:1" />
    <g
       transform="matrix(1.75404,0,0,-1.75404,16.5198,357.379)"
       font-size="11"
       font-weight="400"
       font-style="normal"
       id="g64"
       style="font-style:normal;font-weight:400;font-size:11px;font-family:Ubuntu;fill:none;stroke:#003296;stroke-width:3;stroke-linecap:round;stroke-linejoin:round;stroke-opacity:1">
      <polyline
         points="33,5 4,36 "
         id="polyline62"
         style="vector-effect:none;fill:none" />
    </g>
    <g
       transform="matrix(1.75404,0,0,-1.75404,16.5198,357.379)"
       font-size="11"
       font-weight="400"
       font-style="normal"
       id="g66"
       style="font-style:normal;font-weight:400;font-size:11px;font-family:Ubuntu;fill:none;stroke:#000000;stroke-width:1;stroke-linecap:square;stroke-linejoin:bevel;stroke-opacity:1" />
    <g
       transform="matrix(1.75404,0,0,-1.75404,16.5198,357.379)"
       font-size="11"
       font-weight="400"
       font-style="normal"
       id="g68"
       style="font-style:normal;font-weight:400;font-size:11px;font-family:Ubuntu;fill:none;stroke:#000000;stroke-width:1;stroke-linecap:square;stroke-linejoin:bevel;stroke-opacity:1" />
    <g
       transform="matrix(1.75404,0,0,-1.75404,16.5198,357.379)"
       font-size="11"
       font-weight="400"
       font-style="normal"
       id="g74"
       style="font-style:normal;font-weight:400;font-size:11px;font-family:Ubuntu;fill:none;stroke:#000000;stroke-width:1;stroke-linecap:square;stroke-linejoin:bevel;stroke-opacity:1" />
    <g
       transform="matrix(1.75404,0,0,-1.75404,16.5198,357.379)"
       font-size="11"
       font-weight="400"
       font-style="normal"
       id="g76"
       style="font-style:normal;font-weight:400;font-size:11px;font-family:Ubuntu;fill:none;stroke:#000000;stroke-width:1;stroke-linecap:square;stroke-linejoin:bevel;stroke-opacity:1" />
    <g
       transform="matrix(1.75404,0,0,-1.75404,16.5198,357.379)"
       font-size="11"
       font-weight="400"
       font-style="normal"
       id="g80"
       style="font-style:normal;font-weight:400;font-size:11px;font-family:Ubuntu;fill:none;stroke:#003296;stroke-width:3;stroke-linecap:round;stroke-linejoin:round;stroke-opacity:1">
      <polyline
         points="240,11 201,8 "
         id="polyline78"
         style="vector-effect:none;fill:none" />
    </g>
    <g
       transform="matrix(1.75404,0,0,-1.75404,16.5198,357.379)"
       font-size="11"
       font-weight="400"
       font-style="normal"
       id="g82"
       style="font-style:normal;font-weight:400;font-size:11px;font-family:Ubuntu;fill:none;stroke:#000000;stroke-width:1;stroke-linecap:square;stroke-linejoin:bevel;stroke-opacity:1" />
    <g
       transform="matrix(1.75404,0,0,-1.75404,16.5198,357.379)"
       font-size="11"
       font-weight="400"
       font-style="normal"
       id="g84"
       style="font-style:normal;font-weight:400;font-size:11px;font-family:Ubuntu;fill:none;stroke:#000000;stroke-width:1;stroke-linecap:square;stroke-linejoin:bevel;stroke-opacity:1" />
    <g
       transform="matrix(1.75404,0,0,-1.75404,16.5198,357.379)"
       font-size="11"
       font-weight="400"
       font-style="normal"
       id="g88"
       style="font-style:normal;font-weight:400;font-size:11px;font-family:Ubuntu;fill:none;stroke:#003296;stroke-width:3;stroke-linecap:round;stroke-linejoin:round;stroke-opacity:1">
      <polyline
         points="260,41 240,11 "
         id="polyline86"
         style="vector-effect:none;fill:none" />
    </g>
    <g
       transform="matrix(1.75404,0,0,-1.75404,16.5198,357.379)"
       font-size="11"
       font-weight="400"
       font-style="normal"
       id="g90"
       style="font-style:normal;font-weight:400;font-size:11px;font-family:Ubuntu;fill:none;stroke:#000000;stroke-width:1;stroke-linecap:square;stroke-linejoin:bevel;stroke-opacity:1" />
    <g
       transform="matrix(1.75404,0,0,-1.75404,16.5198,357.379)"
       font-size="11"
       font-weight="400"
       font-style="normal"
       id="g92"
       style="font-style:normal;font-weight:400;font-size:11px;font-family:Ubuntu;fill:none;stroke:#000000;stroke-width:1;stroke-linecap:square;stroke-linejoin:bevel;stroke-opacity:1" />
    <g
       transform="matrix(1.75404,0,0,-1.75404,16.5198,357.379)"
       font-size="11"
       font-weight="400"
       font-style="normal"
       id="g96"
       style="font-style:normal;font-weight:400;font-size:11px;font-family:Ubuntu;fill:none;stroke:#003296;stroke-width:3;stroke-linecap:round;stroke-linejoin:round;stroke-opacity:1">
      <polyline
         points="262,77 260,41 "
         id="polyline94"
         style="vector-effect:none;fill:none" />
    </g>
    <g
       transform="matrix(1.75404,0,0,-1.75404,16.5198,357.379)"
       font-size="11"
       font-weight="400"
       font-style="normal"
       id="g98"
       style="font-style:normal;font-weight:400;font-size:11px;font-family:Ubuntu;fill:none;stroke:#000000;stroke-width:1;stroke-linecap:square;stroke-linejoin:bevel;stroke-opacity:1" />
    <g
       transform="matrix(1.75404,0,0,-1.75404,16.5198,357.379)"
       font-size="11"
       font-weight="400"
       font-style="normal"
       id="g100"
       style="font-style:normal;font-weight:400;font-size:11px;font-family:Ubuntu;fill:none;stroke:#000000;stroke-width:1;stroke-linecap:square;stroke-linejoin:bevel;stroke-opacity:1" />
    <g
       transform="matrix(1.75404,0,0,-1.75404,16.5198,357.379)"
       font-size="11"
       font-weight="400"
       font-style="normal"
       id="g104"
       style="font-style:normal;font-weight:400;font-size:11px;font-family:Ubuntu;fill:none;stroke:#003296;stroke-width:3;stroke-linecap:round;stroke-linejoin:round;stroke-opacity:1">
      <polyline
         points="237,103 262,77 "
         id="polyline102"
         style="vector-effect:none;fill:none" />
    </g>
    <g
       transform="matrix(1.75404,0,0,-1.75404,16.5198,357.379)"
       font-size="11"
       font-weight="400"
       font-style="normal"
       id="g106"
       style="font-style:normal;font-weight:400;font-size:11px;font-family:Ubuntu;fill:none;stroke:#000000;stroke-width:1;stroke-linecap:square;stroke-linejoin:bevel;stroke-opacity:1" />
    <g
       transform="matrix(1.75404,0,0,-1.75404,16.5198,357.379)"
       font-size="11"
       font-weight="400"
       font-style="normal"
       id="g108"
       style="font-style:normal;font-weight:400;font-size:11px;font-family:Ubuntu;fill:none;stroke:#000000;stroke-width:1;stroke-linecap:square;stroke-linejoin:bevel;stroke-opacity:1" />
    <g
       transform="matrix(1.75404,0,0,-1.75404,16.5198,357.379)"
       font-size="11"
       font-weight="400"
       font-style="normal"
       id="g112"
       style="font-style:normal;font-weight:400;font-size:11px;font-family:Ubuntu;fill:none;stroke:#003296;stroke-width:3;stroke-linecap:round;stroke-linejoin:round;stroke-opacity:1">
      <polyline
         points="69,123 30,108 "
         id="polyline110"
         style="vector-effect:none;fill:none" />
    </g>
    <g
       transform="matrix(1.75404,0,0,-1.75404,16.5198,357.379)"
       font-size="11"
       font-weight="400"
       font-style="normal"
       id="g114"
       style="font-style:normal;font-weight:400;font-size:11px;font-family:Ubuntu;fill:none;stroke:#000000;stroke-width:1;stroke-linecap:square;stroke-linejoin:bevel;stroke-opacity:1" />
    <g
       transform="matrix(1.75404,0,0,-1.75404,16.5198,357.379)"
       font-size="11"
       font-weight="400"
       font-style="normal"
       id="g116"
       style="font-style:normal;font-weight:400;font-size:11px;font-family:Ubuntu;fill:none;stroke:#000000;stroke-width:1;stroke-linecap:square;stroke-linejoin:bevel;stroke-opacity:1" />
    <g
       transform="matrix(1.75404,0,0,-1.75404,16.5198,357.379)"
       font-size="11"
       font-weight="400"
       font-style="normal"
       id="g120"
       style="font-style:normal;font-weight:400;font-size:11px;font-family:Ubuntu;fill:none;stroke:#003296;stroke-width:3;stroke-linecap:round;stroke-linejoin:round;stroke-opacity:1">
      <polyline
         points="201,8 174,28 "
         id="polyline118"
         style="vector-effect:none;fill:none" />
    </g>
    <g
       transform="matrix(1.75404,0,0,-1.75404,16.5198,357.379)"
       font-size="11"
       font-weight="400"
       font-style="normal"
       id="g122"
       style="font-style:normal;font-weight:400;font-size:11px;font-family:Ubuntu;fill:none;stroke:#000000;stroke-width:1;stroke-linecap:square;stroke-linejoin:bevel;stroke-opacity:1" />
    <g
       transform="matrix(1.75404,0,0,-1.75404,16.5198,357.379)"
       font-size="11"
       font-weight="400"
       font-style="normal"
       id="g124"
       style="font-style:normal;font-weight:400;font-size:11px;font-family:Ubuntu;fill:none;stroke:#000000;stroke-width:1;stroke-linecap:square;stroke-linejoin:bevel;stroke-opacity:1" />
    <g
       transform="matrix(1.75404,0,0,-1.75404,16.5198,357.379)"
       font-size="11"
       font-weight="400"
       font-style="normal"
       id="g128"
       style="font-style:normal;font-weight:400;font-size:11px;font-family:Ubuntu;fill:none;stroke:#003296;stroke-width:3;stroke-linecap:round;stroke-linejoin:round;stroke-opacity:1">
      <polyline
         points="174,28 151,40 "
         id="polyline126"
         style="vector-effect:none;fill:none" />
    </g>
    <g
       transform="matrix(1.75404,0,0,-1.75404,16.5198,357.379)"
       font-size="11"
       font-weight="400"
       font-style="normal"
       id="g130"
       style="font-style:normal;font-weight:400;font-size:11px;font-family:Ubuntu;fill:none;stroke:#000000;stroke-width:1;stroke-linecap:square;stroke-linejoin:bevel;stroke-opacity:1" />
    <g
       transform="matrix(1.75404,0,0,-1.75404,16.5198,357.379)"
       font-size="11"
       font-weight="400"
       font-style="normal"
       id="g132"
       style="font-style:normal;font-weight:400;font-size:11px;font-family:Ubuntu;fill:none;stroke:#000000;stroke-width:1;stroke-linecap:square;stroke-linejoin:bevel;stroke-opacity:1" />
    <g
       transform="matrix(1.75404,0,0,-1.75404,16.5198,357.379)"
       font-size="11"
       font-weight="400"
       font-style="normal"
       id="g136"
       style="font-style:normal;font-weight:400;font-size:11px;font-family:Ubuntu;fill:none;stroke:#003296;stroke-width:3;stroke-linecap:round;stroke-linejoin:round;stroke-opacity:1">
      <polyline
         points="151,40 118,32 "
         id="polyline134"
         style="vector-effect:none;fill:none" />
    </g>
    <g
       transform="matrix(1.75404,0,0,-1.75404,16.5198,357.379)"
       font-size="11"
       font-weight="400"
       font-style="normal"
       id="g138"
       style="font-style:normal;font-weight:400;font-size:11px;font-family:Ubuntu;fill:none;stroke:#000000;stroke-width:1;stroke-linecap:square;stroke-linejoin:bevel;stroke-opacity:1" />
    <g
       transform="matrix(1.75404,0,0,-1.75404,16.5198,357.379)"
       font-size="11"
       font-weight="400"
       font-style="normal"
       id="g140"
       style="font-style:normal;font-weight:400;font-size:11px;font-family:Ubuntu;fill:none;stroke:#000000;stroke-width:1;stroke-linecap:square;stroke-linejoin:bevel;stroke-opacity:1" />
    <g
       transform="matrix(1.75404,0,0,-1.75404,16.5198,357.379)"
       font-size="11"
       font-weight="400"
       font-style="normal"
       id="g144"
       style="font-style:normal;font-weight:400;font-size:11px;font-family:Ubuntu;fill:none;stroke:#003296;stroke-width:3;stroke-linecap:round;stroke-linejoin:round;stroke-opacity:1">
      <polyline
         points="118,32 87,3 "
         id="polyline142"
         style="vector-effect:none;fill:none" />
    </g>
    <g
       transform="matrix(1.75404,0,0,-1.75404,16.5198,357.379)"
       font-size="11"
       font-weight="400"
       font-style="normal"
       id="g146"
       style="font-style:normal;font-weight:400;font-size:11px;font-family:Ubuntu;fill:none;stroke:#000000;stroke-width:1;stroke-linecap:square;stroke-linejoin:bevel;stroke-opacity:1" />
    <g
       transform="matrix(1.75404,0,0,-1.75404,16.5198,357.379)"
       font-size="11"
       font-weight="400"
       font-style="normal"
       id="g148"
       style="font-style:normal;font-weight:400;font-size:11px;font-family:Ubuntu;fill:none;stroke:#000000;stroke-width:1;stroke-linecap:square;stroke-linejoin:bevel;stroke-opacity:1" />
    <g
       transform="matrix(1.75404,0,0,-1.75404,16.5198,357.379)"
       font-size="11"
       font-weight="400"
       font-style="normal"
       id="g152"
       style="font-style:normal;font-weight:400;font-size:11px;font-family:Ubuntu;fill:none;stroke:#003296;stroke-width:3;stroke-linecap:round;stroke-linejoin:round;stroke-opacity:1">
      <polyline
         points="99,107 125,86 "
         id="polyline150"
         style="vector-effect:none;fill:none" />
    </g>
    <g
       transform="matrix(1.75404,0,0,-1.75404,16.5198,357.379)"
       font-size="11"
       font-weight="400"
       font-style="normal"
       id="g154"
       style="font-style:normal;font-weight:400;font-size:11px;font-family:Ubuntu;fill:none;stroke:#000000;stroke-width:1;stroke-linecap:square;stroke-linejoin:bevel;stroke-opacity:1" />
    <g
       transform="matrix(1.75404,0,0,-1.75404,16.5198,357.379)"
       font-size="11"
       font-weight="400"
       font-style="normal"
       id="g156"
       style="font-style:normal;font-weight:400;font-size:11px;font-family:Ubuntu;fill:none;stroke:#000000;stroke-width:1;stroke-linecap:square;stroke-linejoin:bevel;stroke-opacity:1" />
    <g
       transform="matrix(1.75404,0,0,-1.75404,16.5198,357.379)"
       font-size="11"
       font-weight="400"
       font-style="normal"
       id="g160"
       style="font-style:normal;font-weight:400;font-size:11px;font-family:Ubuntu;fill:none;stroke:#003296;stroke-width:3;stroke-linecap:round;stroke-linejoin:round;stroke-opacity:1">
      <polyline
         points="176,98 196,116 "
         id="polyline158"
         style="vector-effect:none;fill:none" />
    </g>
    <g
       transform="matrix(1.75404,0,0,-1.75404,16.5198,357.379)"
       font-size="11"
       font-weight="400"
       font-style="normal"
       id="g162"
       style="font-style:normal;font-weight:400;font-size:11px;font-family:Ubuntu;fill:none;stroke:#000000;stroke-width:1;stroke-linecap:square;stroke-linejoin:bevel;stroke-opacity:1" />
    <g
       transform="matrix(1.75404,0,0,-1.75404,16.5198,357.379)"
       font-size="11"
       font-weight="400"
       font-style="normal"
       id="g164"
       style="font-style:normal;font-weight:400;font-size:11px;font-family:Ubuntu;fill:none;stroke:#000000;stroke-width:1;stroke-linecap:square;stroke-linejoin:bevel;stroke-opacity:1" />
    <g
       transform="matrix(1.75404,0,0,-1.75404,16.5198,357.379)"
       font-size="11"
       font-weight="400"
       font-style="normal"
       id="g168"
       style="font-style:normal;font-weight:400;font-size:11px;font-family:Ubuntu;fill:none;stroke:#003296;stroke-width:3;stroke-linecap:round;stroke-linejoin:round;stroke-opacity:1">
      <polyline
         points="143,69 161,81 "
         id="polyline166"
         style="vector-effect:none;fill:none" />
    </g>
    <g
       transform="matrix(1.75404,0,0,-1.75404,16.5198,357.379)"
       font-size="11"
       font-weight="400"
       font-style="normal"
       id="g170"
       style="font-style:normal;font-weight:400;font-size:11px;font-family:Ubuntu;fill:none;stroke:#000000;stroke-width:1;stroke-linecap:square;stroke-linejoin:bevel;stroke-opacity:1" />
    <g
       transform="matrix(1.75404,0,0,-1.75404,16.5198,357.379)"
       font-size="11"
       font-weight="400"
       font-style="normal"
       id="g172"
       style="font-style:normal;font-weight:400;font-size:11px;font-family:Ubuntu;fill:none;stroke:#000000;stroke-width:1;stroke-linecap:square;stroke-linejoin:bevel;stroke-opacity:1" />
    <g
       transform="matrix(1.75404,0,0,-1.75404,16.5198,357.379)"
       font-size="11"
       font-weight="400"
       font-style="normal"
       id="g176"
       style="font-style:normal;font-weight:400;font-size:11px;font-family:Ubuntu;fill:none;stroke:#003296;stroke-width:3;stroke-linecap:round;stroke-linejoin:round;stroke-opacity:1">
      <polyline
         points="143,69 151,40 "
         id="polyline174"
         style="vector-effect:none;fill:none" />
    </g>
    <g
       transform="matrix(1.75404,0,0,-1.75404,16.5198,357.379)"
       font-size="11"
       font-weight="400"
       font-style="normal"
       id="g178"
       style="font-style:normal;font-weight:400;font-size:11px;font-family:Ubuntu;fill:none;stroke:#000000;stroke-width:1;stroke-linecap:square;stroke-linejoin:bevel;stroke-opacity:1" />
    <g
       transform="matrix(1.75404,0,0,-1.75404,16.5198,357.379)"
       font-size="11"
       font-weight="400"
       font-style="normal"
       id="g180"
       style="font-style:normal;font-weight:400;font-size:11px;font-family:Ubuntu;fill:none;stroke:#000000;stroke-width:1;stroke-linecap:square;stroke-linejoin:bevel;stroke-opacity:1" />
    <g
       transform="matrix(1.75404,0,0,-1.75404,16.5198,357.379)"
       font-size="11"
       font-weight="400"
       font-style="normal"
       id="g184"
       style="font-style:normal;font-weight:400;font-size:11px;font-family:Ubuntu;fill:none;stroke:#003296;stroke-width:3;stroke-linecap:round;stroke-linejoin:round;stroke-opacity:1">
      <polyline
         points="143,69 118,32 "
         id="polyline182"
         style="vector-effect:none;fill:none" />
    </g>
    <g
       transform="matrix(1.75404,0,0,-1.75404,16.5198,357.379)"
       font-size="11"
       font-weight="400"
       font-style="normal"
       id="g186"
       style="font-style:normal;font-weight:400;font-size:11px;font-family:Ubuntu;fill:none;stroke:#000000;stroke-width:1;stroke-linecap:square;stroke-linejoin:bevel;stroke-opacity:1" />
    <g
       transform="matrix(1.75404,0,0,-1.75404,16.5198,357.379)"
       font-size="11"
       font-weight="400"
       font-style="normal"
       id="g188"
       style="font-style:normal;font-weight:400;font-size:11px;font-family:Ubuntu;fill:none;stroke:#000000;stroke-width:1;stroke-linecap:square;stroke-linejoin:bevel;stroke-opacity:1" />
    <g
       transform="matrix(1.75404,0,0,-1.75404,16.5198,357.379)"
       font-size="11"
       font-weight="400"
       font-style="normal"
       id="g192"
       style="font-style:normal;font-weight:400;font-size:11px;font-family:Ubuntu;fill:none;stroke:#003296;stroke-width:3;stroke-linecap:round;stroke-linejoin:round;stroke-opacity:1">
      <polyline
         points="161,81 176,98 "
         id="polyline190"
         style="vector-effect:none;fill:none" />
    </g>
    <g
       transform="matrix(1.75404,0,0,-1.75404,16.5198,357.379)"
       font-size="11"
       font-weight="400"
       font-style="normal"
       id="g194"
       style="font-style:normal;font-weight:400;font-size:11px;font-family:Ubuntu;fill:none;stroke:#000000;stroke-width:1;stroke-linecap:square;stroke-linejoin:bevel;stroke-opacity:1" />
    <g
       transform="matrix(1.75404,0,0,-1.75404,16.5198,357.379)"
       font-size="11"
       font-weight="400"
       font-style="normal"
       id="g196"
       style="font-style:normal;font-weight:400;font-size:11px;font-family:Ubuntu;fill:none;stroke:#000000;stroke-width:1;stroke-linecap:square;stroke-linejoin:bevel;stroke-opacity:1" />
    <g
       transform="matrix(1.75404,0,0,-1.75404,16.5198,357.379)"
       font-size="11"
       font-weight="400"
       font-style="normal"
       id="g200"
       style="font-style:normal;font-weight:400;font-size:11px;font-family:Ubuntu;fill:none;stroke:#003296;stroke-width:3;stroke-linecap:round;stroke-linejoin:round;stroke-opacity:1">
      <polyline
         points="161,81 151,40 "
         id="polyline198"
         style="vector-effect:none;fill:none" />
    </g>
    <g
       transform="matrix(1.75404,0,0,-1.75404,16.5198,357.379)"
       font-size="11"
       font-weight="400"
       font-style="normal"
       id="g202"
       style="font-style:normal;font-weight:400;font-size:11px;font-family:Ubuntu;fill:none;stroke:#000000;stroke-width:1;stroke-linecap:square;stroke-linejoin:bevel;stroke-opacity:1" />
    <g
       transform="matrix(1.75404,0,0,-1.75404,16.5198,357.379)"
       font-size="11"
       font-weight="400"
       font-style="normal"
       id="g204"
       style="font-style:normal;font-weight:400;font-size:11px;font-family:Ubuntu;fill:none;stroke:#000000;stroke-width:1;stroke-linecap:square;stroke-linejoin:bevel;stroke-opacity:1" />
    <g
       transform="matrix(1.75404,0,0,-1.75404,16.5198,357.379)"
       font-size="11"
       font-weight="400"
       font-style="normal"
       id="g208"
       style="font-style:normal;font-weight:400;font-size:11px;font-family:Ubuntu;fill:none;stroke:#003296;stroke-width:3;stroke-linecap:round;stroke-linejoin:round;stroke-opacity:1">
      <polyline
         points="125,86 161,81 "
         id="polyline206"
         style="vector-effect:none;fill:none" />
    </g>
    <g
       transform="matrix(1.75404,0,0,-1.75404,16.5198,357.379)"
       font-size="11"
       font-weight="400"
       font-style="normal"
       id="g210"
       style="font-style:normal;font-weight:400;font-size:11px;font-family:Ubuntu;fill:none;stroke:#000000;stroke-width:1;stroke-linecap:square;stroke-linejoin:bevel;stroke-opacity:1" />
    <g
       transform="matrix(1.75404,0,0,-1.75404,16.5198,357.379)"
       font-size="11"
       font-weight="400"
       font-style="normal"
       id="g212"
       style="font-style:normal;font-weight:400;font-size:11px;font-family:Ubuntu;fill:none;stroke:#000000;stroke-width:1;stroke-linecap:square;stroke-linejoin:bevel;stroke-opacity:1" />
    <g
       transform="matrix(1.75404,0,0,-1.75404,16.5198,357.379)"
       font-size="11"
       font-weight="400"
       font-style="normal"
       id="g216"
       style="font-style:normal;font-weight:400;font-size:11px;font-family:Ubuntu;fill:none;stroke:#003296;stroke-width:3;stroke-linecap:round;stroke-linejoin:round;stroke-opacity:1">
      <polyline
         points="69,123 99,107 "
         id="polyline214"
         style="vector-effect:none;fill:none" />
    </g>
    <g
       transform="matrix(1.75404,0,0,-1.75404,16.5198,357.379)"
       font-size="11"
       font-weight="400"
       font-style="normal"
       id="g218"
       style="font-style:normal;font-weight:400;font-size:11px;font-family:Ubuntu;fill:none;stroke:#000000;stroke-width:1;stroke-linecap:square;stroke-linejoin:bevel;stroke-opacity:1" />
    <g
       transform="matrix(1.75404,0,0,-1.75404,16.5198,357.379)"
       font-size="11"
       font-weight="400"
       font-style="normal"
       id="g220"
       style="font-style:normal;font-weight:400;font-size:11px;font-family:Ubuntu;fill:none;stroke:#000000;stroke-width:1;stroke-linecap:square;stroke-linejoin:bevel;stroke-opacity:1" />
    <g
       transform="matrix(1.75404,0,0,-1.75404,16.5198,357.379)"
       font-size="11"
       font-weight="400"
       font-style="normal"
       id="g224"
       style="font-style:normal;font-weight:400;font-size:11px;font-family:Ubuntu;fill:none;stroke:#003296;stroke-width:3;stroke-linecap:round;stroke-linejoin:round;stroke-opacity:1">
      <polyline
         points="125,86 143,69 "
         id="polyline222"
         style="vector-effect:none;fill:none" />
    </g>
    <g
       transform="matrix(1.75404,0,0,-1.75404,16.5198,357.379)"
       font-size="11"
       font-weight="400"
       font-style="normal"
       id="g226"
       style="font-style:normal;font-weight:400;font-size:11px;font-family:Ubuntu;fill:none;stroke:#000000;stroke-width:1;stroke-linecap:square;stroke-linejoin:bevel;stroke-opacity:1" />
    <g
       transform="matrix(1.75404,0,0,-1.75404,16.5198,357.379)"
       font-size="11"
       font-weight="400"
       font-style="normal"
       id="g228"
       style="font-style:normal;font-weight:400;font-size:11px;font-family:Ubuntu;fill:none;stroke:#000000;stroke-width:1;stroke-linecap:square;stroke-linejoin:bevel;stroke-opacity:1" />
    <g
       transform="matrix(1.75404,0,0,-1.75404,16.5198,357.379)"
       font-size="11"
       font-weight="400"
       font-style="normal"
       id="g234"
       style="font-style:normal;font-weight:400;font-size:11px;font-family:Ubuntu;fill:none;stroke:#000000;stroke-width:1;stroke-linecap:square;stroke-linejoin:bevel;stroke-opacity:1" />
    <g
       transform="matrix(1.75404,0,0,-1.75404,16.5198,357.379)"
       font-size="11"
       font-weight="400"
       font-style="normal"
       id="g236"
       style="font-style:normal;font-weight:400;font-size:11px;font-family:Ubuntu;fill:none;stroke:#000000;stroke-width:1;stroke-linecap:square;stroke-linejoin:bevel;stroke-opacity:1" />
    <g
       transform="matrix(1.75404,0,0,-1.75404,16.5198,357.379)"
       font-size="11"
       font-weight="400"
       font-style="normal"
       id="g240"
       style="font-style:normal;font-weight:400;font-size:11px;font-family:Ubuntu;fill:#808080;fill-opacity:1;stroke:none">
      <circle
         cx="69"
         cy="123"
         r="3"
         id="circle238" />
    </g>
    <g
       transform="matrix(1.75404,0,0,-1.75404,16.5198,357.379)"
       font-size="11"
       font-weight="400"
       font-style="normal"
       id="g242"
       style="font-style:normal;font-weight:400;font-size:11px;font-family:Ubuntu;fill:none;stroke:#000000;stroke-width:1;stroke-linecap:square;stroke-linejoin:bevel;stroke-opacity:1" />
    <g
       transform="matrix(1.75404,0,0,-1.75404,16.5198,357.379)"
       font-size="11"
       font-weight="400"
       font-style="normal"
       id="g244"
       style="font-style:normal;font-weight:400;font-size:11px;font-family:Ubuntu;fill:none;stroke:#000000;stroke-width:1;stroke-linecap:square;stroke-linejoin:bevel;stroke-opacity:1" />
    <g
       transform="matrix(1.75404,0,0,-1.75404,16.5198,357.379)"
       font-size="11"
       font-weight="400"
       font-style="normal"
       id="g248"
       style="font-style:normal;font-weight:400;font-size:11px;font-family:Ubuntu;fill:#808080;fill-opacity:1;stroke:none">
      <circle
         cx="99"
         cy="107"
         r="3"
         id="circle246" />
    </g>
    <g
       transform="matrix(1.75404,0,0,-1.75404,16.5198,357.379)"
       font-size="11"
       font-weight="400"
       font-style="normal"
       id="g250"
       style="font-style:normal;font-weight:400;font-size:11px;font-family:Ubuntu;fill:none;stroke:#000000;stroke-width:1;stroke-linecap:square;stroke-linejoin:bevel;stroke-opacity:1" />
    <g
       transform="matrix(1.75404,0,0,-1.75404,16.5198,357.379)"
       font-size="11"
       font-weight="400"
       font-style="normal"
       id="g252"
       style="font-style:normal;font-weight:400;font-size:11px;font-family:Ubuntu;fill:none;stroke:#000000;stroke-width:1;stroke-linecap:square;stroke-linejoin:bevel;stroke-opacity:1" />
    <g
       transform="matrix(1.75404,0,0,-1.75404,16.5198,357.379)"
       font-size="11"
       font-weight="400"
       font-style="normal"
       id="g256"
       style="font-style:normal;font-weight:400;font-size:11px;font-family:Ubuntu;fill:#808080;fill-opacity:1;stroke:none">
      <circle
         cx="125"
         cy="86"
         r="3"
         id="circle254" />
    </g>
    <g
       transform="matrix(1.75404,0,0,-1.75404,16.5198,357.379)"
       font-size="11"
       font-weight="400"
       font-style="normal"
       id="g258"
       style="font-style:normal;font-weight:400;font-size:11px;font-family:Ubuntu;fill:none;stroke:#000000;stroke-width:1;stroke-linecap:square;stroke-linejoin:bevel;stroke-opacity:1" />
    <g
       transform="matrix(1.75404,0,0,-1.75404,16.5198,357.379)"
       font-size="11"
       font-weight="400"
       font-style="normal"
       id="g260"
       style="font-style:normal;font-weight:400;font-size:11px;font-family:Ubuntu;fill:none;stroke:#000000;stroke-width:1;stroke-linecap:square;stroke-linejoin:bevel;stroke-opacity:1" />
    <g
       transform="matrix(1.75404,0,0,-1.75404,16.5198,357.379)"
       font-size="11"
       font-weight="400"
       font-style="normal"
       id="g264"
       style="font-style:normal;font-weight:400;font-size:11px;font-family:Ubuntu;fill:#808080;fill-opacity:1;stroke:none">
      <circle
         cx="143"
         cy="69"
         r="3"
         id="circle262" />
    </g>
    <g
       transform="matrix(1.75404,0,0,-1.75404,16.5198,357.379)"
       font-size="11"
       font-weight="400"
       font-style="normal"
       id="g266"
       style="font-style:normal;font-weight:400;font-size:11px;font-family:Ubuntu;fill:none;stroke:#000000;stroke-width:1;stroke-linecap:square;stroke-linejoin:bevel;stroke-opacity:1" />
    <g
       transform="matrix(1.75404,0,0,-1.75404,16.5198,357.379)"
       font-size="11"
       font-weight="400"
       font-style="normal"
       id="g268"
       style="font-style:normal;font-weight:400;font-size:11px;font-family:Ubuntu;fill:none;stroke:#000000;stroke-width:1;stroke-linecap:square;stroke-linejoin:bevel;stroke-opacity:1" />
    <g
       transform="matrix(1.75404,0,0,-1.75404,16.5198,357.379)"
       font-size="11"
       font-weight="400"
       font-style="normal"
       id="g272"
       style="font-style:normal;font-weight:400;font-size:11px;font-family:Ubuntu;fill:#808080;fill-opacity:1;stroke:none">
      <circle
         cx="161"
         cy="81"
         r="3"
         id="circle270" />
    </g>
    <g
       transform="matrix(1.75404,0,0,-1.75404,16.5198,357.379)"
       font-size="11"
       font-weight="400"
       font-style="normal"
       id="g274"
       style="font-style:normal;font-weight:400;font-size:11px;font-family:Ubuntu;fill:none;stroke:#000000;stroke-width:1;stroke-linecap:square;stroke-linejoin:bevel;stroke-opacity:1" />
    <g
       transform="matrix(1.75404,0,0,-1.75404,16.5198,357.379)"
       font-size="11"
       font-weight="400"
       font-style="normal"
       id="g276"
       style="font-style:normal;font-weight:400;font-size:11px;font-family:Ubuntu;fill:none;stroke:#000000;stroke-width:1;stroke-linecap:square;stroke-linejoin:bevel;stroke-opacity:1" />
    <g
       transform="matrix(1.75404,0,0,-1.75404,16.5198,357.379)"
       font-size="11"
       font-weight="400"
       font-style="normal"
       id="g280"
       style="font-style:normal;font-weight:400;font-size:11px;font-family:Ubuntu;fill:#808080;fill-opacity:1;stroke:none">
      <circle
         cx="176"
         cy="98"
         r="3"
         id="circle278" />
    </g>
    <g
       transform="matrix(1.75404,0,0,-1.75404,16.5198,357.379)"
       font-size="11"
       font-weight="400"
       font-style="normal"
       id="g282"
       style="font-style:normal;font-weight:400;font-size:11px;font-family:Ubuntu;fill:none;stroke:#000000;stroke-width:1;stroke-linecap:square;stroke-linejoin:bevel;stroke-opacity:1" />
    <g
       transform="matrix(1.75404,0,0,-1.75404,16.5198,357.379)"
       font-size="11"
       font-weight="400"
       font-style="normal"
       id="g284"
       style="font-style:normal;font-weight:400;font-size:11px;font-family:Ubuntu;fill:none;stroke:#000000;stroke-width:1;stroke-linecap:square;stroke-linejoin:bevel;stroke-opacity:1" />
    <g
       transform="matrix(1.75404,0,0,-1.75404,16.5198,357.379)"
       font-size="11"
       font-weight="400"
       font-style="normal"
       id="g288"
       style="font-style:normal;font-weight:400;font-size:11px;font-family:Ubuntu;fill:#808080;fill-opacity:1;stroke:none">
      <circle
         cx="196"
         cy="116"
         r="3"
         id="circle286" />
    </g>
    <g
       transform="matrix(1.75404,0,0,-1.75404,16.5198,357.379)"
       font-size="11"
       font-weight="400"
       font-style="normal"
       id="g290"
       style="font-style:normal;font-weight:400;font-size:11px;font-family:Ubuntu;fill:none;stroke:#000000;stroke-width:1;stroke-linecap:square;stroke-linejoin:bevel;stroke-opacity:1" />
    <g
       transform="matrix(1.75404,0,0,-1.75404,16.5198,357.379)"
       font-size="11"
       font-weight="400"
       font-style="normal"
       id="g292"
       style="font-style:normal;font-weight:400;font-size:11px;font-family:Ubuntu;fill:none;stroke:#000000;stroke-width:1;stroke-linecap:square;stroke-linejoin:bevel;stroke-opacity:1" />
    <g
       transform="matrix(1.75404,0,0,-1.75404,16.5198,357.379)"
       font-size="11"
       font-weight="400"
       font-style="normal"
       id="g296"
       style="font-style:normal;font-weight:400;font-size:11px;font-family:Ubuntu;fill:#808080;fill-opacity:1;stroke:none">
      <circle
         cx="237"
         cy="103"
         r="3"
         id="circle294" />
    </g>
    <g
       transform="matrix(1.75404,0,0,-1.75404,16.5198,357.379)"
       font-size="11"
       font-weight="400"
       font-style="normal"
       id="g298"
       style="font-style:normal;font-weight:400;font-size:11px;font-family:Ubuntu;fill:none;stroke:#000000;stroke-width:1;stroke-linecap:square;stroke-linejoin:bevel;stroke-opacity:1" />
    <g
       transform="matrix(1.75404,0,0,-1.75404,16.5198,357.379)"
       font-size="11"
       font-weight="400"
       font-style="normal"
       id="g300"
       style="font-style:normal;font-weight:400;font-size:11px;font-family:Ubuntu;fill:none;stroke:#000000;stroke-width:1;stroke-linecap:square;stroke-linejoin:bevel;stroke-opacity:1" />
    <g
       transform="matrix(1.75404,0,0,-1.75404,16.5198,357.379)"
       font-size="11"
       font-weight="400"
       font-style="normal"
       id="g304"
       style="font-style:normal;font-weight:400;font-size:11px;font-family:Ubuntu;fill:#808080;fill-opacity:1;stroke:none">
      <circle
         cx="262"
         cy="77"
         r="3"
         id="circle302" />
    </g>
    <g
       transform="matrix(1.75404,0,0,-1.75404,16.5198,357.379)"
       font-size="11"
       font-weight="400"
       font-style="normal"
       id="g306"
       style="font-style:normal;font-weight:400;font-size:11px;font-family:Ubuntu;fill:none;stroke:#000000;stroke-width:1;stroke-linecap:square;stroke-linejoin:bevel;stroke-opacity:1" />
    <g
       transform="matrix(1.75404,0,0,-1.75404,16.5198,357.379)"
       font-size="11"
       font-weight="400"
       font-style="normal"
       id="g308"
       style="font-style:normal;font-weight:400;font-size:11px;font-family:Ubuntu;fill:none;stroke:#000000;stroke-width:1;stroke-linecap:square;stroke-linejoin:bevel;stroke-opacity:1" />
    <g
       transform="matrix(1.75404,0,0,-1.75404,16.5198,357.379)"
       font-size="11"
       font-weight="400"
       font-style="normal"
       id="g312"
       style="font-style:normal;font-weight:400;font-size:11px;font-family:Ubuntu;fill:#808080;fill-opacity:1;stroke:none">
      <circle
         cx="260"
         cy="41"
         r="3"
         id="circle310" />
    </g>
    <g
       transform="matrix(1.75404,0,0,-1.75404,16.5198,357.379)"
       font-size="11"
       font-weight="400"
       font-style="normal"
       id="g314"
       style="font-style:normal;font-weight:400;font-size:11px;font-family:Ubuntu;fill:none;stroke:#000000;stroke-width:1;stroke-linecap:square;stroke-linejoin:bevel;stroke-opacity:1" />
    <g
       transform="matrix(1.75404,0,0,-1.75404,16.5198,357.379)"
       font-size="11"
       font-weight="400"
       font-style="normal"
       id="g316"
       style="font-style:normal;font-weight:400;font-size:11px;font-family:Ubuntu;fill:none;stroke:#000000;stroke-width:1;stroke-linecap:square;stroke-linejoin:bevel;stroke-opacity:1" />
    <g
       transform="matrix(1.75404,0,0,-1.75404,16.5198,357.379)"
       font-size="11"
       font-weight="400"
       font-style="normal"
       id="g320"
       style="font-style:normal;font-weight:400;font-size:11px;font-family:Ubuntu;fill:#808080;fill-opacity:1;stroke:none">
      <circle
         cx="240"
         cy="11"
         r="3"
         id="circle318" />
    </g>
    <g
       transform="matrix(1.75404,0,0,-1.75404,16.5198,357.379)"
       font-size="11"
       font-weight="400"
       font-style="normal"
       id="g322"
       style="font-style:normal;font-weight:400;font-size:11px;font-family:Ubuntu;fill:none;stroke:#000000;stroke-width:1;stroke-linecap:square;stroke-linejoin:bevel;stroke-opacity:1" />
    <g
       transform="matrix(1.75404,0,0,-1.75404,16.5198,357.379)"
       font-size="11"
       font-weight="400"
       font-style="normal"
       id="g324"
       style="font-style:normal;font-weight:400;font-size:11px;font-family:Ubuntu;fill:none;stroke:#000000;stroke-width:1;stroke-linecap:square;stroke-linejoin:bevel;stroke-opacity:1" />
    <g
       transform="matrix(1.75404,0,0,-1.75404,16.5198,357.379)"
       font-size="11"
       font-weight="400"
       font-style="normal"
       id="g328"
       style="font-style:normal;font-weight:400;font-size:11px;font-family:Ubuntu;fill:#808080;fill-opacity:1;stroke:none">
      <circle
         cx="201"
         cy="8"
         r="3"
         id="circle326" />
    </g>
    <g
       transform="matrix(1.75404,0,0,-1.75404,16.5198,357.379)"
       font-size="11"
       font-weight="400"
       font-style="normal"
       id="g330"
       style="font-style:normal;font-weight:400;font-size:11px;font-family:Ubuntu;fill:none;stroke:#000000;stroke-width:1;stroke-linecap:square;stroke-linejoin:bevel;stroke-opacity:1" />
    <g
       transform="matrix(1.75404,0,0,-1.75404,16.5198,357.379)"
       font-size="11"
       font-weight="400"
       font-style="normal"
       id="g332"
       style="font-style:normal;font-weight:400;font-size:11px;font-family:Ubuntu;fill:none;stroke:#000000;stroke-width:1;stroke-linecap:square;stroke-linejoin:bevel;stroke-opacity:1" />
    <g
       transform="matrix(1.75404,0,0,-1.75404,16.5198,357.379)"
       font-size="11"
       font-weight="400"
       font-style="normal"
       id="g336"
       style="font-style:normal;font-weight:400;font-size:11px;font-family:Ubuntu;fill:#808080;fill-opacity:1;stroke:none">
      <circle
         cx="174"
         cy="28"
         r="3"
         id="circle334" />
    </g>
    <g
       transform="matrix(1.75404,0,0,-1.75404,16.5198,357.379)"
       font-size="11"
       font-weight="400"
       font-style="normal"
       id="g338"
       style="font-style:normal;font-weight:400;font-size:11px;font-family:Ubuntu;fill:none;stroke:#000000;stroke-width:1;stroke-linecap:square;stroke-linejoin:bevel;stroke-opacity:1" />
    <g
       transform="matrix(1.75404,0,0,-1.75404,16.5198,357.379)"
       font-size="11"
       font-weight="400"
       font-style="normal"
       id="g340"
       style="font-style:normal;font-weight:400;font-size:11px;font-family:Ubuntu;fill:none;stroke:#000000;stroke-width:1;stroke-linecap:square;stroke-linejoin:bevel;stroke-opacity:1" />
    <g
       transform="matrix(1.75404,0,0,-1.75404,16.5198,357.379)"
       font-size="11"
       font-weight="400"
       font-style="normal"
       id="g344"
       style="font-style:normal;font-weight:400;font-size:11px;font-family:Ubuntu;fill:#808080;fill-opacity:1;stroke:none">
      <circle
         cx="151"
         cy="40"
         r="3"
         id="circle342" />
    </g>
    <g
       transform="matrix(1.75404,0,0,-1.75404,16.5198,357.379)"
       font-size="11"
       font-weight="400"
       font-style="normal"
       id="g346"
       style="font-style:normal;font-weight:400;font-size:11px;font-family:Ubuntu;fill:none;stroke:#000000;stroke-width:1;stroke-linecap:square;stroke-linejoin:bevel;stroke-opacity:1" />
    <g
       transform="matrix(1.75404,0,0,-1.75404,16.5198,357.379)"
       font-size="11"
       font-weight="400"
       font-style="normal"
       id="g348"
       style="font-style:normal;font-weight:400;font-size:11px;font-family:Ubuntu;fill:none;stroke:#000000;stroke-width:1;stroke-linecap:square;stroke-linejoin:bevel;stroke-opacity:1" />
    <g
       transform="matrix(1.75404,0,0,-1.75404,16.5198,357.379)"
       font-size="11"
       font-weight="400"
       font-style="normal"
       id="g352"
       style="font-style:normal;font-weight:400;font-size:11px;font-family:Ubuntu;fill:#808080;fill-opacity:1;stroke:none">
      <circle
         cx="118"
         cy="32"
         r="3"
         id="circle350" />
    </g>
    <g
       transform="matrix(1.75404,0,0,-1.75404,16.5198,357.379)"
       font-size="11"
       font-weight="400"
       font-style="normal"
       id="g354"
       style="font-style:normal;font-weight:400;font-size:11px;font-family:Ubuntu;fill:none;stroke:#000000;stroke-width:1;stroke-linecap:square;stroke-linejoin:bevel;stroke-opacity:1" />
    <g
       transform="matrix(1.75404,0,0,-1.75404,16.5198,357.379)"
       font-size="11"
       font-weight="400"
       font-style="normal"
       id="g356"
       style="font-style:normal;font-weight:400;font-size:11px;font-family:Ubuntu;fill:none;stroke:#000000;stroke-width:1;stroke-linecap:square;stroke-linejoin:bevel;stroke-opacity:1" />
    <g
       transform="matrix(1.75404,0,0,-1.75404,16.5198,357.379)"
       font-size="11"
       font-weight="400"
       font-style="normal"
       id="g360"
       style="font-style:normal;font-weight:400;font-size:11px;font-family:Ubuntu;fill:#808080;fill-opacity:1;stroke:none">
      <circle
         cx="87"
         cy="3"
         r="3"
         id="circle358" />
    </g>
    <g
       transform="matrix(1.75404,0,0,-1.75404,16.5198,357.379)"
       font-size="11"
       font-weight="400"
       font-style="normal"
       id="g362"
       style="font-style:normal;font-weight:400;font-size:11px;font-family:Ubuntu;fill:none;stroke:#000000;stroke-width:1;stroke-linecap:square;stroke-linejoin:bevel;stroke-opacity:1" />
    <g
       transform="matrix(1.75404,0,0,-1.75404,16.5198,357.379)"
       font-size="11"
       font-weight="400"
       font-style="normal"
       id="g364"
       style="font-style:normal;font-weight:400;font-size:11px;font-family:Ubuntu;fill:none;stroke:#000000;stroke-width:1;stroke-linecap:square;stroke-linejoin:bevel;stroke-opacity:1" />
    <g
       transform="matrix(1.75404,0,0,-1.75404,16.5198,357.379)"
       font-size="11"
       font-weight="400"
       font-style="normal"
       id="g368"
       style="font-style:normal;font-weight:400;font-size:11px;font-family:Ubuntu;fill:#808080;fill-opacity:1;stroke:none">
      <circle
         cx="33"
         cy="5"
         r="3"
         id="circle366" />
    </g>
    <g
       transform="matrix(1.75404,0,0,-1.75404,16.5198,357.379)"
       font-size="11"
       font-weight="400"
       font-style="normal"
       id="g370"
       style="font-style:normal;font-weight:400;font-size:11px;font-family:Ubuntu;fill:none;stroke:#000000;stroke-width:1;stroke-linecap:square;stroke-linejoin:bevel;stroke-opacity:1" />
    <g
       transform="matrix(1.75404,0,0,-1.75404,16.5198,357.379)"
       font-size="11"
       font-weight="400"
       font-style="normal"
       id="g372"
       style="font-style:normal;font-weight:400;font-size:11px;font-family:Ubuntu;fill:none;stroke:#000000;stroke-width:1;stroke-linecap:square;stroke-linejoin:bevel;stroke-opacity:1" />
    <g
       transform="matrix(1.75404,0,0,-1.75404,16.5198,357.379)"
       font-size="11"
       font-weight="400"
       font-style="normal"
       id="g376"
       style="font-style:normal;font-weight:400;font-size:11px;font-family:Ubuntu;fill:#808080;fill-opacity:1;stroke:none">
      <circle
         cx="4"
         cy="36"
         r="3"
         id="circle374" />
    </g>
    <g
       transform="matrix(1.75404,0,0,-1.75404,16.5198,357.379)"
       font-size="11"
       font-weight="400"
       font-style="normal"
       id="g378"
       style="font-style:normal;font-weight:400;font-size:11px;font-family:Ubuntu;fill:none;stroke:#000000;stroke-width:1;stroke-linecap:square;stroke-linejoin:bevel;stroke-opacity:1" />
    <g
       transform="matrix(1.75404,0,0,-1.75404,16.5198,357.379)"
       font-size="11"
       font-weight="400"
       font-style="normal"
       id="g380"
       style="font-style:normal;font-weight:400;font-size:11px;font-family:Ubuntu;fill:none;stroke:#000000;stroke-width:1;stroke-linecap:square;stroke-linejoin:bevel;stroke-opacity:1" />
    <g
       transform="matrix(1.75404,0,0,-1.75404,16.5198,357.379)"
       font-size="11"
       font-weight="400"
       font-style="normal"
       id="g384"
       style="font-style:normal;font-weight:400;font-size:11px;font-family:Ubuntu;fill:#808080;fill-opacity:1;stroke:none">
      <circle
         cx="9"
         cy="80"
         r="3"
         id="circle382" />
    </g>
    <g
       transform="matrix(1.75404,0,0,-1.75404,16.5198,357.379)"
       font-size="11"
       font-weight="400"
       font-style="normal"
       id="g386"
       style="font-style:normal;font-weight:400;font-size:11px;font-family:Ubuntu;fill:none;stroke:#000000;stroke-width:1;stroke-linecap:square;stroke-linejoin:bevel;stroke-opacity:1" />
    <g
       transform="matrix(1.75404,0,0,-1.75404,16.5198,357.379)"
       font-size="11"
       font-weight="400"
       font-style="normal"
       id="g388"
       style="font-style:normal;font-weight:400;font-size:11px;font-family:Ubuntu;fill:none;stroke:#000000;stroke-width:1;stroke-linecap:square;stroke-linejoin:bevel;stroke-opacity:1" />
    <g
       transform="matrix(1.75404,0,0,-1.75404,16.5198,357.379)"
       font-size="11"
       font-weight="400"
       font-style="normal"
       id="g392"
       style="font-style:normal;font-weight:400;font-size:11px;font-family:Ubuntu;fill:#808080;fill-opacity:1;stroke:none">
      <circle
         cx="30"
         cy="108"
         r="3"
         id="circle390" />
    </g>
    <g
       transform="matrix(1.75404,0,0,-1.75404,16.5198,357.379)"
       font-size="11"
       font-weight="400"
       font-style="normal"
       id="g394"
       style="font-style:normal;font-weight:400;font-size:11px;font-family:Ubuntu;fill:none;stroke:#000000;stroke-width:1;stroke-linecap:square;stroke-linejoin:bevel;stroke-opacity:1" />
    <g
       transform="matrix(1.75404,0,0,-1.75404,16.5198,357.379)"
       font-size="11"
       font-weight="400"
       font-style="normal"
       id="g396"
       style="font-style:normal;font-weight:400;font-size:11px;font-family:Ubuntu;fill:none;stroke:#000000;stroke-width:1;stroke-linecap:square;stroke-linejoin:bevel;stroke-opacity:1" />
    <g
       transform="matrix(1.75404,0,0,-1.75404,16.5198,357.379)"
       font-size="11"
       font-weight="400"
       font-style="normal"
       id="g400"
       style="font-style:normal;font-weight:400;font-size:11px;font-family:Ubuntu;fill:#ff0000;fill-opacity:1;stroke:none">
      <circle
         cx="33"
         cy="5"
         r="3"
         id="circle398" />
    </g>
    <g
       transform="matrix(1.75404,0,0,-1.75404,16.5198,357.379)"
       font-size="11"
       font-weight="400"
       font-style="normal"
       id="g402"
       style="font-style:normal;font-weight:400;font-size:11px;font-family:Ubuntu;fill:none;stroke:#000000;stroke-width:1;stroke-linecap:square;stroke-linejoin:bevel;stroke-opacity:1" />
    <g
       transform="matrix(1.75404,0,0,-1.75404,16.5198,357.379)"
       font-size="11"
       font-weight="400"
       font-style="normal"
       id="g404"
       style="font-style:normal;font-weight:400;font-size:11px;font-family:Ubuntu;fill:none;stroke:#000000;stroke-width:1;stroke-linecap:square;stroke-linejoin:bevel;stroke-opacity:1" />
    <g
       transform="matrix(1.75404,0,0,-1.75404,16.5198,357.379)"
       font-size="11"
       font-weight="400"
       font-style="normal"
       id="g408"
       style="font-style:normal;font-weight:400;font-size:11px;font-family:Ubuntu;fill:#ff0000;fill-opacity:1;stroke:none">
      <circle
         cx="9"
         cy="80"
         r="3"
         id="circle406" />
    </g>
    <g
       transform="matrix(1.75404,0,0,-1.75404,16.5198,357.379)"
       font-size="11"
       font-weight="400"
       font-style="normal"
       id="g410"
       style="font-style:normal;font-weight:400;font-size:11px;font-family:Ubuntu;fill:none;stroke:#000000;stroke-width:1;stroke-linecap:square;stroke-linejoin:bevel;stroke-opacity:1" />
    <g
       transform="matrix(1.75404,0,0,-1.75404,16.5198,357.379)"
       font-size="11"
       font-weight="400"
       font-style="normal"
       id="g412"
       style="font-style:normal;font-weight:400;font-size:11px;font-family:Ubuntu;fill:none;stroke:#000000;stroke-width:1;stroke-linecap:square;stroke-linejoin:bevel;stroke-opacity:1" />
    <g
       transform="matrix(1.75404,0,0,-1.75404,16.5198,357.379)"
       font-size="11"
       font-weight="400"
       font-style="normal"
       id="g416"
       style="font-style:normal;font-weight:400;font-size:11px;font-family:Ubuntu;fill:#ff0000;fill-opacity:1;stroke:none">
      <circle
         cx="176"
         cy="98"
         r="3"
         id="circle414" />
    </g>
    <g
       transform="matrix(1.75404,0,0,-1.75404,16.5198,357.379)"
       font-size="11"
       font-weight="400"
       font-style="normal"
       id="g418"
       style="font-style:normal;font-weight:400;font-size:11px;font-family:Ubuntu;fill:none;stroke:#000000;stroke-width:1;stroke-linecap:square;stroke-linejoin:bevel;stroke-opacity:1" />
    <g
       transform="matrix(1.75404,0,0,-1.75404,16.5198,357.379)"
       font-size="11"
       font-weight="400"
       font-style="normal"
       id="g420"
       style="font-style:normal;font-weight:400;font-size:11px;font-family:Ubuntu;fill:none;stroke:#000000;stroke-width:1;stroke-linecap:square;stroke-linejoin:bevel;stroke-opacity:1" />
    <g
       transform="matrix(1.75404,0,0,-1.75404,16.5198,357.379)"
       font-size="11"
       font-weight="400"
       font-style="normal"
       id="g424"
       style="font-style:normal;font-weight:400;font-size:11px;font-family:Ubuntu;fill:#ff0000;fill-opacity:1;stroke:none">
      <circle
         cx="151"
         cy="40"
         r="3"
         id="circle422" />
    </g>
    <g
       transform="matrix(1.75404,0,0,-1.75404,16.5198,357.379)"
       font-size="11"
       font-weight="400"
       font-style="normal"
       id="g426"
       style="font-style:normal;font-weight:400;font-size:11px;font-family:Ubuntu;fill:none;stroke:#000000;stroke-width:1;stroke-linecap:square;stroke-linejoin:bevel;stroke-opacity:1" />
    <g
       transform="matrix(1.75404,0,0,-1.75404,16.5198,357.379)"
       font-size="11"
       font-weight="400"
       font-style="normal"
       id="g428"
       style="font-style:normal;font-weight:400;font-size:11px;font-family:Ubuntu;fill:none;stroke:#000000;stroke-width:1;stroke-linecap:square;stroke-linejoin:bevel;stroke-opacity:1" />
    <g
       transform="matrix(1.75404,0,0,-1.75404,16.5198,357.379)"
       font-size="11"
       font-weight="400"
       font-style="normal"
       id="g432"
       style="font-style:normal;font-weight:400;font-size:11px;font-family:Ubuntu;fill:#ff0000;fill-opacity:1;stroke:none">
      <circle
         cx="118"
         cy="32"
         r="3"
         id="circle430" />
    </g>
    <g
       transform="matrix(1.75404,0,0,-1.75404,16.5198,357.379)"
       font-size="11"
       font-weight="400"
       font-style="normal"
       id="g434"
       style="font-style:normal;font-weight:400;font-size:11px;font-family:Ubuntu;fill:none;stroke:#000000;stroke-width:1;stroke-linecap:square;stroke-linejoin:bevel;stroke-opacity:1" />
    <g
       transform="matrix(1.75404,0,0,-1.75404,16.5198,357.379)"
       font-size="11"
       font-weight="400"
       font-style="normal"
       id="g436"
       style="font-style:normal;font-weight:400;font-size:11px;font-family:Ubuntu;fill:none;stroke:#000000;stroke-width:1;stroke-linecap:square;stroke-linejoin:bevel;stroke-opacity:1" />
    <g
       transform="matrix(1.75404,0,0,-1.75404,16.5198,357.379)"
       font-size="11"
       font-weight="400"
       font-style="normal"
       id="g440"
       style="font-style:normal;font-weight:400;font-size:11px;font-family:Ubuntu;fill:#ff0000;fill-opacity:1;stroke:none">
      <circle
         cx="143"
         cy="69"
         r="3"
         id="circle438" />
    </g>
    <g
       transform="matrix(1.75404,0,0,-1.75404,16.5198,357.379)"
       font-size="11"
       font-weight="400"
       font-style="normal"
       id="g442"
       style="font-style:normal;font-weight:400;font-size:11px;font-family:Ubuntu;fill:none;stroke:#000000;stroke-width:1;stroke-linecap:square;stroke-linejoin:bevel;stroke-opacity:1" />
    <g
       transform="matrix(1.75404,0,0,-1.75404,16.5198,357.379)"
       font-size="11"
       font-weight="400"
       font-style="normal"
       id="g444"
       style="font-style:normal;font-weight:400;font-size:11px;font-family:Ubuntu;fill:none;stroke:#000000;stroke-width:1;stroke-linecap:square;stroke-linejoin:bevel;stroke-opacity:1" />
    <g
       transform="matrix(1.75404,0,0,-1.75404,16.5198,357.379)"
       font-size="11"
       font-weight="400"
       font-style="normal"
       id="g448"
       style="font-style:normal;font-weight:400;font-size:11px;font-family:Ubuntu;fill:#ff0000;fill-opacity:1;stroke:none">
      <circle
         cx="4"
         cy="36"
         r="3"
         id="circle446" />
    </g>
    <g
       transform="matrix(1.75404,0,0,-1.75404,16.5198,357.379)"
       font-size="11"
       font-weight="400"
       font-style="normal"
       id="g450"
       style="font-style:normal;font-weight:400;font-size:11px;font-family:Ubuntu;fill:none;stroke:#000000;stroke-width:1;stroke-linecap:square;stroke-linejoin:bevel;stroke-opacity:1" />
    <g
       transform="matrix(1.75404,0,0,-1.75404,16.5198,357.379)"
       font-size="11"
       font-weight="400"
       font-style="normal"
       id="g452"
       style="font-style:normal;font-weight:400;font-size:11px;font-family:Ubuntu;fill:none;stroke:#000000;stroke-width:1;stroke-linecap:square;stroke-linejoin:bevel;stroke-opacity:1" />
    <g
       transform="matrix(1.75404,0,0,-1.75404,16.5198,357.379)"
       font-size="11"
       font-weight="400"
       font-style="normal"
       id="g456"
       style="font-style:normal;font-weight:400;font-size:11px;font-family:Ubuntu;fill:#ff0000;fill-opacity:1;stroke:none">
      <circle
         cx="87"
         cy="3"
         r="3"
         id="circle454" />
    </g>
    <g
       transform="matrix(1.75404,0,0,-1.75404,16.5198,357.379)"
       font-size="11"
       font-weight="400"
       font-style="normal"
       id="g458"
       style="font-style:normal;font-weight:400;font-size:11px;font-family:Ubuntu;fill:none;stroke:#000000;stroke-width:1;stroke-linecap:square;stroke-linejoin:bevel;stroke-opacity:1" />
    <g
       transform="matrix(1.75404,0,0,-1.75404,16.5198,357.379)"
       font-size="11"
       font-weight="400"
       font-style="normal"
       id="g460"
       style="font-style:normal;font-weight:400;font-size:11px;font-family:Ubuntu;fill:none;stroke:#000000;stroke-width:1;stroke-linecap:square;stroke-linejoin:bevel;stroke-opacity:1" />
    <g
       transform="matrix(1.75404,0,0,-1.75404,16.5198,357.379)"
       font-size="11"
       font-weight="400"
       font-style="normal"
       id="g464"
       style="font-style:normal;font-weight:400;font-size:11px;font-family:Ubuntu;fill:#ff0000;fill-opacity:1;stroke:none">
      <circle
         cx="125"
         cy="86"
         r="3"
         id="circle462" />
    </g>
    <g
       transform="matrix(1.75404,0,0,-1.75404,16.5198,357.379)"
       font-size="11"
       font-weight="400"
       font-style="normal"
       id="g466"
       style="font-style:normal;font-weight:400;font-size:11px;font-family:Ubuntu;fill:none;stroke:#000000;stroke-width:1;stroke-linecap:square;stroke-linejoin:bevel;stroke-opacity:1" />
    <g
       transform="matrix(1.75404,0,0,-1.75404,16.5198,357.379)"
       font-size="11"
       font-weight="400"
       font-style="normal"
       id="g468"
       style="font-style:normal;font-weight:400;font-size:11px;font-family:Ubuntu;fill:none;stroke:#000000;stroke-width:1;stroke-linecap:square;stroke-linejoin:bevel;stroke-opacity:1" />
    <g
       transform="matrix(1.75404,0,0,-1.75404,16.5198,357.379)"
       font-size="11"
       font-weight="400"
       font-style="normal"
       id="g472"
       style="font-style:normal;font-weight:400;font-size:11px;font-family:Ubuntu;fill:#ff0000;fill-opacity:1;stroke:none">
      <circle
         cx="99"
         cy="107"
         r="3"
         id="circle470" />
    </g>
    <g
       transform="matrix(1.75404,0,0,-1.75404,16.5198,357.379)"
       font-size="11"
       font-weight="400"
       font-style="normal"
       id="g474"
       style="font-style:normal;font-weight:400;font-size:11px;font-family:Ubuntu;fill:none;stroke:#000000;stroke-width:1;stroke-linecap:square;stroke-linejoin:bevel;stroke-opacity:1" />
    <g
       transform="matrix(1.75404,0,0,-1.75404,16.5198,357.379)"
       font-size="11"
       font-weight="400"
       font-style="normal"
       id="g476"
       style="font-style:normal;font-weight:400;font-size:11px;font-family:Ubuntu;fill:none;stroke:#000000;stroke-width:1;stroke-linecap:square;stroke-linejoin:bevel;stroke-opacity:1" />
    <g
       transform="matrix(1.75404,0,0,-1.75404,16.5198,357.379)"
       font-size="11"
       font-weight="400"
       font-style="normal"
       id="g480"
       style="font-style:normal;font-weight:400;font-size:11px;font-family:Ubuntu;fill:#ff0000;fill-opacity:1;stroke:none">
      <circle
         cx="69"
         cy="123"
         r="3"
         id="circle478" />
    </g>
    <g
       transform="matrix(1.75404,0,0,-1.75404,16.5198,357.379)"
       font-size="11"
       font-weight="400"
       font-style="normal"
       id="g482"
       style="font-style:normal;font-weight:400;font-size:11px;font-family:Ubuntu;fill:none;stroke:#000000;stroke-width:1;stroke-linecap:square;stroke-linejoin:bevel;stroke-opacity:1" />
    <g
       transform="matrix(1.75404,0,0,-1.75404,16.5198,357.379)"
       font-size="11"
       font-weight="400"
       font-style="normal"
       id="g484"
       style="font-style:normal;font-weight:400;font-size:11px;font-family:Ubuntu;fill:none;stroke:#000000;stroke-width:1;stroke-linecap:square;stroke-linejoin:bevel;stroke-opacity:1" />
    <g
       transform="matrix(1.75404,0,0,-1.75404,16.5198,357.379)"
       font-size="11"
       font-weight="400"
       font-style="normal"
       id="g488"
       style="font-style:normal;font-weight:400;font-size:11px;font-family:Ubuntu;fill:#ff0000;fill-opacity:1;stroke:none">
      <circle
         cx="30"
         cy="108"
         r="3"
         id="circle486" />
    </g>
    <g
       transform="matrix(1.75404,0,0,-1.75404,16.5198,357.379)"
       font-size="11"
       font-weight="400"
       font-style="normal"
       id="g490"
       style="font-style:normal;font-weight:400;font-size:11px;font-family:Ubuntu;fill:none;stroke:#000000;stroke-width:1;stroke-linecap:square;stroke-linejoin:bevel;stroke-opacity:1" />
    <g
       transform="matrix(1.75404,0,0,-1.75404,16.5198,357.379)"
       font-size="11"
       font-weight="400"
       font-style="normal"
       id="g492"
       style="font-style:normal;font-weight:400;font-size:11px;font-family:Ubuntu;fill:none;stroke:#000000;stroke-width:1;stroke-linecap:square;stroke-linejoin:bevel;stroke-opacity:1" />
    <g
       transform="matrix(1.75404,0,0,-1.75404,16.5198,357.379)"
       font-size="11"
       font-weight="400"
       font-style="normal"
       id="g496"
       style="font-style:normal;font-weight:400;font-size:11px;font-family:Ubuntu;fill:#ff0000;fill-opacity:1;stroke:none">
      <circle
         cx="237"
         cy="103"
         r="3"
         id="circle494" />
    </g>
    <g
       transform="matrix(1.75404,0,0,-1.75404,16.5198,357.379)"
       font-size="11"
       font-weight="400"
       font-style="normal"
       id="g498"
       style="font-style:normal;font-weight:400;font-size:11px;font-family:Ubuntu;fill:none;stroke:#000000;stroke-width:1;stroke-linecap:square;stroke-linejoin:bevel;stroke-opacity:1" />
    <g
       transform="matrix(1.75404,0,0,-1.75404,16.5198,357.379)"
       font-size="11"
       font-weight="400"
       font-style="normal"
       id="g500"
       style="font-style:normal;font-weight:400;font-size:11px;font-family:Ubuntu;fill:none;stroke:#000000;stroke-width:1;stroke-linecap:square;stroke-linejoin:bevel;stroke-opacity:1" />
    <g
       transform="matrix(1.75404,0,0,-1.75404,16.5198,357.379)"
       font-size="11"
       font-weight="400"
       font-style="normal"
       id="g504"
       style="font-style:normal;font-weight:400;font-size:11px;font-family:Ubuntu;fill:#ff0000;fill-opacity:1;stroke:none">
      <circle
         cx="196"
         cy="116"
         r="3"
         id="circle502" />
    </g>
    <g
       transform="matrix(1.75404,0,0,-1.75404,16.5198,357.379)"
       font-size="11"
       font-weight="400"
       font-style="normal"
       id="g506"
       style="font-style:normal;font-weight:400;font-size:11px;font-family:Ubuntu;fill:none;stroke:#000000;stroke-width:1;stroke-linecap:square;stroke-linejoin:bevel;stroke-opacity:1" />
    <g
       transform="matrix(1.75404,0,0,-1.75404,16.5198,357.379)"
       font-size="11"
       font-weight="400"
       font-style="normal"
       id="g508"
       style="font-style:normal;font-weight:400;font-size:11px;font-family:Ubuntu;fill:none;stroke:#000000;stroke-width:1;stroke-linecap:square;stroke-linejoin:bevel;stroke-opacity:1" />
    <g
       transform="matrix(1.75404,0,0,-1.75404,16.5198,357.379)"
       font-size="11"
       font-weight="400"
       font-style="normal"
       id="g512"
       style="font-style:normal;font-weight:400;font-size:11px;font-family:Ubuntu;fill:#ff0000;fill-opacity:1;stroke:none">
      <circle
         cx="161"
         cy="81"
         r="3"
         id="circle510" />
    </g>
    <g
       transform="matrix(1.75404,0,0,-1.75404,16.5198,357.379)"
       font-size="11"
       font-weight="400"
       font-style="normal"
       id="g514"
       style="font-style:normal;font-weight:400;font-size:11px;font-family:Ubuntu;fill:none;stroke:#000000;stroke-width:1;stroke-linecap:square;stroke-linejoin:bevel;stroke-opacity:1" />
    <g
       transform="matrix(1.75404,0,0,-1.75404,16.5198,357.379)"
       font-size="11"
       font-weight="400"
       font-style="normal"
       id="g516"
       style="font-style:normal;font-weight:400;font-size:11px;font-family:Ubuntu;fill:none;stroke:#000000;stroke-width:1;stroke-linecap:square;stroke-linejoin:bevel;stroke-opacity:1" />
    <g
       transform="matrix(1.75404,0,0,-1.75404,16.5198,357.379)"
       font-size="11"
       font-weight="400"
       font-style="normal"
       id="g520"
       style="font-style:normal;font-weight:400;font-size:11px;font-family:Ubuntu;fill:#ff0000;fill-opacity:1;stroke:none">
      <circle
         cx="262"
         cy="77"
         r="3"
         id="circle518" />
    </g>
    <g
       transform="matrix(1.75404,0,0,-1.75404,16.5198,357.379)"
       font-size="11"
       font-weight="400"
       font-style="normal"
       id="g522"
       style="font-style:normal;font-weight:400;font-size:11px;font-family:Ubuntu;fill:none;stroke:#000000;stroke-width:1;stroke-linecap:square;stroke-linejoin:bevel;stroke-opacity:1" />
    <g
       transform="matrix(1.75404,0,0,-1.75404,16.5198,357.379)"
       font-size="11"
       font-weight="400"
       font-style="normal"
       id="g524"
       style="font-style:normal;font-weight:400;font-size:11px;font-family:Ubuntu;fill:none;stroke:#000000;stroke-width:1;stroke-linecap:square;stroke-linejoin:bevel;stroke-opacity:1" />
    <g
       transform="matrix(1.75404,0,0,-1.75404,16.5198,357.379)"
       font-size="11"
       font-weight="400"
       font-style="normal"
       id="g528"
       style="font-style:normal;font-weight:400;font-size:11px;font-family:Ubuntu;fill:#ff0000;fill-opacity:1;stroke:none">
      <circle
         cx="260"
         cy="41"
         r="3"
         id="circle526" />
    </g>
    <g
       transform="matrix(1.75404,0,0,-1.75404,16.5198,357.379)"
       font-size="11"
       font-weight="400"
       font-style="normal"
       id="g530"
       style="font-style:normal;font-weight:400;font-size:11px;font-family:Ubuntu;fill:none;stroke:#000000;stroke-width:1;stroke-linecap:square;stroke-linejoin:bevel;stroke-opacity:1" />
    <g
       transform="matrix(1.75404,0,0,-1.75404,16.5198,357.379)"
       font-size="11"
       font-weight="400"
       font-style="normal"
       id="g532"
       style="font-style:normal;font-weight:400;font-size:11px;font-family:Ubuntu;fill:none;stroke:#000000;stroke-width:1;stroke-linecap:square;stroke-linejoin:bevel;stroke-opacity:1" />
    <g
       transform="matrix(1.75404,0,0,-1.75404,16.5198,357.379)"
       font-size="11"
       font-weight="400"
       font-style="normal"
       id="g536"
       style="font-style:normal;font-weight:400;font-size:11px;font-family:Ubuntu;fill:#ff0000;fill-opacity:1;stroke:none">
      <circle
         cx="240"
         cy="11"
         r="3"
         id="circle534" />
    </g>
    <g
       transform="matrix(1.75404,0,0,-1.75404,16.5198,357.379)"
       font-size="11"
       font-weight="400"
       font-style="normal"
       id="g538"
       style="font-style:normal;font-weight:400;font-size:11px;font-family:Ubuntu;fill:none;stroke:#000000;stroke-width:1;stroke-linecap:square;stroke-linejoin:bevel;stroke-opacity:1" />
    <g
       transform="matrix(1.75404,0,0,-1.75404,16.5198,357.379)"
       font-size="11"
       font-weight="400"
       font-style="normal"
       id="g540"
       style="font-style:normal;font-weight:400;font-size:11px;font-family:Ubuntu;fill:none;stroke:#000000;stroke-width:1;stroke-linecap:square;stroke-linejoin:bevel;stroke-opacity:1" />
    <g
       transform="matrix(1.75404,0,0,-1.75404,16.5198,357.379)"
       font-size="11"
       font-weight="400"
       font-style="normal"
       id="g544"
       style="font-style:normal;font-weight:400;font-size:11px;font-family:Ubuntu;fill:#ff0000;fill-opacity:1;stroke:none">
      <circle
         cx="174"
         cy="28"
         r="3"
         id="circle542" />
    </g>
    <g
       transform="matrix(1.75404,0,0,-1.75404,16.5198,357.379)"
       font-size="11"
       font-weight="400"
       font-style="normal"
       id="g546"
       style="font-style:normal;font-weight:400;font-size:11px;font-family:Ubuntu;fill:none;stroke:#000000;stroke-width:1;stroke-linecap:square;stroke-linejoin:bevel;stroke-opacity:1" />
    <g
       transform="matrix(1.75404,0,0,-1.75404,16.5198,357.379)"
       font-size="11"
       font-weight="400"
       font-style="normal"
       id="g548"
       style="font-style:normal;font-weight:400;font-size:11px;font-family:Ubuntu;fill:none;stroke:#000000;stroke-width:1;stroke-linecap:square;stroke-linejoin:bevel;stroke-opacity:1" />
    <g
       transform="matrix(1.75404,0,0,-1.75404,16.5198,357.379)"
       font-size="11"
       font-weight="400"
       font-style="normal"
       id="g552"
       style="font-style:normal;font-weight:400;font-size:11px;font-family:Ubuntu;fill:#ff0000;fill-opacity:1;stroke:none">
      <circle
         cx="201"
         cy="8"
         r="3"
         id="circle550" />
    </g>
    <g
       transform="matrix(1.75404,0,0,-1.75404,16.5198,357.379)"
       font-size="11"
       font-weight="400"
       font-style="normal"
       id="g554"
       style="font-style:normal;font-weight:400;font-size:11px;font-family:Ubuntu;fill:none;stroke:#000000;stroke-width:1;stroke-linecap:square;stroke-linejoin:bevel;stroke-opacity:1" />
    <g
       font-size="11"
       font-weight="400"
       font-style="normal"
       id="g556"
       style="font-style:normal;font-weight:400;font-size:11px;font-family:Ubuntu;fill:none;stroke:#000000;stroke-width:1;stroke-linecap:square;stroke-linejoin:bevel;stroke-opacity:1" />
  </g>
</svg>
